%YAML 1.1
%TAG !u! tag:unity3d.com,2011:
--- !u!74 &7400000
AnimationClip:
  m_ObjectHideFlags: 0
  m_CorrespondingSourceObject: {fileID: 0}
  m_PrefabInstance: {fileID: 0}
  m_PrefabAsset: {fileID: 0}
  m_Name: AlternateFootstep
  serializedVersion: 6
  m_Legacy: 0
  m_Compressed: 0
  m_UseHighQualityCurve: 1
  m_RotationCurves: []
  m_CompressedRotationCurves: []
  m_EulerCurves: []
  m_PositionCurves: []
  m_ScaleCurves: []
  m_FloatCurves: []
  m_PPtrCurves:
  - curve:
    - time: 0
      value: {fileID: 21300000, guid: 797a2d12213310e49ab891cba95ab914, type: 3}
    - time: 0.033333335
      value: {fileID: 21300000, guid: 9525e2688ea6d7e4b94e2b38b72c5795, type: 3}
    - time: 0.06666667
      value: {fileID: 21300000, guid: ea053115cd3c4fe42be6c93574479176, type: 3}
    - time: 0.1
      value: {fileID: 21300000, guid: 539f0286d578da042b4f7914c287f027, type: 3}
    - time: 0.13333334
      value: {fileID: 21300000, guid: fb3db7dd84ca020439ba0c85220378bf, type: 3}
    - time: 0.16666667
      value: {fileID: 21300000, guid: 932890d0ab10f3e48adcd1c743673631, type: 3}
    - time: 0.2
      value: {fileID: 21300000, guid: 1a4d49859709c664d83153a67bc4792c, type: 3}
    - time: 0.23333333
      value: {fileID: 21300000, guid: 26b25c6470d3b824c8ad1fc5bb659a67, type: 3}
    - time: 0.26666668
      value: {fileID: 21300000, guid: cbfc537a01761e14aa091757a3383f05, type: 3}
    - time: 0.3
      value: {fileID: 21300000, guid: 1604650b53d856c41823df187ad252f8, type: 3}
    - time: 0.33333334
      value: {fileID: 21300000, guid: 3151aac5b3977004da37259db155378a, type: 3}
    - time: 0.36666667
      value: {fileID: 21300000, guid: 0aa91cdd9af248c48b3779b046b49824, type: 3}
    - time: 0.4
      value: {fileID: 21300000, guid: abc678baca183354b82d274ee1fb50f9, type: 3}
    - time: 0.43333334
      value: {fileID: 21300000, guid: 1292c45e63325e84592c9eebdb410ccf, type: 3}
    - time: 0.46666667
      value: {fileID: 21300000, guid: 08002aa1d2c13294d917012ef3b89636, type: 3}
    attribute: m_Sprite
    path: 
    classID: 212
    script: {fileID: 0}
  m_SampleRate: 30
  m_WrapMode: 0
  m_Bounds:
    m_Center: {x: 0, y: 0, z: 0}
    m_Extent: {x: 0, y: 0, z: 0}
  m_ClipBindingConstant:
    genericBindings:
    - serializedVersion: 2
      path: 0
      attribute: 0
      script: {fileID: 0}
      typeID: 212
      customType: 23
      isPPtrCurve: 1
    pptrCurveMapping:
    - {fileID: 21300000, guid: 797a2d12213310e49ab891cba95ab914, type: 3}
    - {fileID: 21300000, guid: 9525e2688ea6d7e4b94e2b38b72c5795, type: 3}
    - {fileID: 21300000, guid: ea053115cd3c4fe42be6c93574479176, type: 3}
    - {fileID: 21300000, guid: 539f0286d578da042b4f7914c287f027, type: 3}
    - {fileID: 21300000, guid: fb3db7dd84ca020439ba0c85220378bf, type: 3}
    - {fileID: 21300000, guid: 932890d0ab10f3e48adcd1c743673631, type: 3}
    - {fileID: 21300000, guid: 1a4d49859709c664d83153a67bc4792c, type: 3}
    - {fileID: 21300000, guid: 26b25c6470d3b824c8ad1fc5bb659a67, type: 3}
    - {fileID: 21300000, guid: cbfc537a01761e14aa091757a3383f05, type: 3}
    - {fileID: 21300000, guid: 1604650b53d856c41823df187ad252f8, type: 3}
    - {fileID: 21300000, guid: 3151aac5b3977004da37259db155378a, type: 3}
    - {fileID: 21300000, guid: 0aa91cdd9af248c48b3779b046b49824, type: 3}
    - {fileID: 21300000, guid: abc678baca183354b82d274ee1fb50f9, type: 3}
    - {fileID: 21300000, guid: 1292c45e63325e84592c9eebdb410ccf, type: 3}
    - {fileID: 21300000, guid: 08002aa1d2c13294d917012ef3b89636, type: 3}
  m_AnimationClipSettings:
    serializedVersion: 2
    m_AdditiveReferencePoseClip: {fileID: 0}
    m_AdditiveReferencePoseTime: 0
    m_StartTime: 0
    m_StopTime: 0.5
    m_OrientationOffsetY: 0
    m_Level: 0
    m_CycleOffset: 0
    m_HasAdditiveReferencePose: 0
    m_LoopTime: 0
    m_LoopBlend: 0
    m_LoopBlendOrientation: 0
    m_LoopBlendPositionY: 0
    m_LoopBlendPositionXZ: 0
    m_KeepOriginalOrientation: 0
    m_KeepOriginalPositionY: 1
    m_KeepOriginalPositionXZ: 0
    m_HeightFromFeet: 0
    m_Mirror: 0
  m_EditorCurves: []
  m_EulerEditorCurves: []
  m_HasGenericRootTransform: 0
  m_HasMotionFloatCurves: 0
  m_Events: []
