%YAML 1.1
%TAG !u! tag:unity3d.com,2011:
--- !u!21 &2100000
Material:
  serializedVersion: 6
  m_ObjectHideFlags: 0
  m_CorrespondingSourceObject: {fileID: 0}
  m_PrefabInstance: {fileID: 0}
  m_PrefabAsset: {fileID: 0}
  m_Name: Ferr2d-Basic-Volcano-Fill-Write-Platfrom
  m_Shader: {fileID: -6465566751694194690, guid: f414015e255296946bbd8ae75f3e217d,
    type: 3}
  m_ShaderKeywords: _ALPHAPREMULTIPLY_ON _NORMALMAP _OVERLAY_EQUAL _PARALLAXMAP _SPECGLOSSMAP
    _SPECULARHIGHLIGHTS_OFF _STENCILEFUNCTION_EQUAL _STENCILVALUE_SHOWINSIDE
  m_LightmapFlags: 4
  m_EnableInstancingVariants: 0
  m_DoubleSidedGI: 0
  m_CustomRenderQueue: -1
  stringTagMap:
    AlphaDepth: true
    IGNOREPROJECTOR: true
  disabledShaderPasses: []
  m_SavedProperties:
    serializedVersion: 3
    m_TexEnvs:
    - Texture2D_38403C2:
        m_Texture: {fileID: 0}
        m_Scale: {x: 1, y: 1}
        m_Offset: {x: 0, y: 0}
    - Texture2D_F54EEE0A:
        m_Texture: {fileID: 0}
        m_Scale: {x: 1, y: 1}
        m_Offset: {x: 0, y: 0}
    - _AlphaTex:
        m_Texture: {fileID: 0}
        m_Scale: {x: 1, y: 1}
        m_Offset: {x: 0, y: 0}
    - _BlendTex:
        m_Texture: {fileID: 0}
        m_Scale: {x: 1, y: 1}
        m_Offset: {x: 0, y: 0}
    - _BumpMap:
        m_Texture: {fileID: 2800000, guid: 38634859a67ed1e439220265c0683817, type: 3}
        m_Scale: {x: 1, y: 1}
        m_Offset: {x: 0, y: 0}
    - _DetailAlbedoMap:
        m_Texture: {fileID: 0}
        m_Scale: {x: 1, y: 1}
        m_Offset: {x: 0, y: 0}
    - _DetailMask:
        m_Texture: {fileID: 0}
        m_Scale: {x: 1, y: 1}
        m_Offset: {x: 0, y: 0}
    - _DetailNormalMap:
        m_Texture: {fileID: 0}
        m_Scale: {x: 1, y: 1}
        m_Offset: {x: 0, y: 0}
    - _DiffuseRamp:
        m_Texture: {fileID: 0}
        m_Scale: {x: 1, y: 1}
        m_Offset: {x: 0, y: 0}
    - _EmissionMap:
        m_Texture: {fileID: 0}
        m_Scale: {x: 1, y: 1}
        m_Offset: {x: 0, y: 0}
    - _MainTex:
        m_Texture: {fileID: 2800000, guid: d16f67cfaf5b1374caef48986de3c657, type: 3}
        m_Scale: {x: 1, y: 1}
        m_Offset: {x: 0, y: 0}
    - _MaskTex:
        m_Texture: {fileID: 0}
        m_Scale: {x: 1, y: 1}
        m_Offset: {x: 0, y: 0}
    - _MetallicGlossMap:
        m_Texture: {fileID: 0}
        m_Scale: {x: 1, y: 1}
        m_Offset: {x: 0, y: 0}
    - _NormalMap:
        m_Texture: {fileID: 2800000, guid: 61b38fb9ae2b7a64d9971569003ae66f, type: 3}
        m_Scale: {x: 1, y: 1}
        m_Offset: {x: 0, y: 0}
    - _OcclusionMap:
        m_Texture: {fileID: 0}
        m_Scale: {x: 1, y: 1}
        m_Offset: {x: 0, y: 0}
    - _ParallaxMap:
        m_Texture: {fileID: 2800000, guid: 66f6aed338d75cc4dbcdf66c7e3646a4, type: 3}
        m_Scale: {x: 1, y: 1}
        m_Offset: {x: 0, y: 0}
    - _Ramp:
        m_Texture: {fileID: 2800000, guid: 4a056241e2722dc46a7262a8e7073fd9, type: 3}
        m_Scale: {x: 1, y: 1}
        m_Offset: {x: 0, y: 0}
    - _SpecGlossMap:
        m_Texture: {fileID: 2800000, guid: 66f6aed338d75cc4dbcdf66c7e3646a4, type: 3}
        m_Scale: {x: 1, y: 1}
        m_Offset: {x: 0, y: 0}
    - _Texture0:
        m_Texture: {fileID: 2800000, guid: 61b38fb9ae2b7a64d9971569003ae66f, type: 3}
        m_Scale: {x: 1, y: 1}
        m_Offset: {x: 0, y: 0}
    - _ToonShade:
        m_Texture: {fileID: 2800000, guid: 620416f25de8f874fae3f34094413b84, type: 3}
        m_Scale: {x: 1, y: 1}
        m_Offset: {x: 0, y: 0}
    - _texcoord:
        m_Texture: {fileID: 0}
        m_Scale: {x: 1, y: 1}
        m_Offset: {x: 0, y: 0}
    - unity_Lightmaps:
        m_Texture: {fileID: 0}
        m_Scale: {x: 1, y: 1}
        m_Offset: {x: 0, y: 0}
    - unity_LightmapsInd:
        m_Texture: {fileID: 0}
        m_Scale: {x: 1, y: 1}
        m_Offset: {x: 0, y: 0}
    - unity_ShadowMasks:
        m_Texture: {fileID: 0}
        m_Scale: {x: 1, y: 1}
        m_Offset: {x: 0, y: 0}
    m_Floats:
    - PixelSnap: 0
    - _BlendAmount: 0
    - _Brightness: 1
    - _BumpScale: 0.5
    - _ColorFilters_Fade_1: 1
    - _ColorMask: 15
    - _Contrast: 0.95
    - _Cull: 0
    - _CustomRenderQueue: 0
    - _Cutoff: 0
    - _DetailNormalMapScale: 1
    - _DetailTex: 0
    - _DstBlend: 10
    - _EmissionPower: 1
    - _EnableExternalAlpha: 0
    - _GlossMapScale: 1
    - _Glossiness: 0.533
    - _GlossyReflections: 1
    - _Hue: 0
    - _Lerp_Fade_1: 1
    - _Metallic: 0
    - _Mode: 0
    - _OcclusionStrength: 1
    - _Outline: 0.01
    - _Outline_HDR_1: 0
    - _Outline_Size_1: 1
    - _Overlay: 3
    - _Parallax: 0.0635
    - _PositionScale: 4
    - _PosterizePower: 12.24
    - _RenderQueue: 0
    - _RimMax: 1
    - _RimMin: 0.5
    - _RimPower: 2
    - _Saturation: 1
    - _SetTimer: 0
    - _ShadowAlphaCutoff: 0
    - _ShadowLight_Intensity_1: 1.5
    - _ShadowLight_NoSprite_1: 1
    - _ShadowLight_PosX_1: 0
    - _ShadowLight_PosY_1: 0
    - _ShadowLight_Precision_1: 8
    - _ShadowLight_Size_1: 1.2
    - _Shininess: 0.1
    - _SmoothnessTextureChannel: 0
    - _SpecularHighlights: 0
    - _SpriteFade: 1
    - _SrcBlend: 1
    - _Stencil: 0
    - _StencilComp: 8
    - _StencilOp: 0
    - _StencilReadMask: 255
    - _StencilValue: 0
    - _StencilWriteMask: 255
    - _StencileFunction: 3
    - _TintColor: 0
    - _TurnC64_Fade_1: 1
    - _TurnEGA_Fade_1: 1
    - _UVSec: 0
    - _VertexColor: 0
    - _WaveSizeX: 0.25
    - _WaveSizeY: 0.25
    - _WaveSpeed: 4
    - _ZWrite: 0
    - __dirty: 0
    - _customStencilValue: 0.6
    - _isFlatTransparent: 0
    m_Colors:
    - Vector4_ac6969204e6943baa3551d1d34825bcf: {r: 0.5, g: 0, b: 0, a: 0}
    - _Color: {r: 1, g: 1, b: 1, a: 1}
    - _EmissionColor: {r: 0, g: 0, b: 0, a: 1}
    - _FixedNormal: {r: 0, g: 0, b: -1, a: 1}
    - _Flip: {r: 1, g: 1, b: 1, a: 1}
    - _HColor: {r: 1, g: 1, b: 1, a: 1}
    - _OutLineColor: {r: 0, g: 0, b: 0, a: 0}
    - _OutlineColor: {r: 0.5, g: 0.5, b: 0.5, a: 1}
    - _Outline_Color_1: {r: 0, g: 0, b: 0, a: 0.46666667}
    - _OverlayColor: {r: 0, g: 0, b: 0, a: 0}
    - _RendererColor: {r: 1, g: 1, b: 1, a: 1}
    - _RimColor: {r: 1, g: 1, b: 1, a: 1}
    - _SColor: {r: 0.0754717, g: 0.0754717, b: 0.0754717, a: 1}
    - _ShadowLight_Color_1: {r: 0, g: 0.7, b: 1, a: 1}
    - _SpecColor: {r: 1, g: 1, b: 1, a: 1}
    - _SpecularColor: {r: 0.3921569, g: 0.3921569, b: 0.3921569, a: 1}
    - _customStencilValue: {r: 0.5, g: 0, b: 0, a: 1}
  m_BuildTextureStacks: []
