%YAML 1.1
%TAG !u! tag:unity3d.com,2011:
--- !u!114 &11400000
MonoBehaviour:
  m_ObjectHideFlags: 0
  m_CorrespondingSourceObject: {fileID: 0}
  m_PrefabInstance: {fileID: 0}
  m_PrefabAsset: {fileID: 0}
  m_GameObject: {fileID: 0}
  m_Enabled: 1
  m_EditorHideFlags: 0
  m_Script: {fileID: 11500000, guid: 3cfe511f5ae84c24e82fbf88db7e24ae, type: 3}
  m_Name: Terrain Material2
  m_EditorClassIdentifier: 
  _fillMaterial: {fileID: 0}
  _edgeMaterial: {fileID: 0}
  _descriptors:
  - _applyTo: 0
    _zOffset: 0
    _yOffset: 0
    _capOffset: 0
    _legacyLeftCap:
      serializedVersion: 2
      x: 0
      y: 0
      width: 0
      height: 0
    _leftCaps: []
    _leftCapWeights: []
    _leftCapColliderSize: []
    _leftCapColliderType: 
    _leftCapOffset: []
    _legacyInnerLeftCap:
      serializedVersion: 2
      x: 0
      y: 0
      width: 0
      height: 0
    _innerLeftCaps: []
    _innerLeftCapWeights: []
    _innerLeftCapColliderSize: []
    _innerLeftCapColliderType: 
    _innerLeftCapOffset: []
    _legacyRightCap:
      serializedVersion: 2
      x: 0
      y: 0
      width: 0
      height: 0
    _rightCaps: []
    _rightCapWeights: []
    _rightCapColliderSize: []
    _rightCapColliderType: 
    _rightCapOffset: []
    _legacyInnerRightCap:
      serializedVersion: 2
      x: 0
      y: 0
      width: 0
      height: 0
    _innerRightCaps: []
    _innerRightCapWeights: []
    _innerRightCapColliderSize: []
    _innerRightCapColliderType: 
    _innerRightCapOffset: []
    _bodies:
    - serializedVersion: 2
      x: 0
      y: 0
      width: 50
      height: 50
    _bodyWeights: []
    _yOffsetPercent: 0
    _colliderOffset: 0
    _colliderThickness: 1
    _physicsMaterial2D: {fileID: 0}
    _physicsMaterial3D: {fileID: 0}
  - _applyTo: 0
    _zOffset: 0
    _yOffset: 0
    _capOffset: 0
    _legacyLeftCap:
      serializedVersion: 2
      x: 0
      y: 0
      width: 0
      height: 0
    _leftCaps: []
    _leftCapWeights: []
    _leftCapColliderSize: []
    _leftCapColliderType: 
    _leftCapOffset: []
    _legacyInnerLeftCap:
      serializedVersion: 2
      x: 0
      y: 0
      width: 0
      height: 0
    _innerLeftCaps: []
    _innerLeftCapWeights: []
    _innerLeftCapColliderSize: []
    _innerLeftCapColliderType: 
    _innerLeftCapOffset: []
    _legacyRightCap:
      serializedVersion: 2
      x: 0
      y: 0
      width: 0
      height: 0
    _rightCaps: []
    _rightCapWeights: []
    _rightCapColliderSize: []
    _rightCapColliderType: 
    _rightCapOffset: []
    _legacyInnerRightCap:
      serializedVersion: 2
      x: 0
      y: 0
      width: 0
      height: 0
    _innerRightCaps: []
    _innerRightCapWeights: []
    _innerRightCapColliderSize: []
    _innerRightCapColliderType: 
    _innerRightCapOffset: []
    _bodies:
    - serializedVersion: 2
      x: 0
      y: 0
      width: 50
      height: 50
    _bodyWeights: []
    _yOffsetPercent: 0
    _colliderOffset: 0
    _colliderThickness: 1
    _physicsMaterial2D: {fileID: 0}
    _physicsMaterial3D: {fileID: 0}
  - _applyTo: 0
    _zOffset: 0
    _yOffset: 0
    _capOffset: 0
    _legacyLeftCap:
      serializedVersion: 2
      x: 0
      y: 0
      width: 0
      height: 0
    _leftCaps: []
    _leftCapWeights: []
    _leftCapColliderSize: []
    _leftCapColliderType: 
    _leftCapOffset: []
    _legacyInnerLeftCap:
      serializedVersion: 2
      x: 0
      y: 0
      width: 0
      height: 0
    _innerLeftCaps: []
    _innerLeftCapWeights: []
    _innerLeftCapColliderSize: []
    _innerLeftCapColliderType: 
    _innerLeftCapOffset: []
    _legacyRightCap:
      serializedVersion: 2
      x: 0
      y: 0
      width: 0
      height: 0
    _rightCaps: []
    _rightCapWeights: []
    _rightCapColliderSize: []
    _rightCapColliderType: 
    _rightCapOffset: []
    _legacyInnerRightCap:
      serializedVersion: 2
      x: 0
      y: 0
      width: 0
      height: 0
    _innerRightCaps: []
    _innerRightCapWeights: []
    _innerRightCapColliderSize: []
    _innerRightCapColliderType: 
    _innerRightCapOffset: []
    _bodies:
    - serializedVersion: 2
      x: 0
      y: 0
      width: 50
      height: 50
    _bodyWeights: []
    _yOffsetPercent: 0
    _colliderOffset: 0
    _colliderThickness: 1
    _physicsMaterial2D: {fileID: 0}
    _physicsMaterial3D: {fileID: 0}
  - _applyTo: 0
    _zOffset: 0
    _yOffset: 0
    _capOffset: 0
    _legacyLeftCap:
      serializedVersion: 2
      x: 0
      y: 0
      width: 0
      height: 0
    _leftCaps: []
    _leftCapWeights: []
    _leftCapColliderSize: []
    _leftCapColliderType: 
    _leftCapOffset: []
    _legacyInnerLeftCap:
      serializedVersion: 2
      x: 0
      y: 0
      width: 0
      height: 0
    _innerLeftCaps: []
    _innerLeftCapWeights: []
    _innerLeftCapColliderSize: []
    _innerLeftCapColliderType: 
    _innerLeftCapOffset: []
    _legacyRightCap:
      serializedVersion: 2
      x: 0
      y: 0
      width: 0
      height: 0
    _rightCaps: []
    _rightCapWeights: []
    _rightCapColliderSize: []
    _rightCapColliderType: 
    _rightCapOffset: []
    _legacyInnerRightCap:
      serializedVersion: 2
      x: 0
      y: 0
      width: 0
      height: 0
    _innerRightCaps: []
    _innerRightCapWeights: []
    _innerRightCapColliderSize: []
    _innerRightCapColliderType: 
    _innerRightCapOffset: []
    _bodies:
    - serializedVersion: 2
      x: 0
      y: 0
      width: 50
      height: 50
    _bodyWeights: []
    _yOffsetPercent: 0
    _colliderOffset: 0
    _colliderThickness: 1
    _physicsMaterial2D: {fileID: 0}
    _physicsMaterial3D: {fileID: 0}
  isPixel: 1
  _isPerfect: 0
