%YAML 1.1
%TAG !u! tag:unity3d.com,2011:
--- !u!1 &4596430504762814216
GameObject:
  m_ObjectHideFlags: 0
  m_CorrespondingSourceObject: {fileID: 0}
  m_PrefabInstance: {fileID: 0}
  m_PrefabAsset: {fileID: 0}
  serializedVersion: 6
  m_Component:
  - component: {fileID: 8905439208658573587}
  - component: {fileID: 7610694704794759679}
  m_Layer: 0
  m_Name: Spread Fire Chip
  m_TagString: Untagged
  m_Icon: {fileID: 0}
  m_NavMeshLayer: 0
  m_StaticEditorFlags: 0
  m_IsActive: 1
--- !u!4 &8905439208658573587
Transform:
  m_ObjectHideFlags: 0
  m_CorrespondingSourceObject: {fileID: 0}
  m_PrefabInstance: {fileID: 0}
  m_PrefabAsset: {fileID: 0}
  m_GameObject: {fileID: 4596430504762814216}
  m_LocalRotation: {x: 0, y: 0, z: 0, w: 1}
  m_LocalPosition: {x: 190.19699, y: 236.3378, z: -533.1913}
  m_LocalScale: {x: 1, y: 1, z: 1}
  m_Children: []
  m_Father: {fileID: 0}
  m_RootOrder: 0
  m_LocalEulerAnglesHint: {x: 0, y: 0, z: 0}
--- !u!114 &7610694704794759679
MonoBehaviour:
  m_ObjectHideFlags: 0
  m_CorrespondingSourceObject: {fileID: 0}
  m_PrefabInstance: {fileID: 0}
  m_PrefabAsset: {fileID: 0}
  m_GameObject: {fileID: 4596430504762814216}
  m_Enabled: 1
  m_EditorHideFlags: 0
  m_Script: {fileID: 11500000, guid: 660224f3390016045bf4292feb25f5ed, type: 3}
  m_Name: 
  m_EditorClassIdentifier: 
  DisplayName: DisplayName Not Set
  type: 0
  itemRarity: 0
  ChipRarity: 
  ChipRarityNumber: 0
  ammoType: 0
  projectileType: 0
  PickUpAmmo: 1
  DamagePerProjectile: 1
  NumberOfProjectiles: 1
  CoolDownTime: 0.1
  ProjectileTypeGameObject: {fileID: 0}
  MuzzleFlashEffect: {fileID: 0}
  CurrentlyHeldByPlayer: 0
  hasBeenUsed: 0
  DegreeOfSpread: 0
  MaxDegreeOfSpread: 20
  MimDegreeOfSpread: 5
