%YAML 1.1
%TAG !u! tag:unity3d.com,2011:
--- !u!74 &7400000
AnimationClip:
  m_ObjectHideFlags: 0
  m_CorrespondingSourceObject: {fileID: 0}
  m_PrefabInstance: {fileID: 0}
  m_PrefabAsset: {fileID: 0}
  m_Name: Chicken Attack
  serializedVersion: 6
  m_Legacy: 0
  m_Compressed: 0
  m_UseHighQualityCurve: 1
  m_RotationCurves: []
  m_CompressedRotationCurves: []
  m_EulerCurves: []
  m_PositionCurves: []
  m_ScaleCurves: []
  m_FloatCurves: []
  m_PPtrCurves:
  - curve:
    - time: 0
      value: {fileID: 21300000, guid: a58284e2c2b43964e8d35ff2d28e4056, type: 3}
    - time: 0.083333336
      value: {fileID: 21300000, guid: 3031792c3a1ef5441a68a4017477b43b, type: 3}
    - time: 0.16666667
      value: {fileID: 21300000, guid: 16e35f32e3d092a4b9f1d1f6688e5c97, type: 3}
    - time: 0.25
      value: {fileID: 21300000, guid: 427323413c2d1bf44843a8a554a59a20, type: 3}
    - time: 0.33333334
      value: {fileID: 21300000, guid: 94957739877dad8439006e96463f83f8, type: 3}
    - time: 0.41666666
      value: {fileID: 21300000, guid: 3180557b616c80e4391e67cbdf33e68f, type: 3}
    - time: 0.5
      value: {fileID: 21300000, guid: d9e2c3e4e20e40740bf106da55932776, type: 3}
    - time: 0.5833333
      value: {fileID: 21300000, guid: 7d910fa21689cdf42b1bf8d4843d6385, type: 3}
    - time: 0.6666667
      value: {fileID: 21300000, guid: 74b11cf6dda9f5e479cac04f02966c31, type: 3}
    - time: 0.75
      value: {fileID: 21300000, guid: 7e5749d49862c9149b3727534bc3866c, type: 3}
    attribute: m_Sprite
    path: 
    classID: 212
    script: {fileID: 0}
  m_SampleRate: 12
  m_WrapMode: 0
  m_Bounds:
    m_Center: {x: 0, y: 0, z: 0}
    m_Extent: {x: 0, y: 0, z: 0}
  m_ClipBindingConstant:
    genericBindings:
    - serializedVersion: 2
      path: 0
      attribute: 0
      script: {fileID: 0}
      typeID: 212
      customType: 23
      isPPtrCurve: 1
    pptrCurveMapping:
    - {fileID: 21300000, guid: a58284e2c2b43964e8d35ff2d28e4056, type: 3}
    - {fileID: 21300000, guid: 3031792c3a1ef5441a68a4017477b43b, type: 3}
    - {fileID: 21300000, guid: 16e35f32e3d092a4b9f1d1f6688e5c97, type: 3}
    - {fileID: 21300000, guid: 427323413c2d1bf44843a8a554a59a20, type: 3}
    - {fileID: 21300000, guid: 94957739877dad8439006e96463f83f8, type: 3}
    - {fileID: 21300000, guid: 3180557b616c80e4391e67cbdf33e68f, type: 3}
    - {fileID: 21300000, guid: d9e2c3e4e20e40740bf106da55932776, type: 3}
    - {fileID: 21300000, guid: 7d910fa21689cdf42b1bf8d4843d6385, type: 3}
    - {fileID: 21300000, guid: 74b11cf6dda9f5e479cac04f02966c31, type: 3}
    - {fileID: 21300000, guid: 7e5749d49862c9149b3727534bc3866c, type: 3}
  m_AnimationClipSettings:
    serializedVersion: 2
    m_AdditiveReferencePoseClip: {fileID: 0}
    m_AdditiveReferencePoseTime: 0
    m_StartTime: 0
    m_StopTime: 0.8333333
    m_OrientationOffsetY: 0
    m_Level: 0
    m_CycleOffset: 0
    m_HasAdditiveReferencePose: 0
    m_LoopTime: 1
    m_LoopBlend: 0
    m_LoopBlendOrientation: 0
    m_LoopBlendPositionY: 0
    m_LoopBlendPositionXZ: 0
    m_KeepOriginalOrientation: 0
    m_KeepOriginalPositionY: 1
    m_KeepOriginalPositionXZ: 0
    m_HeightFromFeet: 0
    m_Mirror: 0
  m_EditorCurves: []
  m_EulerEditorCurves: []
  m_HasGenericRootTransform: 0
  m_HasMotionFloatCurves: 0
  m_Events: []
