%YAML 1.1
%TAG !u! tag:unity3d.com,2011:
--- !u!29 &1
OcclusionCullingSettings:
  m_ObjectHideFlags: 0
  serializedVersion: 2
  m_OcclusionBakeSettings:
    smallestOccluder: 5
    smallestHole: 0.25
    backfaceThreshold: 100
  m_SceneGUID: 00000000000000000000000000000000
  m_OcclusionCullingData: {fileID: 0}
--- !u!104 &2
RenderSettings:
  m_ObjectHideFlags: 0
  serializedVersion: 9
  m_Fog: 0
  m_FogColor: {r: 0.5, g: 0.5, b: 0.5, a: 1}
  m_FogMode: 3
  m_FogDensity: 0.01
  m_LinearFogStart: 0
  m_LinearFogEnd: 300
  m_AmbientSkyColor: {r: 0.2, g: 0.2, b: 0.2, a: 1}
  m_AmbientEquatorColor: {r: 0.2, g: 0.2, b: 0.2, a: 1}
  m_AmbientGroundColor: {r: 0.2, g: 0.2, b: 0.2, a: 1}
  m_AmbientIntensity: 1
  m_AmbientMode: 3
  m_SubtractiveShadowColor: {r: 0.42, g: 0.478, b: 0.627, a: 1}
  m_SkyboxMaterial: {fileID: 0}
  m_HaloStrength: 0.5
  m_FlareStrength: 1
  m_FlareFadeSpeed: 3
  m_HaloTexture: {fileID: 0}
  m_SpotCookie: {fileID: 10001, guid: 0000000000000000e000000000000000, type: 0}
  m_DefaultReflectionMode: 0
  m_DefaultReflectionResolution: 128
  m_ReflectionBounces: 1
  m_ReflectionIntensity: 1
  m_CustomReflection: {fileID: 0}
  m_Sun: {fileID: 0}
  m_IndirectSpecularColor: {r: 0, g: 0, b: 0, a: 1}
  m_UseRadianceAmbientProbe: 0
--- !u!196 &3
NavMeshSettings:
  serializedVersion: 2
  m_ObjectHideFlags: 0
  m_BuildSettings:
    serializedVersion: 2
    agentTypeID: 0
    agentRadius: 0.5
    agentHeight: 2
    agentSlope: 45
    agentClimb: 0.4
    ledgeDropHeight: 0
    maxJumpAcrossDistance: 0
    minRegionArea: 2
    manualCellSize: 0
    cellSize: 0.16666667
    manualTileSize: 0
    tileSize: 256
    accuratePlacement: 0
    debug:
      m_Flags: 0
  m_NavMeshData: {fileID: 0}
--- !u!157 &4
LightmapSettings:
  m_ObjectHideFlags: 0
  serializedVersion: 11
  m_GIWorkflowMode: 1
  m_GISettings:
    serializedVersion: 2
    m_BounceScale: 1
    m_IndirectOutputScale: 1
    m_AlbedoBoost: 1
    m_EnvironmentLightingMode: 0
    m_EnableBakedLightmaps: 1
    m_EnableRealtimeLightmaps: 0
  m_LightmapEditorSettings:
    serializedVersion: 12
    m_Resolution: 1
    m_BakeResolution: 50
    m_AtlasSize: 1024
    m_AO: 1
    m_AOMaxDistance: 1
    m_CompAOExponent: 1
    m_CompAOExponentDirect: 0
    m_ExtractAmbientOcclusion: 0
    m_Padding: 2
    m_LightmapParameters: {fileID: 0}
    m_LightmapsBakeMode: 1
    m_TextureCompression: 0
    m_FinalGather: 0
    m_FinalGatherFiltering: 1
    m_FinalGatherRayCount: 256
    m_ReflectionCompression: 2
    m_MixedBakeMode: 1
    m_BakeBackend: 0
    m_PVRSampling: 1
    m_PVRDirectSampleCount: 32
    m_PVRSampleCount: 512
    m_PVRBounces: 2
    m_PVREnvironmentSampleCount: 512
    m_PVREnvironmentReferencePointCount: 2048
    m_PVRFilteringMode: 0
    m_PVRDenoiserTypeDirect: 0
    m_PVRDenoiserTypeIndirect: 0
    m_PVRDenoiserTypeAO: 0
    m_PVRFilterTypeDirect: 0
    m_PVRFilterTypeIndirect: 0
    m_PVRFilterTypeAO: 0
    m_PVREnvironmentMIS: 0
    m_PVRCulling: 1
    m_PVRFilteringGaussRadiusDirect: 1
    m_PVRFilteringGaussRadiusIndirect: 5
    m_PVRFilteringGaussRadiusAO: 2
    m_PVRFilteringAtrousPositionSigmaDirect: 0.5
    m_PVRFilteringAtrousPositionSigmaIndirect: 2
    m_PVRFilteringAtrousPositionSigmaAO: 1
    m_ExportTrainingData: 0
    m_TrainingDataDestination: TrainingData
  m_LightingDataAsset: {fileID: 0}
  m_UseShadowmask: 0
--- !u!1 &25
GameObject:
  m_ObjectHideFlags: 0
  m_CorrespondingSourceObject: {fileID: 0}
  m_PrefabInstance: {fileID: 0}
  m_PrefabAsset: {fileID: 0}
  serializedVersion: 6
  m_Component:
  - component: {fileID: 48}
  m_Layer: 0
  m_Name: Balls
  m_TagString: Untagged
  m_Icon: {fileID: 0}
  m_NavMeshLayer: 0
  m_StaticEditorFlags: 0
  m_IsActive: 1
--- !u!1 &26
GameObject:
  m_ObjectHideFlags: 0
  m_CorrespondingSourceObject: {fileID: 0}
  m_PrefabInstance: {fileID: 0}
  m_PrefabAsset: {fileID: 0}
  serializedVersion: 6
  m_Component:
  - component: {fileID: 49}
  - component: {fileID: 78}
  m_Layer: 0
  m_Name: Directional light
  m_TagString: Untagged
  m_Icon: {fileID: 0}
  m_NavMeshLayer: 0
  m_StaticEditorFlags: 0
  m_IsActive: 1
--- !u!1 &27
GameObject:
  m_ObjectHideFlags: 0
  m_CorrespondingSourceObject: {fileID: 0}
  m_PrefabInstance: {fileID: 0}
  m_PrefabAsset: {fileID: 0}
  serializedVersion: 6
  m_Component:
  - component: {fileID: 50}
  - component: {fileID: 51}
  - component: {fileID: 77}
  - component: {fileID: 79}
  - component: {fileID: 76}
  m_Layer: 0
  m_Name: Main Camera
  m_TagString: MainCamera
  m_Icon: {fileID: 0}
  m_NavMeshLayer: 0
  m_StaticEditorFlags: 0
  m_IsActive: 1
--- !u!4 &28 stripped
Transform:
  m_CorrespondingSourceObject: {fileID: 400000, guid: 4a1142b17f64bbc40871f76529421f77,
    type: 3}
  m_PrefabInstance: {fileID: 80}
  m_PrefabAsset: {fileID: 0}
--- !u!4 &32 stripped
Transform:
  m_CorrespondingSourceObject: {fileID: 400002, guid: 38972d9a807375f4fbdbf2e076aa183f,
    type: 3}
  m_PrefabInstance: {fileID: 81}
  m_PrefabAsset: {fileID: 0}
--- !u!4 &37 stripped
Transform:
  m_CorrespondingSourceObject: {fileID: 400000, guid: a97bdcf094fff104d9f67b004b505dd0,
    type: 3}
  m_PrefabInstance: {fileID: 82}
  m_PrefabAsset: {fileID: 0}
--- !u!4 &38 stripped
Transform:
  m_CorrespondingSourceObject: {fileID: 400002, guid: 5f603b8c73c81724b9bdc1c65764eb4c,
    type: 3}
  m_PrefabInstance: {fileID: 83}
  m_PrefabAsset: {fileID: 0}
--- !u!4 &40 stripped
Transform:
  m_CorrespondingSourceObject: {fileID: 400002, guid: c455996f6e6b49d418895f41b5216202,
    type: 3}
  m_PrefabInstance: {fileID: 84}
  m_PrefabAsset: {fileID: 0}
--- !u!4 &43 stripped
Transform:
  m_CorrespondingSourceObject: {fileID: 400002, guid: 5ae1b6d4c894f9c449d33837a633a8ec,
    type: 3}
  m_PrefabInstance: {fileID: 85}
  m_PrefabAsset: {fileID: 0}
--- !u!4 &45 stripped
Transform:
  m_CorrespondingSourceObject: {fileID: 400002, guid: 61566139d5c1f844aaa682fa50106e58,
    type: 3}
  m_PrefabInstance: {fileID: 86}
  m_PrefabAsset: {fileID: 0}
--- !u!4 &47 stripped
Transform:
  m_CorrespondingSourceObject: {fileID: 400002, guid: 74cbada03bcd41d49acec56746acf71e,
    type: 3}
  m_PrefabInstance: {fileID: 87}
  m_PrefabAsset: {fileID: 0}
--- !u!4 &48
Transform:
  m_ObjectHideFlags: 0
  m_CorrespondingSourceObject: {fileID: 0}
  m_PrefabInstance: {fileID: 0}
  m_PrefabAsset: {fileID: 0}
  m_GameObject: {fileID: 25}
  m_LocalRotation: {x: 0, y: 0, z: 0, w: 1}
  m_LocalPosition: {x: 0, y: 0, z: 0}
  m_LocalScale: {x: 1, y: 1, z: 1}
  m_Children:
  - {fileID: 28}
  - {fileID: 32}
  - {fileID: 37}
  - {fileID: 38}
  - {fileID: 40}
  - {fileID: 43}
  - {fileID: 45}
  - {fileID: 47}
  m_Father: {fileID: 0}
  m_RootOrder: 0
  m_LocalEulerAnglesHint: {x: 0, y: 0, z: 0}
--- !u!4 &49
Transform:
  m_ObjectHideFlags: 0
  m_CorrespondingSourceObject: {fileID: 0}
  m_PrefabInstance: {fileID: 0}
  m_PrefabAsset: {fileID: 0}
  m_GameObject: {fileID: 26}
  m_LocalRotation: {x: 0.41219863, y: 0.3490998, z: -0.12488488, w: 0.83224124}
  m_LocalPosition: {x: 0, y: 3.605245, z: 0}
  m_LocalScale: {x: 1, y: 1, z: 1}
  m_Children: []
  m_Father: {fileID: 0}
  m_RootOrder: 1
  m_LocalEulerAnglesHint: {x: 0, y: 0, z: 0}
--- !u!4 &50
Transform:
  m_ObjectHideFlags: 0
  m_CorrespondingSourceObject: {fileID: 0}
  m_PrefabInstance: {fileID: 0}
  m_PrefabAsset: {fileID: 0}
  m_GameObject: {fileID: 27}
  m_LocalRotation: {x: 0.18444622, y: 0, z: 0, w: 0.9828427}
  m_LocalPosition: {x: 0, y: 2.2157001, z: -3.926672}
  m_LocalScale: {x: 1, y: 1, z: 1}
  m_Children: []
  m_Father: {fileID: 0}
  m_RootOrder: 2
  m_LocalEulerAnglesHint: {x: 0, y: 0, z: 0}
--- !u!20 &51
Camera:
  m_ObjectHideFlags: 0
  m_CorrespondingSourceObject: {fileID: 0}
  m_PrefabInstance: {fileID: 0}
  m_PrefabAsset: {fileID: 0}
  m_GameObject: {fileID: 27}
  m_Enabled: 1
  serializedVersion: 2
  m_ClearFlags: 1
  m_BackGroundColor: {r: 0.19215687, g: 0.3019608, b: 0.4745098, a: 0.019607844}
  m_projectionMatrixMode: 1
  m_GateFitMode: 2
  m_FOVAxisMode: 0
  m_SensorSize: {x: 36, y: 24}
  m_LensShift: {x: 0, y: 0}
  m_FocalLength: 50
  m_NormalizedViewPortRect:
    serializedVersion: 2
    x: 0
    y: 0
    width: 1
    height: 1
  near clip plane: 0.3
  far clip plane: 1000
  field of view: 60
  orthographic: 0
  orthographic size: 100
  m_Depth: -1
  m_CullingMask:
    serializedVersion: 2
    m_Bits: 4294967295
  m_RenderingPath: -1
  m_TargetTexture: {fileID: 0}
  m_TargetDisplay: 0
  m_TargetEye: 3
  m_HDR: 1
  m_AllowMSAA: 1
  m_AllowDynamicResolution: 0
  m_ForceIntoRT: 0
  m_OcclusionCulling: 1
  m_StereoConvergence: 10
  m_StereoSeparation: 0.022
--- !u!81 &76
AudioListener:
  m_ObjectHideFlags: 0
  m_CorrespondingSourceObject: {fileID: 0}
  m_PrefabInstance: {fileID: 0}
  m_PrefabAsset: {fileID: 0}
  m_GameObject: {fileID: 27}
  m_Enabled: 1
--- !u!92 &77
Behaviour:
  m_ObjectHideFlags: 0
  m_CorrespondingSourceObject: {fileID: 0}
  m_PrefabInstance: {fileID: 0}
  m_PrefabAsset: {fileID: 0}
  m_GameObject: {fileID: 27}
  m_Enabled: 1
--- !u!108 &78
Light:
  m_ObjectHideFlags: 0
  m_CorrespondingSourceObject: {fileID: 0}
  m_PrefabInstance: {fileID: 0}
  m_PrefabAsset: {fileID: 0}
  m_GameObject: {fileID: 26}
  m_Enabled: 1
  serializedVersion: 9
  m_Type: 1
  m_Color: {r: 1, g: 1, b: 1, a: 1}
  m_Intensity: 1
  m_Range: 10
  m_SpotAngle: 30
  m_InnerSpotAngle: 21.80208
  m_CookieSize: 10
  m_Shadows:
    m_Type: 0
    m_Resolution: -1
    m_CustomResolution: -1
    m_Strength: 1
    m_Bias: 0.05
    m_NormalBias: 0.4
    m_NearPlane: 0.2
    m_CullingMatrixOverride:
      e00: 1
      e01: 0
      e02: 0
      e03: 0
      e10: 0
      e11: 1
      e12: 0
      e13: 0
      e20: 0
      e21: 0
      e22: 1
      e23: 0
      e30: 0
      e31: 0
      e32: 0
      e33: 1
    m_UseCullingMatrixOverride: 0
  m_Cookie: {fileID: 0}
  m_DrawHalo: 0
  m_Flare: {fileID: 0}
  m_RenderMode: 0
  m_CullingMask:
    serializedVersion: 2
    m_Bits: 4294967295
  m_RenderingLayerMask: 1
  m_Lightmapping: 1
  m_LightShadowCasterMode: 0
  m_AreaSize: {x: 1, y: 1}
  m_BounceIntensity: 1
  m_ColorTemperature: 6570
  m_UseColorTemperature: 0
  m_BoundingSphereOverride: {x: 0, y: 0, z: 0, w: 0}
  m_UseBoundingSphereOverride: 0
  m_ShadowRadius: 0
  m_ShadowAngle: 0
--- !u!124 &79
Behaviour:
  m_ObjectHideFlags: 0
  m_CorrespondingSourceObject: {fileID: 0}
  m_PrefabInstance: {fileID: 0}
  m_PrefabAsset: {fileID: 0}
  m_GameObject: {fileID: 27}
  m_Enabled: 1
--- !u!1001 &80
PrefabInstance:
  m_ObjectHideFlags: 0
  serializedVersion: 2
  m_Modification:
    m_TransformParent: {fileID: 48}
    m_Modifications:
    - target: {fileID: 400000, guid: 4a1142b17f64bbc40871f76529421f77, type: 3}
      propertyPath: m_LocalRotation.y
      value: 0
      objectReference: {fileID: 0}
    - target: {fileID: 400000, guid: 4a1142b17f64bbc40871f76529421f77, type: 3}
      propertyPath: m_LocalRotation.z
      value: 0
      objectReference: {fileID: 0}
    - target: {fileID: 400000, guid: 4a1142b17f64bbc40871f76529421f77, type: 3}
      propertyPath: m_LocalPosition.x
      value: 0
      objectReference: {fileID: 0}
    - target: {fileID: 400000, guid: 4a1142b17f64bbc40871f76529421f77, type: 3}
      propertyPath: m_LocalPosition.z
      value: -1
      objectReference: {fileID: 0}
    m_RemovedComponents: []
  m_SourcePrefab: {fileID: 100100000, guid: 4a1142b17f64bbc40871f76529421f77, type: 3}
--- !u!1001 &81
PrefabInstance:
  m_ObjectHideFlags: 0
  serializedVersion: 2
  m_Modification:
    m_TransformParent: {fileID: 48}
    m_Modifications:
    - target: {fileID: 400000, guid: 38972d9a807375f4fbdbf2e076aa183f, type: 3}
      propertyPath: m_LocalRotation.y
      value: 0
      objectReference: {fileID: 0}
    - target: {fileID: 400000, guid: 38972d9a807375f4fbdbf2e076aa183f, type: 3}
      propertyPath: m_LocalRotation.z
      value: 0
      objectReference: {fileID: 0}
    - target: {fileID: 400000, guid: 38972d9a807375f4fbdbf2e076aa183f, type: 3}
      propertyPath: m_LocalPosition.x
      value: 1.110622
      objectReference: {fileID: 0}
    m_RemovedComponents: []
  m_SourcePrefab: {fileID: 100100000, guid: 38972d9a807375f4fbdbf2e076aa183f, type: 3}
--- !u!1001 &82
PrefabInstance:
  m_ObjectHideFlags: 0
  serializedVersion: 2
  m_Modification:
    m_TransformParent: {fileID: 48}
    m_Modifications:
    - target: {fileID: 400002, guid: a97bdcf094fff104d9f67b004b505dd0, type: 3}
      propertyPath: m_LocalRotation.y
      value: 0
      objectReference: {fileID: 0}
    - target: {fileID: 400002, guid: a97bdcf094fff104d9f67b004b505dd0, type: 3}
      propertyPath: m_LocalRotation.z
      value: 0
      objectReference: {fileID: 0}
    - target: {fileID: 400002, guid: a97bdcf094fff104d9f67b004b505dd0, type: 3}
      propertyPath: m_LocalPosition.x
      value: 0.6819666
      objectReference: {fileID: 0}
    - target: {fileID: 400002, guid: a97bdcf094fff104d9f67b004b505dd0, type: 3}
      propertyPath: m_LocalPosition.y
      value: 0.4751892
      objectReference: {fileID: 0}
    - target: {fileID: 400002, guid: a97bdcf094fff104d9f67b004b505dd0, type: 3}
      propertyPath: m_LocalPosition.z
      value: 0.7170386
      objectReference: {fileID: 0}
    m_RemovedComponents: []
  m_SourcePrefab: {fileID: 100100000, guid: a97bdcf094fff104d9f67b004b505dd0, type: 3}
--- !u!1001 &83
PrefabInstance:
  m_ObjectHideFlags: 0
  serializedVersion: 2
  m_Modification:
    m_TransformParent: {fileID: 48}
    m_Modifications:
    - target: {fileID: 400002, guid: 5f603b8c73c81724b9bdc1c65764eb4c, type: 3}
      propertyPath: m_LocalRotation.y
      value: 0.57858044
      objectReference: {fileID: 0}
    - target: {fileID: 400002, guid: 5f603b8c73c81724b9bdc1c65764eb4c, type: 3}
      propertyPath: m_LocalRotation.z
      value: 0
      objectReference: {fileID: 0}
    - target: {fileID: 400002, guid: 5f603b8c73c81724b9bdc1c65764eb4c, type: 3}
      propertyPath: m_LocalRotation.w
      value: 0.8156253
      objectReference: {fileID: 0}
    - target: {fileID: 400002, guid: 5f603b8c73c81724b9bdc1c65764eb4c, type: 3}
      propertyPath: m_LocalPosition.x
      value: -1.281634
      objectReference: {fileID: 0}
    - target: {fileID: 400002, guid: 5f603b8c73c81724b9bdc1c65764eb4c, type: 3}
      propertyPath: m_LocalPosition.y
      value: 0.1350031
      objectReference: {fileID: 0}
    - target: {fileID: 400002, guid: 5f603b8c73c81724b9bdc1c65764eb4c, type: 3}
      propertyPath: m_LocalPosition.z
      value: 0.3277045
      objectReference: {fileID: 0}
    m_RemovedComponents: []
  m_SourcePrefab: {fileID: 100100000, guid: 5f603b8c73c81724b9bdc1c65764eb4c, type: 3}
--- !u!1001 &84
PrefabInstance:
  m_ObjectHideFlags: 0
  serializedVersion: 2
  m_Modification:
    m_TransformParent: {fileID: 48}
    m_Modifications:
    - target: {fileID: 400002, guid: c455996f6e6b49d418895f41b5216202, type: 3}
      propertyPath: m_LocalRotation.y
      value: 0
      objectReference: {fileID: 0}
    - target: {fileID: 400002, guid: c455996f6e6b49d418895f41b5216202, type: 3}
      propertyPath: m_LocalRotation.z
      value: 0
      objectReference: {fileID: 0}
    - target: {fileID: 400002, guid: c455996f6e6b49d418895f41b5216202, type: 3}
      propertyPath: m_LocalPosition.x
      value: -0.5604876
      objectReference: {fileID: 0}
    - target: {fileID: 400002, guid: c455996f6e6b49d418895f41b5216202, type: 3}
      propertyPath: m_LocalPosition.y
      value: 0.40147972
      objectReference: {fileID: 0}
    - target: {fileID: 400002, guid: c455996f6e6b49d418895f41b5216202, type: 3}
      propertyPath: m_LocalPosition.z
      value: 1.8187208
      objectReference: {fileID: 0}
    m_RemovedComponents: []
  m_SourcePrefab: {fileID: 100100000, guid: c455996f6e6b49d418895f41b5216202, type: 3}
--- !u!1001 &85
PrefabInstance:
  m_ObjectHideFlags: 0
  serializedVersion: 2
  m_Modification:
    m_TransformParent: {fileID: 48}
    m_Modifications:
    - target: {fileID: 400002, guid: 5ae1b6d4c894f9c449d33837a633a8ec, type: 3}
      propertyPath: m_LocalRotation.y
      value: 0.50944495
      objectReference: {fileID: 0}
    - target: {fileID: 400002, guid: 5ae1b6d4c894f9c449d33837a633a8ec, type: 3}
      propertyPath: m_LocalRotation.z
      value: 0
      objectReference: {fileID: 0}
    - target: {fileID: 400002, guid: 5ae1b6d4c894f9c449d33837a633a8ec, type: 3}
      propertyPath: m_LocalRotation.w
      value: 0.8605033
      objectReference: {fileID: 0}
    - target: {fileID: 400002, guid: 5ae1b6d4c894f9c449d33837a633a8ec, type: 3}
      propertyPath: m_LocalPosition.x
      value: 1.1104612
      objectReference: {fileID: 0}
    - target: {fileID: 400002, guid: 5ae1b6d4c894f9c449d33837a633a8ec, type: 3}
      propertyPath: m_LocalPosition.z
      value: -1
      objectReference: {fileID: 0}
    m_RemovedComponents: []
  m_SourcePrefab: {fileID: 100100000, guid: 5ae1b6d4c894f9c449d33837a633a8ec, type: 3}
--- !u!1001 &86
PrefabInstance:
  m_ObjectHideFlags: 0
  serializedVersion: 2
  m_Modification:
    m_TransformParent: {fileID: 48}
    m_Modifications:
    - target: {fileID: 400002, guid: 61566139d5c1f844aaa682fa50106e58, type: 3}
      propertyPath: m_LocalRotation.y
      value: 0.16481043
      objectReference: {fileID: 0}
    - target: {fileID: 400002, guid: 61566139d5c1f844aaa682fa50106e58, type: 3}
      propertyPath: m_LocalRotation.z
      value: 0
      objectReference: {fileID: 0}
    - target: {fileID: 400002, guid: 61566139d5c1f844aaa682fa50106e58, type: 3}
      propertyPath: m_LocalRotation.w
      value: 0.9863253
      objectReference: {fileID: 0}
    - target: {fileID: 400002, guid: 61566139d5c1f844aaa682fa50106e58, type: 3}
      propertyPath: m_LocalPosition.x
      value: -0.17189002
      objectReference: {fileID: 0}
    - target: {fileID: 400002, guid: 61566139d5c1f844aaa682fa50106e58, type: 3}
      propertyPath: m_LocalPosition.y
      value: 0.18015194
      objectReference: {fileID: 0}
    m_RemovedComponents: []
  m_SourcePrefab: {fileID: 100100000, guid: 61566139d5c1f844aaa682fa50106e58, type: 3}
--- !u!1001 &87
PrefabInstance:
  m_ObjectHideFlags: 0
  serializedVersion: 2
  m_Modification:
    m_TransformParent: {fileID: 48}
    m_Modifications:
    - target: {fileID: 400002, guid: 74cbada03bcd41d49acec56746acf71e, type: 3}
      propertyPath: m_LocalRotation.y
      value: -0.20535421
      objectReference: {fileID: 0}
    - target: {fileID: 400002, guid: 74cbada03bcd41d49acec56746acf71e, type: 3}
      propertyPath: m_LocalRotation.z
      value: 0
      objectReference: {fileID: 0}
    - target: {fileID: 400002, guid: 74cbada03bcd41d49acec56746acf71e, type: 3}
      propertyPath: m_LocalRotation.w
      value: 0.9786877
      objectReference: {fileID: 0}
    - target: {fileID: 400002, guid: 74cbada03bcd41d49acec56746acf71e, type: 3}
      propertyPath: m_LocalPosition.x
      value: -1.1607732
      objectReference: {fileID: 0}
    - target: {fileID: 400002, guid: 74cbada03bcd41d49acec56746acf71e, type: 3}
      propertyPath: m_LocalPosition.z
      value: -1
      objectReference: {fileID: 0}
    m_RemovedComponents: []
  m_SourcePrefab: {fileID: 100100000, guid: 74cbada03bcd41d49acec56746acf71e, type: 3}
