%YAML 1.1
%TAG !u! tag:unity3d.com,2011:
--- !u!114 &11400000
MonoBehaviour:
  m_ObjectHideFlags: 0
  m_CorrespondingSourceObject: {fileID: 0}
  m_PrefabInstance: {fileID: 0}
  m_PrefabAsset: {fileID: 0}
  m_GameObject: {fileID: 0}
  m_Enabled: 1
  m_EditorHideFlags: 0
  m_Script: {fileID: 11500000, guid: 3cfe511f5ae84c24e82fbf88db7e24ae, type: 3}
  m_Name: Light Grass
  m_EditorClassIdentifier: 
  _fillMaterial: {fileID: 2100000, guid: 1e22fad45742e714abdb475272b4e32e, type: 2}
  _edgeMaterial: {fileID: 2100000, guid: c8108bdc8873bbb439e985b0eadc59cd, type: 2}
  _descriptors:
  - _applyTo: 0
    _zOffset: 0
    _yOffset: 0
    _capOffset: 0
    _legacyLeftCap:
      serializedVersion: 2
      x: 0
      y: 0
      width: 0
      height: 0
    _leftCaps:
    - serializedVersion: 2
      x: 0
      y: 0.018554688
      width: 0.12792969
      height: 0.29589844
    _leftCapWeights: []
    _leftCapColliderSize:
    - 0.48
    _leftCapColliderType: 02000000
    _leftCapOffset:
    - -0.11
    _legacyInnerLeftCap:
      serializedVersion: 2
      x: 0
      y: 0
      width: 0
      height: 0
    _innerLeftCaps: []
    _innerLeftCapWeights: []
    _innerLeftCapColliderSize:
    - 1
    _innerLeftCapColliderType: 02000000
    _innerLeftCapOffset:
    - 0
    _legacyRightCap:
      serializedVersion: 2
      x: 0
      y: 0
      width: 0
      height: 0
    _rightCaps:
    - serializedVersion: 2
      x: 0.8720703
      y: 0.018554688
      width: 0.12792969
      height: 0.296875
    _rightCapWeights: []
    _rightCapColliderSize:
    - 0.84
    _rightCapColliderType: 02000000
    _rightCapOffset:
    - -0.41
    _legacyInnerRightCap:
      serializedVersion: 2
      x: 0
      y: 0
      width: 0
      height: 0
    _innerRightCaps: []
    _innerRightCapWeights: []
    _innerRightCapColliderSize:
    - 1
    _innerRightCapColliderType: 02000000
    _innerRightCapOffset:
    - 0
    _bodies:
    - serializedVersion: 2
      x: 0.12792969
      y: 0.018554688
      width: 0.3720703
      height: 0.296875
    - serializedVersion: 2
      x: 0.5
      y: 0.018554688
      width: 0.3720703
      height: 0.296875
    _bodyWeights: []
    _yOffsetPercent: 0
    _colliderOffset: -0.31
    _colliderThickness: 0.32
    _physicsMaterial2D: {fileID: 0}
    _physicsMaterial3D: {fileID: 0}
  - _applyTo: 1
    _zOffset: 0.002
    _yOffset: 0
    _capOffset: 0
    _legacyLeftCap:
      serializedVersion: 2
      x: 0
      y: 0
      width: 0
      height: 0
    _leftCaps:
    - serializedVersion: 2
      x: 0
      y: 0.5546875
      width: 0
      height: 0
    _leftCapWeights: []
    _leftCapColliderSize:
    - 1
    _leftCapColliderType: 00000000
    _leftCapOffset:
    - 0
    _legacyInnerLeftCap:
      serializedVersion: 2
      x: 0
      y: 0
      width: 0
      height: 0
    _innerLeftCaps: []
    _innerLeftCapWeights: []
    _innerLeftCapColliderSize:
    - 1
    _innerLeftCapColliderType: 00000000
    _innerLeftCapOffset:
    - 0.11
    _legacyRightCap:
      serializedVersion: 2
      x: 0
      y: 0
      width: 0
      height: 0
    _rightCaps:
    - serializedVersion: 2
      x: 1
      y: 0.5546875
      width: 0
      height: 0
    _rightCapWeights: []
    _rightCapColliderSize:
    - 1
    _rightCapColliderType: 00000000
    _rightCapOffset:
    - 0
    _legacyInnerRightCap:
      serializedVersion: 2
      x: 0
      y: 0
      width: 0
      height: 0
    _innerRightCaps: []
    _innerRightCapWeights: []
    _innerRightCapColliderSize:
    - 1
    _innerRightCapColliderType: 00000000
    _innerRightCapOffset:
    - 0.11
    _bodies:
    - serializedVersion: 2
      x: 0
      y: 0.375
      width: 0.5
      height: 0.12011719
    - serializedVersion: 2
      x: 0.5
      y: 0.375
      width: 0.5
      height: 0.12011719
    _bodyWeights: []
    _yOffsetPercent: 0.11
    _colliderOffset: -0.11
    _colliderThickness: 0.66
    _physicsMaterial2D: {fileID: 0}
    _physicsMaterial3D: {fileID: 0}
  - _applyTo: 2
    _zOffset: 0.002
    _yOffset: 0
    _capOffset: 0
    _legacyLeftCap:
      serializedVersion: 2
      x: 0
      y: 0
      width: 0
      height: 0
    _leftCaps:
    - serializedVersion: 2
      x: 0
      y: 0.5527344
      width: 0
      height: 0
    _leftCapWeights: []
    _leftCapColliderSize:
    - 1
    _leftCapColliderType: 00000000
    _leftCapOffset:
    - 0
    _legacyInnerLeftCap:
      serializedVersion: 2
      x: 0
      y: 0
      width: 0
      height: 0
    _innerLeftCaps: []
    _innerLeftCapWeights: []
    _innerLeftCapColliderSize:
    - 1
    _innerLeftCapColliderType: 00000000
    _innerLeftCapOffset:
    - 0
    _legacyRightCap:
      serializedVersion: 2
      x: 0
      y: 0
      width: 0
      height: 0
    _rightCaps:
    - serializedVersion: 2
      x: 1
      y: 0.5527344
      width: 0
      height: 0
    _rightCapWeights: []
    _rightCapColliderSize:
    - 1
    _rightCapColliderType: 00000000
    _rightCapOffset:
    - 0.11
    _legacyInnerRightCap:
      serializedVersion: 2
      x: 0
      y: 0
      width: 0
      height: 0
    _innerRightCaps: []
    _innerRightCapWeights: []
    _innerRightCapColliderSize:
    - 1
    _innerRightCapColliderType: 00000000
    _innerRightCapOffset:
    - 0
    _bodies:
    - serializedVersion: 2
      x: 0
      y: 0.5527344
      width: 0.5
      height: 0.12402344
    - serializedVersion: 2
      x: 0.5
      y: 0.5527344
      width: 0.5
      height: 0.12402344
    _bodyWeights: []
    _yOffsetPercent: 0.14
    _colliderOffset: -0.05
    _colliderThickness: 0.66
    _physicsMaterial2D: {fileID: 0}
    _physicsMaterial3D: {fileID: 0}
  - _applyTo: 3
    _zOffset: 0.001
    _yOffset: 0
    _capOffset: 0
    _legacyLeftCap:
      serializedVersion: 2
      x: 0
      y: 0
      width: 0
      height: 0
    _leftCaps:
    - serializedVersion: 2
      x: 0
      y: 0.37890625
      width: 0
      height: 0
    _leftCapWeights: []
    _leftCapColliderSize:
    - 1
    _leftCapColliderType: 02000000
    _leftCapOffset:
    - 0.22
    _legacyInnerLeftCap:
      serializedVersion: 2
      x: 0
      y: 0
      width: 0
      height: 0
    _innerLeftCaps: []
    _innerLeftCapWeights: []
    _innerLeftCapColliderSize:
    - 1
    _innerLeftCapColliderType: 02000000
    _innerLeftCapOffset:
    - 0
    _legacyRightCap:
      serializedVersion: 2
      x: 0
      y: 0
      width: 0
      height: 0
    _rightCaps:
    - serializedVersion: 2
      x: 1
      y: 0.37890625
      width: 0
      height: 0
    _rightCapWeights: []
    _rightCapColliderSize:
    - 1
    _rightCapColliderType: 02000000
    _rightCapOffset:
    - 0.19
    _legacyInnerRightCap:
      serializedVersion: 2
      x: 0
      y: 0
      width: 0
      height: 0
    _innerRightCaps: []
    _innerRightCapWeights: []
    _innerRightCapColliderSize:
    - 1
    _innerRightCapColliderType: 02000000
    _innerRightCapOffset:
    - 0
    _bodies:
    - serializedVersion: 2
      x: 0
      y: 0.7285156
      width: 0.5
      height: 0.12207031
    - serializedVersion: 2
      x: 0.5
      y: 0.7285156
      width: 0.5
      height: 0.12207031
    _bodyWeights: []
    _yOffsetPercent: 0
    _colliderOffset: -0.28
    _colliderThickness: 0.56
    _physicsMaterial2D: {fileID: 0}
    _physicsMaterial3D: {fileID: 0}
  isPixel: 0
  _isPerfect: 0
