%YAML 1.1
%TAG !u! tag:unity3d.com,2011:
--- !u!1 &1414353644050896
GameObject:
  m_ObjectHideFlags: 0
  m_CorrespondingSourceObject: {fileID: 0}
  m_PrefabInstance: {fileID: 0}
  m_PrefabAsset: {fileID: 0}
  serializedVersion: 6
  m_Component:
  - component: {fileID: 4454854724892166}
  - component: {fileID: 1170430453890633917}
  - component: {fileID: 1170430453890633859}
  m_Layer: 0
  m_Name: Gun Chip Spawner
  m_TagString: Untagged
  m_Icon: {fileID: 0}
  m_NavMeshLayer: 0
  m_StaticEditorFlags: 0
  m_IsActive: 1
--- !u!4 &4454854724892166
Transform:
  m_ObjectHideFlags: 0
  m_CorrespondingSourceObject: {fileID: 0}
  m_PrefabInstance: {fileID: 0}
  m_PrefabAsset: {fileID: 0}
  m_GameObject: {fileID: 1414353644050896}
  m_LocalRotation: {x: 0, y: 0, z: 0, w: 1}
  m_LocalPosition: {x: 147.31, y: 235.77, z: 0}
  m_LocalScale: {x: 1, y: 1, z: 1}
  m_Children: []
  m_Father: {fileID: 0}
  m_RootOrder: 0
  m_LocalEulerAnglesHint: {x: 0, y: 0, z: 0}
--- !u!114 &1170430453890633917
MonoBehaviour:
  m_ObjectHideFlags: 0
  m_CorrespondingSourceObject: {fileID: 0}
  m_PrefabInstance: {fileID: 0}
  m_PrefabAsset: {fileID: 0}
  m_GameObject: {fileID: 1414353644050896}
  m_Enabled: 1
  m_EditorHideFlags: 0
  m_Script: {fileID: 11500000, guid: 4be6477f46958094e9938fe4cf75a6e5, type: 3}
  m_Name: 
  m_EditorClassIdentifier: 
  AutoSpawn: 1
  UncommonSpawnChance: 25
  RareSpawnChance: 15
  EpicSpawnChance: 10
  ForeceRarity: 4
  ChipsToSpawn: []
--- !u!114 &1170430453890633859
MonoBehaviour:
  m_ObjectHideFlags: 0
  m_CorrespondingSourceObject: {fileID: 0}
  m_PrefabInstance: {fileID: 0}
  m_PrefabAsset: {fileID: 0}
  m_GameObject: {fileID: 1414353644050896}
  m_Enabled: 1
  m_EditorHideFlags: 0
  m_Script: {fileID: 11500000, guid: 792d8927cdcc79f449d7f0afa89cc4b2, type: 3}
  m_Name: 
  m_EditorClassIdentifier: 
  icon: 0
  FillColour: {r: 1, g: 0.5514017, b: 0.015686274, a: 1}
