%YAML 1.1
%TAG !u! tag:unity3d.com,2011:
--- !u!74 &7400000
AnimationClip:
  m_ObjectHideFlags: 0
  m_CorrespondingSourceObject: {fileID: 0}
  m_PrefabInstance: {fileID: 0}
  m_PrefabAsset: {fileID: 0}
  m_Name: Idle
  serializedVersion: 6
  m_Legacy: 0
  m_Compressed: 0
  m_UseHighQualityCurve: 1
  m_RotationCurves: []
  m_CompressedRotationCurves: []
  m_EulerCurves: []
  m_PositionCurves: []
  m_ScaleCurves: []
  m_FloatCurves: []
  m_PPtrCurves:
  - curve:
    - time: 0
      value: {fileID: 21300000, guid: 13a8be88bc4dafa4a8ec46eab0e274a1, type: 3}
    - time: 0.05
      value: {fileID: 21300000, guid: 60278e8ee449ce44d95cfdae5ef59113, type: 3}
    - time: 0.1
      value: {fileID: 21300000, guid: 0a582e660fc9bd045bf466e6470a8176, type: 3}
    - time: 0.15
      value: {fileID: 21300000, guid: cbda497ca5e1d4f46bbb38edc33cc036, type: 3}
    - time: 0.2
      value: {fileID: 21300000, guid: d889b1f16e7ef954ba50601303f3e960, type: 3}
    - time: 0.25
      value: {fileID: 21300000, guid: 702abf28348e93d48a47f6090d6df3a9, type: 3}
    - time: 0.3
      value: {fileID: 21300000, guid: 6848220a87d03cf45ba9ec5eb3593760, type: 3}
    - time: 0.35
      value: {fileID: 21300000, guid: f4807cc465fe4b84d81eb1b3994dd6c3, type: 3}
    - time: 0.4
      value: {fileID: 21300000, guid: 1b454da75d35e1645ac41af7d46e5aa2, type: 3}
    - time: 0.45
      value: {fileID: 21300000, guid: 0064a5efa5b4f474da3b8bd57a3f8d12, type: 3}
    attribute: m_Sprite
    path: 
    classID: 212
    script: {fileID: 0}
  m_SampleRate: 20
  m_WrapMode: 0
  m_Bounds:
    m_Center: {x: 0, y: 0, z: 0}
    m_Extent: {x: 0, y: 0, z: 0}
  m_ClipBindingConstant:
    genericBindings:
    - serializedVersion: 2
      path: 0
      attribute: 0
      script: {fileID: 0}
      typeID: 212
      customType: 23
      isPPtrCurve: 1
    pptrCurveMapping:
    - {fileID: 21300000, guid: 13a8be88bc4dafa4a8ec46eab0e274a1, type: 3}
    - {fileID: 21300000, guid: 60278e8ee449ce44d95cfdae5ef59113, type: 3}
    - {fileID: 21300000, guid: 0a582e660fc9bd045bf466e6470a8176, type: 3}
    - {fileID: 21300000, guid: cbda497ca5e1d4f46bbb38edc33cc036, type: 3}
    - {fileID: 21300000, guid: d889b1f16e7ef954ba50601303f3e960, type: 3}
    - {fileID: 21300000, guid: 702abf28348e93d48a47f6090d6df3a9, type: 3}
    - {fileID: 21300000, guid: 6848220a87d03cf45ba9ec5eb3593760, type: 3}
    - {fileID: 21300000, guid: f4807cc465fe4b84d81eb1b3994dd6c3, type: 3}
    - {fileID: 21300000, guid: 1b454da75d35e1645ac41af7d46e5aa2, type: 3}
    - {fileID: 21300000, guid: 0064a5efa5b4f474da3b8bd57a3f8d12, type: 3}
  m_AnimationClipSettings:
    serializedVersion: 2
    m_AdditiveReferencePoseClip: {fileID: 0}
    m_AdditiveReferencePoseTime: 0
    m_StartTime: 0
    m_StopTime: 0.5
    m_OrientationOffsetY: 0
    m_Level: 0
    m_CycleOffset: 0
    m_HasAdditiveReferencePose: 0
    m_LoopTime: 1
    m_LoopBlend: 0
    m_LoopBlendOrientation: 0
    m_LoopBlendPositionY: 0
    m_LoopBlendPositionXZ: 0
    m_KeepOriginalOrientation: 0
    m_KeepOriginalPositionY: 1
    m_KeepOriginalPositionXZ: 0
    m_HeightFromFeet: 0
    m_Mirror: 0
  m_EditorCurves: []
  m_EulerEditorCurves: []
  m_HasGenericRootTransform: 0
  m_HasMotionFloatCurves: 0
  m_Events: []
