%YAML 1.1
%TAG !u! tag:unity3d.com,2011:
--- !u!114 &11400000
MonoBehaviour:
  m_ObjectHideFlags: 0
  m_CorrespondingSourceObject: {fileID: 0}
  m_PrefabInstance: {fileID: 0}
  m_PrefabAsset: {fileID: 0}
  m_GameObject: {fileID: 0}
  m_Enabled: 1
  m_EditorHideFlags: 0
  m_Script: {fileID: 11500000, guid: 3cfe511f5ae84c24e82fbf88db7e24ae, type: 3}
  m_Name: Grassy Path on Rock Top
  m_EditorClassIdentifier: 
  _fillMaterial: {fileID: 2100000, guid: 69c49650c4ca7dd449f272642d8c7f41, type: 2}
  _edgeMaterial: {fileID: 2100000, guid: c01dc95169732574fb97ad8d36e3d561, type: 2}
  _descriptors:
  - _applyTo: 0
    _zOffset: 0
    _yOffset: 0
    _capOffset: 0
    _legacyLeftCap:
      serializedVersion: 2
      x: 0
      y: 0
      width: 0
      height: 0
    _leftCaps:
    - serializedVersion: 2
      x: 0.14375
      y: 0.093055554
      width: 0.18515626
      height: 0.31666666
    _leftCapWeights: []
    _leftCapColliderSize:
    - 0.52
    _leftCapColliderType: 00000000
    _leftCapOffset:
    - -0.75
    _legacyInnerLeftCap:
      serializedVersion: 2
      x: 0
      y: 0
      width: 0
      height: 0
    _innerLeftCaps: []
    _innerLeftCapWeights: []
    _innerLeftCapColliderSize:
    - 1
    _innerLeftCapColliderType: 00000000
    _innerLeftCapOffset:
    - -0.75
    _legacyRightCap:
      serializedVersion: 2
      x: 0
      y: 0
      width: 0
      height: 0
    _rightCaps:
    - serializedVersion: 2
      x: 0.6652344
      y: 0.093055554
      width: 0.19921875
      height: 0.31666666
    _rightCapWeights: []
    _rightCapColliderSize:
    - 0.58
    _rightCapColliderType: 00000000
    _rightCapOffset:
    - -0.75
    _legacyInnerRightCap:
      serializedVersion: 2
      x: 0
      y: 0
      width: 0
      height: 0
    _innerRightCaps: []
    _innerRightCapWeights: []
    _innerRightCapColliderSize:
    - 1
    _innerRightCapColliderType: 00000000
    _innerRightCapOffset:
    - -0.75
    _bodies:
    - serializedVersion: 2
      x: 0.33046874
      y: 0.093055554
      width: 0.33398438
      height: 0.31666666
    _bodyWeights: []
    _yOffsetPercent: 0
    _colliderOffset: -0.38
    _colliderThickness: 0.6
    _physicsMaterial2D: {fileID: 0}
    _physicsMaterial3D: {fileID: 0}
  - _applyTo: 1
    _zOffset: 0.002
    _yOffset: 0
    _capOffset: 0
    _legacyLeftCap:
      serializedVersion: 2
      x: 0
      y: 0
      width: 0
      height: 0
    _leftCaps:
    - serializedVersion: 2
      x: 0.4279297
      y: 0.41628805
      width: 0.07490234
      height: 0.338324
    _leftCapWeights: []
    _leftCapColliderSize:
    - 1
    _leftCapColliderType: 00000000
    _leftCapOffset:
    - -1
    _legacyInnerLeftCap:
      serializedVersion: 2
      x: 0
      y: 0
      width: 0
      height: 0
    _innerLeftCaps: []
    _innerLeftCapWeights: []
    _innerLeftCapColliderSize:
    - 1
    _innerLeftCapColliderType: 00000000
    _innerLeftCapOffset:
    - 0
    _legacyRightCap:
      serializedVersion: 2
      x: 0
      y: 0
      width: 0
      height: 0
    _rightCaps:
    - serializedVersion: 2
      x: 0.7033203
      y: 0.4125331
      width: 0.16240235
      height: 0.34812245
    _rightCapWeights: []
    _rightCapColliderSize:
    - 1
    _rightCapColliderType: 00000000
    _rightCapOffset:
    - -1
    _legacyInnerRightCap:
      serializedVersion: 2
      x: 0
      y: 0
      width: 0
      height: 0
    _innerRightCaps: []
    _innerRightCapWeights: []
    _innerRightCapColliderSize:
    - 1
    _innerRightCapColliderType: 00000000
    _innerRightCapOffset:
    - 0
    _bodies:
    - serializedVersion: 2
      x: 0.49814454
      y: 0.41579878
      width: 0.20673828
      height: 0.33742404
    _bodyWeights: []
    _yOffsetPercent: -0.13
    _colliderOffset: -0.27
    _colliderThickness: 0.15
    _physicsMaterial2D: {fileID: 0}
    _physicsMaterial3D: {fileID: 0}
  - _applyTo: 2
    _zOffset: 0.002
    _yOffset: 0
    _capOffset: 0
    _legacyLeftCap:
      serializedVersion: 2
      x: 0
      y: 0
      width: 0
      height: 0
    _leftCaps:
    - serializedVersion: 2
      x: 0.01015625
      y: 0.7416663
      width: 0.096875
      height: 0.2494144
    _leftCapWeights: []
    _leftCapColliderSize:
    - 1
    _leftCapColliderType: 00000000
    _leftCapOffset:
    - -0.96
    _legacyInnerLeftCap:
      serializedVersion: 2
      x: 0
      y: 0
      width: 0
      height: 0
    _innerLeftCaps: []
    _innerLeftCapWeights: []
    _innerLeftCapColliderSize:
    - 1
    _innerLeftCapColliderType: 00000000
    _innerLeftCapOffset:
    - -0.96
    _legacyRightCap:
      serializedVersion: 2
      x: 0
      y: 0
      width: 0
      height: 0
    _rightCaps:
    - serializedVersion: 2
      x: 0.46972477
      y: 0.7416663
      width: 0.096875
      height: 0.2494144
    _rightCapWeights: []
    _rightCapColliderSize:
    - 1
    _rightCapColliderType: 00000000
    _rightCapOffset:
    - -0.96
    _legacyInnerRightCap:
      serializedVersion: 2
      x: 0
      y: 0
      width: 0
      height: 0
    _innerRightCaps: []
    _innerRightCapWeights: []
    _innerRightCapColliderSize:
    - 1
    _innerRightCapColliderType: 00000000
    _innerRightCapOffset:
    - -0.96
    _bodies:
    - serializedVersion: 2
      x: 0.10703125
      y: 0.7416663
      width: 0.36269352
      height: 0.2494144
    _bodyWeights: []
    _yOffsetPercent: 0
    _colliderOffset: -0.43
    _colliderThickness: 0.34
    _physicsMaterial2D: {fileID: 0}
    _physicsMaterial3D: {fileID: 0}
  - _applyTo: 3
    _zOffset: 0.001
    _yOffset: 0
    _capOffset: 0
    _legacyLeftCap:
      serializedVersion: 2
      x: 0
      y: 0
      width: 0
      height: 0
    _leftCaps:
    - serializedVersion: 2
      x: 0
      y: 0
      width: 0
      height: 0
    _leftCapWeights: []
    _leftCapColliderSize:
    - 1
    _leftCapColliderType: 02000000
    _leftCapOffset:
    - 0
    _legacyInnerLeftCap:
      serializedVersion: 2
      x: 0
      y: 0
      width: 0
      height: 0
    _innerLeftCaps: []
    _innerLeftCapWeights: []
    _innerLeftCapColliderSize:
    - 1
    _innerLeftCapColliderType: 02000000
    _innerLeftCapOffset:
    - 0
    _legacyRightCap:
      serializedVersion: 2
      x: 0
      y: 0
      width: 0
      height: 0
    _rightCaps:
    - serializedVersion: 2
      x: 0.6625
      y: 0.4722222
      width: 0.04296875
      height: 0.12916666
    _rightCapWeights: []
    _rightCapColliderSize:
    - 1
    _rightCapColliderType: 02000000
    _rightCapOffset:
    - -0.17
    _legacyInnerRightCap:
      serializedVersion: 2
      x: 0
      y: 0
      width: 0
      height: 0
    _innerRightCaps: []
    _innerRightCapWeights: []
    _innerRightCapColliderSize:
    - 1
    _innerRightCapColliderType: 02000000
    _innerRightCapOffset:
    - 0
    _bodies:
    - serializedVersion: 2
      x: 0.35625
      y: 0.44722205
      width: 0.13925782
      height: 0.1438585
    - serializedVersion: 2
      x: 0.5179688
      y: 0.44027779
      width: 0.128125
      height: 0.17777778
    _bodyWeights: []
    _yOffsetPercent: 0
    _colliderOffset: 0
    _colliderThickness: 1
    _physicsMaterial2D: {fileID: 0}
    _physicsMaterial3D: {fileID: 0}
  isPixel: 0
  _isPerfect: 0
