%YAML 1.1
%TAG !u! tag:unity3d.com,2011:
--- !u!1 &1200157758878194
GameObject:
  m_ObjectHideFlags: 0
  m_CorrespondingSourceObject: {fileID: 0}
  m_PrefabInstance: {fileID: 0}
  m_PrefabAsset: {fileID: 0}
  serializedVersion: 6
  m_Component:
  - component: {fileID: 4327949464207708}
  - component: {fileID: 212206786777745404}
  - component: {fileID: 60733956637407650}
  m_Layer: 9
  m_Name: Cliff Middle Piece 5 Tinted
  m_TagString: Ground
  m_Icon: {fileID: 0}
  m_NavMeshLayer: 0
  m_StaticEditorFlags: 0
  m_IsActive: 1
--- !u!4 &4327949464207708
Transform:
  m_ObjectHideFlags: 0
  m_CorrespondingSourceObject: {fileID: 0}
  m_PrefabInstance: {fileID: 0}
  m_PrefabAsset: {fileID: 0}
  m_GameObject: {fileID: 1200157758878194}
  m_LocalRotation: {x: -0, y: -0, z: -0, w: 1}
  m_LocalPosition: {x: 0, y: 0, z: 0}
  m_LocalScale: {x: 1, y: 1, z: 1}
  m_Children: []
  m_Father: {fileID: 0}
  m_RootOrder: 0
  m_LocalEulerAnglesHint: {x: 0, y: 0, z: 0}
--- !u!212 &212206786777745404
SpriteRenderer:
  m_ObjectHideFlags: 0
  m_CorrespondingSourceObject: {fileID: 0}
  m_PrefabInstance: {fileID: 0}
  m_PrefabAsset: {fileID: 0}
  m_GameObject: {fileID: 1200157758878194}
  m_Enabled: 1
  m_CastShadows: 0
  m_ReceiveShadows: 0
  m_DynamicOccludee: 1
  m_MotionVectors: 1
  m_LightProbeUsage: 1
  m_ReflectionProbeUsage: 1
  m_RayTracingMode: 0
  m_RenderingLayerMask: 1
  m_RendererPriority: 0
  m_Materials:
  - {fileID: 2100000, guid: a97c105638bdf8b4a8650670310a4cd3, type: 2}
  m_StaticBatchInfo:
    firstSubMesh: 0
    subMeshCount: 0
  m_StaticBatchRoot: {fileID: 0}
  m_ProbeAnchor: {fileID: 0}
  m_LightProbeVolumeOverride: {fileID: 0}
  m_ScaleInLightmap: 1
  m_ReceiveGI: 1
  m_PreserveUVs: 0
  m_IgnoreNormalsForChartDetection: 0
  m_ImportantGI: 0
  m_StitchLightmapSeams: 1
  m_SelectedEditorRenderState: 0
  m_MinimumChartSize: 4
  m_AutoUVMaxDistance: 0.5
  m_AutoUVMaxAngle: 89
  m_LightmapParameters: {fileID: 0}
  m_SortingLayerID: -903810563
  m_SortingLayer: 1
  m_SortingOrder: 0
  m_Sprite: {fileID: 21300000, guid: 424ea48bc1ed28340af630d27dd175de, type: 3}
  m_Color: {r: 0.7411765, g: 0.59607846, b: 0.59607846, a: 1}
  m_FlipX: 0
  m_FlipY: 0
  m_DrawMode: 0
  m_Size: {x: 10.24, y: 10.24}
  m_AdaptiveModeThreshold: 0.5
  m_SpriteTileMode: 0
  m_WasSpriteAssigned: 1
  m_MaskInteraction: 0
  m_SpriteSortPoint: 0
--- !u!60 &60733956637407650
PolygonCollider2D:
  m_ObjectHideFlags: 0
  m_CorrespondingSourceObject: {fileID: 0}
  m_PrefabInstance: {fileID: 0}
  m_PrefabAsset: {fileID: 0}
  m_GameObject: {fileID: 1200157758878194}
  m_Enabled: 1
  m_Density: 1
  m_Material: {fileID: 0}
  m_IsTrigger: 0
  m_UsedByEffector: 0
  m_UsedByComposite: 0
  m_Offset: {x: 0, y: 0}
  m_SpriteTilingProperty:
    border: {x: 0, y: 0, z: 0, w: 0}
    pivot: {x: 0.5, y: 0.5}
    oldSize: {x: 4.25, y: 8.62}
    newSize: {x: 10.24, y: 10.24}
    adaptiveTilingThreshold: 0.5
    drawMode: 0
    adaptiveTiling: 0
  m_AutoTiling: 0
  m_Points:
    m_Paths:
    - - {x: 0.97499996, y: -3.81}
      - {x: 0.965, y: -3.51}
      - {x: 0.98499995, y: -3.33}
      - {x: 1.005, y: -3.07}
      - {x: 1.0649999, y: -2.87}
      - {x: 1.145, y: -2.57}
      - {x: 1.155, y: -2.34}
      - {x: 1.1949999, y: -2.21}
      - {x: 1.245, y: -2.06}
      - {x: 1.255, y: -1.9799999}
      - {x: 1.2149999, y: -1.81}
      - {x: 1.2049999, y: -1.8}
      - {x: 1.2149999, y: -1.2099999}
      - {x: 1.225, y: -1.17}
      - {x: 1.235, y: -1.03}
      - {x: 1.3149999, y: -0.96}
      - {x: 1.275, y: -0.82}
      - {x: 1.275, y: -0.65999997}
      - {x: 1.285, y: -0.57}
      - {x: 1.3149999, y: -0.39}
      - {x: 1.365, y: -0.32}
      - {x: 1.495, y: 0.099999994}
      - {x: 1.5849999, y: 0.22999999}
      - {x: 1.5849999, y: 0.37}
      - {x: 1.545, y: 0.48999998}
      - {x: 1.495, y: 0.59999996}
      - {x: 1.365, y: 0.64}
      - {x: 1.385, y: 0.71}
      - {x: 1.395, y: 0.9}
      - {x: 1.355, y: 1}
      - {x: 1.375, y: 1.37}
      - {x: 1.395, y: 1.42}
      - {x: 1.385, y: 1.56}
      - {x: 1.365, y: 1.56}
      - {x: 1.365, y: 2.6}
      - {x: 1.375, y: 2.61}
      - {x: 1.385, y: 2.6499999}
      - {x: 1.4449999, y: 3}
      - {x: 1.525, y: 3.08}
      - {x: 1.5649999, y: 3.22}
      - {x: 1.635, y: 3.3999999}
      - {x: 1.925, y: 3.6}
      - {x: 2.0249999, y: 3.6999998}
      - {x: 2.055, y: 3.77}
      - {x: 2.085, y: 3.97}
      - {x: 2.105, y: 4.0899997}
      - {x: 2.125, y: 4.2799997}
      - {x: 2.095, y: 4.2999997}
      - {x: 1.665, y: 4.2999997}
      - {x: 1.4549999, y: 4.19}
      - {x: 1.285, y: 3.9399998}
      - {x: 1.125, y: 4.16}
      - {x: 1.025, y: 4.24}
      - {x: 0.60499996, y: 4.2999997}
      - {x: 0.39499998, y: 4.2}
      - {x: 0.295, y: 4.11}
      - {x: -0.015, y: 4.06}
      - {x: -0.065, y: 4}
      - {x: -0.105, y: 3.85}
      - {x: -0.105, y: 3.74}
      - {x: -0.035, y: 3.53}
      - {x: -0.095, y: 3.46}
      - {x: -0.125, y: 3.31}
      - {x: -0.114999995, y: 2.8899999}
      - {x: -0.095, y: 2.85}
      - {x: -0.21499999, y: 2.37}
      - {x: -0.235, y: 2.1299999}
      - {x: -0.235, y: 1.67}
      - {x: -0.185, y: 1.3299999}
      - {x: -0.195, y: 1.09}
      - {x: -0.195, y: 0.17}
      - {x: -0.21499999, y: 0.14999999}
      - {x: -0.235, y: 0.01}
      - {x: -0.255, y: -0.14999999}
      - {x: -0.295, y: -0.29999998}
      - {x: -0.275, y: -0.59999996}
      - {x: -0.235, y: -0.65}
      - {x: -0.33499998, y: -0.69}
      - {x: -0.435, y: -0.79999995}
      - {x: -0.475, y: -1.03}
      - {x: -0.49499997, y: -1.15}
      - {x: -0.515, y: -1.39}
      - {x: -0.53499997, y: -1.75}
      - {x: -0.555, y: -1.87}
      - {x: -0.575, y: -2.09}
      - {x: -0.695, y: -2.6299999}
      - {x: -0.715, y: -2.77}
      - {x: -0.775, y: -3.1499999}
      - {x: -0.775, y: -3.59}
      - {x: -0.755, y: -3.83}
      - {x: -0.775, y: -3.84}
      - {x: -0.775, y: -3.9299998}
      - {x: -0.765, y: -4.02}
      - {x: -0.60499996, y: -4.16}
      - {x: -0.525, y: -4.21}
      - {x: -0.375, y: -4.2599998}
      - {x: 0.475, y: -4.31}
      - {x: 0.615, y: -4.31}
      - {x: 0.805, y: -4.24}
      - {x: 0.835, y: -4.25}
      - {x: 0.885, y: -4.17}
