%YAML 1.1
%TAG !u! tag:unity3d.com,2011:
--- !u!1 &1285212622046292
GameObject:
  m_ObjectHideFlags: 0
  m_CorrespondingSourceObject: {fileID: 0}
  m_PrefabInstance: {fileID: 0}
  m_PrefabAsset: {fileID: 0}
  serializedVersion: 6
  m_Component:
  - component: {fileID: 4974440743020520}
  - component: {fileID: 212321444901956740}
  - component: {fileID: 60723885030633976}
  m_Layer: 9
  m_Name: Stone 1
  m_TagString: Ground
  m_Icon: {fileID: 0}
  m_NavMeshLayer: 0
  m_StaticEditorFlags: 0
  m_IsActive: 1
--- !u!4 &4974440743020520
Transform:
  m_ObjectHideFlags: 0
  m_CorrespondingSourceObject: {fileID: 0}
  m_PrefabInstance: {fileID: 0}
  m_PrefabAsset: {fileID: 0}
  m_GameObject: {fileID: 1285212622046292}
  m_LocalRotation: {x: 0, y: 0, z: 0, w: 1}
  m_LocalPosition: {x: 23.184, y: -21.757647, z: 0}
  m_LocalScale: {x: 1, y: 1, z: 1}
  m_Children: []
  m_Father: {fileID: 0}
  m_RootOrder: 0
  m_LocalEulerAnglesHint: {x: 0, y: 0, z: 0}
--- !u!212 &212321444901956740
SpriteRenderer:
  m_ObjectHideFlags: 0
  m_CorrespondingSourceObject: {fileID: 0}
  m_PrefabInstance: {fileID: 0}
  m_PrefabAsset: {fileID: 0}
  m_GameObject: {fileID: 1285212622046292}
  m_Enabled: 1
  m_CastShadows: 0
  m_ReceiveShadows: 0
  m_DynamicOccludee: 1
  m_MotionVectors: 1
  m_LightProbeUsage: 1
  m_ReflectionProbeUsage: 1
  m_RenderingLayerMask: 1
  m_RendererPriority: 0
  m_Materials:
  - {fileID: 2100000, guid: a333ca2c4937e7545a900049e1068333, type: 2}
  m_StaticBatchInfo:
    firstSubMesh: 0
    subMeshCount: 0
  m_StaticBatchRoot: {fileID: 0}
  m_ProbeAnchor: {fileID: 0}
  m_LightProbeVolumeOverride: {fileID: 0}
  m_ScaleInLightmap: 1
  m_PreserveUVs: 0
  m_IgnoreNormalsForChartDetection: 0
  m_ImportantGI: 0
  m_StitchLightmapSeams: 1
  m_SelectedEditorRenderState: 0
  m_MinimumChartSize: 4
  m_AutoUVMaxDistance: 0.5
  m_AutoUVMaxAngle: 89
  m_LightmapParameters: {fileID: 0}
  m_SortingLayerID: 1155926471
  m_SortingLayer: 2
  m_SortingOrder: 0
  m_Sprite: {fileID: 21300000, guid: 2f0d3d1cf459fd944b5fba06dc91f2f4, type: 3}
  m_Color: {r: 1, g: 1, b: 1, a: 1}
  m_FlipX: 0
  m_FlipY: 0
  m_DrawMode: 0
  m_Size: {x: 10.24, y: 5.12}
  m_AdaptiveModeThreshold: 0.5
  m_SpriteTileMode: 0
  m_WasSpriteAssigned: 1
  m_MaskInteraction: 0
  m_SpriteSortPoint: 0
--- !u!60 &60723885030633976
PolygonCollider2D:
  m_ObjectHideFlags: 0
  m_CorrespondingSourceObject: {fileID: 0}
  m_PrefabInstance: {fileID: 0}
  m_PrefabAsset: {fileID: 0}
  m_GameObject: {fileID: 1285212622046292}
  m_Enabled: 1
  m_Density: 1
  m_Material: {fileID: 0}
  m_IsTrigger: 0
  m_UsedByEffector: 0
  m_UsedByComposite: 0
  m_Offset: {x: 0, y: 0}
  m_SpriteTilingProperty:
    border: {x: 0, y: 0, z: 0, w: 0}
    pivot: {x: 0.5, y: 0.5}
    oldSize: {x: 2.93, y: 4.22}
    newSize: {x: 10.24, y: 5.12}
    adaptiveTilingThreshold: 0.5
    drawMode: 0
    adaptiveTiling: 0
  m_AutoTiling: 0
  m_Points:
    m_Paths:
    - - {x: 0.49499997, y: -1.87}
      - {x: 0.545, y: -1.8499999}
      - {x: 0.635, y: -1.78}
      - {x: 0.73499995, y: -1.68}
      - {x: 0.815, y: -1.62}
      - {x: 0.965, y: -1.4599999}
      - {x: 1.045, y: -1.29}
      - {x: 1.055, y: -1.26}
      - {x: 1.105, y: -1.13}
      - {x: 1.125, y: -1.0699999}
      - {x: 1.185, y: -0.84999996}
      - {x: 1.255, y: -0.63}
      - {x: 1.265, y: -0.53}
      - {x: 1.275, y: -0.35}
      - {x: 1.295, y: -0.17999999}
      - {x: 1.2944584, y: 1.2262878}
      - {x: 1.2875862, y: 1.5137129}
      - {x: 1.2835159, y: 1.7976074}
      - {x: 1.1414738, y: 1.7945938}
      - {x: 0.9548359, y: 1.7991409}
      - {x: 0.75694656, y: 1.803482}
      - {x: 0.50654984, y: 1.8083134}
      - {x: 0.13969994, y: 1.8173141}
      - {x: -0.15045547, y: 1.8216591}
      - {x: -0.8319702, y: 1.8260899}
      - {x: -1.0493927, y: 1.8249722}
      - {x: -1.1967621, y: 1.826477}
      - {x: -1.2675743, y: 1.8260164}
      - {x: -1.31851, y: 1.8279896}
      - {x: -1.3386803, y: 1.5699997}
      - {x: -1.3526592, y: 1.3523178}
      - {x: -1.3600235, y: 1.0105724}
      - {x: -1.3640537, y: 0.6499996}
      - {x: -1.305, y: 0.099999994}
      - {x: -1.235, y: -0.56}
      - {x: -1.185, y: -0.84}
      - {x: -1.115, y: -1.14}
      - {x: -1.055, y: -1.1999999}
      - {x: -0.995, y: -1.24}
      - {x: -0.965, y: -1.3399999}
      - {x: -0.865, y: -1.4699999}
      - {x: -0.79499996, y: -1.52}
      - {x: -0.675, y: -1.6999999}
      - {x: -0.405, y: -2.01}
      - {x: -0.325, y: -2.05}
      - {x: -0.285, y: -2.06}
      - {x: -0.035, y: -2.06}
      - {x: 0.085, y: -2.03}
      - {x: 0.175, y: -2}
      - {x: 0.355, y: -1.92}
