%YAML 1.1
%TAG !u! tag:unity3d.com,2011:
--- !u!1 &1262974529118830
GameObject:
  m_ObjectHideFlags: 0
  m_CorrespondingSourceObject: {fileID: 0}
  m_PrefabInstance: {fileID: 0}
  m_PrefabAsset: {fileID: 0}
  serializedVersion: 6
  m_Component:
  - component: {fileID: 4003254860579742}
  - component: {fileID: 212647232427247858}
  - component: {fileID: 60018405920980152}
  m_Layer: 9
  m_Name: Stone 6
  m_TagString: Ground
  m_Icon: {fileID: 0}
  m_NavMeshLayer: 0
  m_StaticEditorFlags: 0
  m_IsActive: 1
--- !u!4 &4003254860579742
Transform:
  m_ObjectHideFlags: 0
  m_CorrespondingSourceObject: {fileID: 0}
  m_PrefabInstance: {fileID: 0}
  m_PrefabAsset: {fileID: 0}
  m_GameObject: {fileID: 1262974529118830}
  m_LocalRotation: {x: 0, y: 0, z: 0, w: 1}
  m_LocalPosition: {x: 0, y: 0, z: 0}
  m_LocalScale: {x: 1, y: 1, z: 1}
  m_Children: []
  m_Father: {fileID: 0}
  m_RootOrder: 0
  m_LocalEulerAnglesHint: {x: 0, y: 0, z: 0}
--- !u!212 &212647232427247858
SpriteRenderer:
  m_ObjectHideFlags: 0
  m_CorrespondingSourceObject: {fileID: 0}
  m_PrefabInstance: {fileID: 0}
  m_PrefabAsset: {fileID: 0}
  m_GameObject: {fileID: 1262974529118830}
  m_Enabled: 1
  m_CastShadows: 0
  m_ReceiveShadows: 0
  m_DynamicOccludee: 1
  m_MotionVectors: 1
  m_LightProbeUsage: 1
  m_ReflectionProbeUsage: 1
  m_RayTracingMode: 0
  m_RenderingLayerMask: 1
  m_RendererPriority: 0
  m_Materials:
  - {fileID: 2100000, guid: a97c105638bdf8b4a8650670310a4cd3, type: 2}
  m_StaticBatchInfo:
    firstSubMesh: 0
    subMeshCount: 0
  m_StaticBatchRoot: {fileID: 0}
  m_ProbeAnchor: {fileID: 0}
  m_LightProbeVolumeOverride: {fileID: 0}
  m_ScaleInLightmap: 1
  m_ReceiveGI: 1
  m_PreserveUVs: 0
  m_IgnoreNormalsForChartDetection: 0
  m_ImportantGI: 0
  m_StitchLightmapSeams: 1
  m_SelectedEditorRenderState: 0
  m_MinimumChartSize: 4
  m_AutoUVMaxDistance: 0.5
  m_AutoUVMaxAngle: 89
  m_LightmapParameters: {fileID: 0}
  m_SortingLayerID: 1155926471
  m_SortingLayer: 2
  m_SortingOrder: 0
  m_Sprite: {fileID: 21300000, guid: a4b0c5a4e7d970e429408452bea38a4d, type: 3}
  m_Color: {r: 1, g: 1, b: 1, a: 1}
  m_FlipX: 0
  m_FlipY: 0
  m_DrawMode: 0
  m_Size: {x: 10.24, y: 5.12}
  m_AdaptiveModeThreshold: 0.5
  m_SpriteTileMode: 0
  m_WasSpriteAssigned: 1
  m_MaskInteraction: 0
  m_SpriteSortPoint: 0
--- !u!60 &60018405920980152
PolygonCollider2D:
  m_ObjectHideFlags: 0
  m_CorrespondingSourceObject: {fileID: 0}
  m_PrefabInstance: {fileID: 0}
  m_PrefabAsset: {fileID: 0}
  m_GameObject: {fileID: 1262974529118830}
  m_Enabled: 1
  m_Density: 1
  m_Material: {fileID: 0}
  m_IsTrigger: 0
  m_UsedByEffector: 0
  m_UsedByComposite: 0
  m_Offset: {x: 0, y: 0}
  m_SpriteTilingProperty:
    border: {x: 0, y: 0, z: 0, w: 0}
    pivot: {x: 0.5, y: 0.5}
    oldSize: {x: 3.46, y: 4.96}
    newSize: {x: 10.24, y: 5.12}
    adaptiveTilingThreshold: 0.5
    drawMode: 0
    adaptiveTiling: 0
  m_AutoTiling: 0
  m_Points:
    m_Paths:
    - - {x: 0.65, y: -2.25}
      - {x: 1.1, y: -2.25}
      - {x: 1.27, y: -2.22}
      - {x: 1.4399999, y: -2.06}
      - {x: 1.61, y: -1.79}
      - {x: 1.63, y: -1.6899999}
      - {x: 1.615406, y: -1.4800892}
      - {x: 1.6009007, y: -1.1600904}
      - {x: 1.5144329, y: 0.36462402}
      - {x: 1.4244823, y: 1.3527441}
      - {x: 1.3365841, y: 1.9538422}
      - {x: 1.268446, y: 1.9524107}
      - {x: 1.1311169, y: 1.9545202}
      - {x: 0.8270855, y: 1.9525051}
      - {x: 0.5928459, y: 1.9462013}
      - {x: 0.14550781, y: 1.9434509}
      - {x: -0.5557003, y: 1.939888}
      - {x: -0.5630245, y: 2.2942038}
      - {x: -0.77542496, y: 2.297637}
      - {x: -1.245573, y: 2.2731085}
      - {x: -1.4367237, y: 2.259595}
      - {x: -1.5835056, y: 2.2575226}
      - {x: -1.6630955, y: 1.9336529}
      - {x: -1.6829166, y: 1.7291498}
      - {x: -1.7025433, y: 1.2024956}
      - {x: -1.73, y: 0.31}
      - {x: -1.7099999, y: 0.099999994}
      - {x: -1.67, y: -0.22}
      - {x: -1.62, y: -0.52}
      - {x: -1.5999999, y: -0.59999996}
      - {x: -1.49, y: -0.9}
      - {x: -1.48, y: -1.17}
      - {x: -1.4699999, y: -1.3199999}
      - {x: -1.4599999, y: -1.8}
      - {x: -1.4499999, y: -1.86}
      - {x: -1.4399999, y: -1.9699999}
      - {x: -1.3399999, y: -2.08}
      - {x: -1.1899999, y: -2.19}
      - {x: -0.94, y: -2.33}
      - {x: -0.81, y: -2.3799999}
      - {x: -0.68, y: -2.4099998}
      - {x: -0.29999998, y: -2.48}
      - {x: 0.17, y: -2.48}
      - {x: 0.24, y: -2.45}
      - {x: 0.5, y: -2.31}
      - {x: 0.65, y: -2.26}
