%YAML 1.1
%TAG !u! tag:unity3d.com,2011:
--- !u!114 &11400000
MonoBehaviour:
  m_ObjectHideFlags: 0
  m_CorrespondingSourceObject: {fileID: 0}
  m_PrefabInstance: {fileID: 0}
  m_PrefabAsset: {fileID: 0}
  m_GameObject: {fileID: 0}
  m_Enabled: 1
  m_EditorHideFlags: 0
  m_Script: {fileID: 11500000, guid: af7181f404f1447c0a7a17b3070b952b, type: 3}
  m_Name: Ice_03_Top1
  m_EditorClassIdentifier: 
  m_Angles:
  - m_Start: -45
    m_End: 45
    m_Order: 3
    m_Sprites:
    - {fileID: 21300000, guid: 91f8769e3487e2a4c9d73af09c918c71, type: 3}
  - m_Start: -109
    m_End: -45
    m_Order: 2
    m_Sprites:
    - {fileID: 21300000, guid: 68a99ae8d9247b94db12f806a501cde7, type: 3}
  - m_Start: 45
    m_End: 111
    m_Order: 2
    m_Sprites:
    - {fileID: 21300000, guid: 68a99ae8d9247b94db12f806a501cde7, type: 3}
  - m_Start: 111
    m_End: 251
    m_Order: 1
    m_Sprites:
    - {fileID: 21300000, guid: 087ebe3087611fa488707ea3a3bf1d2d, type: 3}
  m_FillTexture: {fileID: 2800000, guid: 34c300568a8a1da49acb47eb466825fc, type: 3}
  m_CornerSprites:
  - m_CornerType: 0
    m_Sprites:
    - {fileID: 0}
  - m_CornerType: 1
    m_Sprites:
    - {fileID: 0}
  - m_CornerType: 2
    m_Sprites:
    - {fileID: 0}
  - m_CornerType: 3
    m_Sprites:
    - {fileID: 0}
  - m_CornerType: 4
    m_Sprites:
    - {fileID: 0}
  - m_CornerType: 5
    m_Sprites:
    - {fileID: 0}
  - m_CornerType: 6
    m_Sprites:
    - {fileID: 0}
  - m_CornerType: 7
    m_Sprites:
    - {fileID: 0}
  m_FillPixelPerUnit: 50
  m_BevelSize: 0
  m_BevelCutoff: 0
  m_FillOffset: -0.043
  m_WorldSpaceUV: 0
  m_UseSpriteBorders: 1
