%YAML 1.1
%TAG !u! tag:unity3d.com,2011:
--- !u!114 &11400000
MonoBehaviour:
  m_ObjectHideFlags: 0
  m_CorrespondingSourceObject: {fileID: 0}
  m_PrefabInstance: {fileID: 0}
  m_PrefabAsset: {fileID: 0}
  m_GameObject: {fileID: 0}
  m_Enabled: 1
  m_EditorHideFlags: 0
  m_Script: {fileID: 11500000, guid: 593f4a8bc6af6d049bea3fa3660b765a, type: 3}
  m_Name: JungleSceneSetup
  m_EditorClassIdentifier: 
  Setups:
  - m_Path: Assets/Resources/Prefabs/Scenes/Menus & Setup/Debug Start Game.unity
    m_IsLoaded: 1
    m_IsActive: 0
    m_IsSubScene: 0
  - m_Path: Assets/Resources/Prefabs/Scenes/Jungle-Master.unity
    m_IsLoaded: 1
    m_IsActive: 0
    m_IsSubScene: 0
  - m_Path: Assets/Resources/Prefabs/Scenes/Jungle-f2d-start.unity
    m_IsLoaded: 1
    m_IsActive: 1
    m_IsSubScene: 0
