%YAML 1.1
%TAG !u! tag:unity3d.com,2011:
--- !u!114 &11400000
MonoBehaviour:
  m_ObjectHideFlags: 0
  m_CorrespondingSourceObject: {fileID: 0}
  m_PrefabInstance: {fileID: 0}
  m_PrefabAsset: {fileID: 0}
  m_GameObject: {fileID: 0}
  m_Enabled: 1
  m_EditorHideFlags: 0
  m_Script: {fileID: 11500000, guid: ae0543fe805424df99fe08ce744cbe49, type: 3}
  m_Name: walkstart
  m_EditorClassIdentifier: 
  m_PoseEntries:
  - path: Body
    localPosition: {x: 0.10577083, y: -0.85565674, z: 0}
    localRotation: {x: 0, y: 0, z: 0.80800366, w: 0.5891775}
    localScale: {x: 1, y: 1, z: 1}
  - path: Body/BodyTop
    localPosition: {x: 1.0775653, y: 0, z: 0}
    localRotation: {x: 0, y: 0, z: -0.3794376, w: 0.9252174}
    localScale: {x: 1, y: 1, z: 1}
  - path: Body/BodyTop/Head
    localPosition: {x: 0.9876158, y: 0.000000029802322, z: 0}
    localRotation: {x: 0, y: 0, z: 0.20004548, w: 0.97978663}
    localScale: {x: 1, y: 1, z: 1}
  - path: Body/BodyTop/LeftShoulder
    localPosition: {x: 0.12880832, y: 1.2023008, z: 0}
    localRotation: {x: 0, y: 0, z: 0.98865557, w: -0.15020102}
    localScale: {x: 1, y: 1, z: 1}
  - path: Body/BodyTop/LeftShoulder/New bone
    localPosition: {x: 0.28956395, y: -0.00000010430813, z: 0}
    localRotation: {x: 0, y: 0, z: 0.022807704, w: 0.99973994}
    localScale: {x: 1, y: 1, z: 1}
  - path: Body/BodyTop/LeftShoulder/New bone/New bone
    localPosition: {x: 0.989057, y: -0.00000011920929, z: 0}
    localRotation: {x: 0, y: 0, z: 0.14204274, w: 0.98986053}
    localScale: {x: 1, y: 1, z: 1}
  - path: Body/BodyTop/LeftShoulder/New bone/New bone/New bone
    localPosition: {x: 0.6406873, y: -0.00000013955696, z: 0}
    localRotation: {x: 0, y: 0, z: 0.4428908, w: 0.8965756}
    localScale: {x: 1, y: 1, z: 1}
  - path: Body/BodyTop/RightShoulder
    localPosition: {x: 1.0703114, y: -1.1442904, z: 0}
    localRotation: {x: 0, y: 0, z: -0.949578, w: 0.3135309}
    localScale: {x: 1, y: 1, z: 1}
  - path: Body/BodyTop/RightShoulder/New bone
    localPosition: {x: 0.33391643, y: 0.0000003874302, z: 0}
    localRotation: {x: 0, y: 0, z: 0.07518698, w: 0.9971695}
    localScale: {x: 1, y: 1, z: 1}
  - path: Body/BodyTop/RightShoulder/New bone/New bone
    localPosition: {x: 0.6048936, y: 0.00000035762787, z: 0}
    localRotation: {x: 0, y: 0, z: -0.0074655702, w: 0.99997216}
    localScale: {x: 1, y: 1, z: 1}
  - path: Body/BodyTop/RightShoulder/New bone/New bone/New bone
    localPosition: {x: 0.5791359, y: 0.00000025285408, z: 0}
    localRotation: {x: 0, y: 0, z: -0.006341281, w: 0.9999799}
    localScale: {x: 1, y: 1, z: 1}
  - path: Body/BodyTop/WingR
    localPosition: {x: 0.22864552, y: 0.6544215, z: 0}
    localRotation: {x: 0, y: 0, z: 0.9988494, w: -0.047958333}
    localScale: {x: 1, y: 1, z: 1}
  - path: Body/BodyTop/Wingl
    localPosition: {x: 0.962249, y: -1.0728029, z: 0}
    localRotation: {x: 0, y: 0, z: -0.9745397, w: 0.22421515}
    localScale: {x: 1, y: 1, z: 1}
  - path: Body/LeftHip
    localPosition: {x: 0.2696401, y: 0.3797446, z: 0}
    localRotation: {x: 0, y: 0, z: 0.9955805, w: 0.09391243}
    localScale: {x: 1, y: 1, z: 1}
  - path: Body/LeftHip/LeftKeen
    localPosition: {x: 0.67778677, y: 0.000000059604645, z: 0}
    localRotation: {x: 0, y: 0, z: -0.49601746, w: 0.86831254}
    localScale: {x: 1, y: 1, z: 1}
  - path: Body/LeftHip/LeftKeen/LeftFoot
    localPosition: {x: 1.1959399, y: 0.0000001611188, z: 0}
    localRotation: {x: 0, y: 0, z: 0.78421885, w: 0.62048435}
    localScale: {x: 1, y: 1, z: 1}
  - path: Body/RightHip
    localPosition: {x: -0.1277738, y: -0.6466416, z: 0}
    localRotation: {x: 0, y: 0, z: 0.88848263, w: 0.4589103}
    localScale: {x: 1, y: 1, z: 1}
  - path: Body/RightHip/RightKnee
    localPosition: {x: 0.6090671, y: 0.000000059604645, z: 0}
    localRotation: {x: 0, y: 0, z: 0.44987807, w: 0.89309}
    localScale: {x: 1, y: 1, z: 1}
  - path: Body/RightHip/RightKnee/RightFoot
    localPosition: {x: 1.1670631, y: 0.000000023457687, z: 0}
    localRotation: {x: 0, y: 0, z: 0.64958256, w: 0.7602911}
    localScale: {x: 1, y: 1, z: 1}
