%YAML 1.1
%TAG !u! tag:unity3d.com,2011:
--- !u!114 &11400000
MonoBehaviour:
  m_ObjectHideFlags: 0
  m_CorrespondingSourceObject: {fileID: 0}
  m_PrefabInstance: {fileID: 0}
  m_PrefabAsset: {fileID: 0}
  m_GameObject: {fileID: 0}
  m_Enabled: 1
  m_EditorHideFlags: 0
  m_Script: {fileID: 11500000, guid: 5dc317b205cc6ae41bbfd3a56944a89e, type: 3}
  m_Name: 1-1Volcano
  m_EditorClassIdentifier: 
  SceneList:
  - Path: Assets/BundledAssets/StreamingAssests/lavallevelscenes/Volcano.unity
    QuickName: New
    LoadOnPackageLoad: 1
  Name: Volcano
  MasterScene: Assets/BundledAssets/StreamingAssests/lavallevelscenes/Volcano-Master.unity
  levelScriptType: GameMaster.RobomaniaLevelScript
  BypassBundleInEditor: 1
  IsAseetBundle: 1
  HasAdditionalAseetBundle: 0
  LoadAseetBundleOnStart: 0
  AssestBundeName: lavallevelscenes
  AdditionalAseetBundleName: 
  UnloadAseetBundleOnPakageUnload: 0
