%YAML 1.1
%TAG !u! tag:unity3d.com,2011:
--- !u!1 &1022885101337070
GameObject:
  m_ObjectHideFlags: 0
  m_CorrespondingSourceObject: {fileID: 0}
  m_PrefabInstance: {fileID: 0}
  m_PrefabAsset: {fileID: 0}
  serializedVersion: 6
  m_Component:
  - component: {fileID: 4341982503329022}
  - component: {fileID: 2569400266287956694}
  m_Layer: 31
  m_Name: Volcan base
  m_TagString: Untagged
  m_Icon: {fileID: 0}
  m_NavMeshLayer: 0
  m_StaticEditorFlags: 0
  m_IsActive: 1
--- !u!4 &4341982503329022
Transform:
  m_ObjectHideFlags: 0
  m_CorrespondingSourceObject: {fileID: 0}
  m_PrefabInstance: {fileID: 0}
  m_PrefabAsset: {fileID: 0}
  m_GameObject: {fileID: 1022885101337070}
  m_LocalRotation: {x: 0, y: 0, z: 0, w: 1}
  m_LocalPosition: {x: 0, y: 0, z: 0}
  m_LocalScale: {x: 1, y: 1, z: 1}
  m_Children:
  - {fileID: 4422942654660128}
  m_Father: {fileID: 0}
  m_RootOrder: 0
  m_LocalEulerAnglesHint: {x: 0, y: 0, z: 0}
--- !u!156049354 &2569400266287956694
Grid:
  m_ObjectHideFlags: 0
  m_CorrespondingSourceObject: {fileID: 0}
  m_PrefabInstance: {fileID: 0}
  m_PrefabAsset: {fileID: 0}
  m_GameObject: {fileID: 1022885101337070}
  m_Enabled: 1
  m_CellSize: {x: 2.05, y: 2.56, z: 0}
  m_CellGap: {x: 0, y: 0, z: 0}
  m_CellLayout: 0
  m_CellSwizzle: 0
--- !u!1 &1530037279103856
GameObject:
  m_ObjectHideFlags: 0
  m_CorrespondingSourceObject: {fileID: 0}
  m_PrefabInstance: {fileID: 0}
  m_PrefabAsset: {fileID: 0}
  serializedVersion: 6
  m_Component:
  - component: {fileID: 4422942654660128}
  - component: {fileID: 8195094282583115490}
  - component: {fileID: 3664157345979934054}
  m_Layer: 31
  m_Name: Layer1
  m_TagString: Untagged
  m_Icon: {fileID: 0}
  m_NavMeshLayer: 0
  m_StaticEditorFlags: 0
  m_IsActive: 1
--- !u!4 &4422942654660128
Transform:
  m_ObjectHideFlags: 0
  m_CorrespondingSourceObject: {fileID: 0}
  m_PrefabInstance: {fileID: 0}
  m_PrefabAsset: {fileID: 0}
  m_GameObject: {fileID: 1530037279103856}
  m_LocalRotation: {x: -0, y: -0, z: -0, w: 1}
  m_LocalPosition: {x: 0, y: 0, z: 0}
  m_LocalScale: {x: 1, y: 1, z: 1}
  m_Children: []
  m_Father: {fileID: 4341982503329022}
  m_RootOrder: 0
  m_LocalEulerAnglesHint: {x: 0, y: 0, z: 0}
--- !u!1839735485 &8195094282583115490
Tilemap:
  m_ObjectHideFlags: 0
  m_CorrespondingSourceObject: {fileID: 0}
  m_PrefabInstance: {fileID: 0}
  m_PrefabAsset: {fileID: 0}
  m_GameObject: {fileID: 1530037279103856}
  m_Enabled: 1
  m_Tiles:
  - first: {x: -12, y: -4, z: 0}
    second:
      m_TileIndex: 44
      m_TileSpriteIndex: 44
      m_TileMatrixIndex: 0
      m_TileColorIndex: 0
      m_ObjectToInstantiate: {fileID: 0}
      m_TileFlags: 1
      m_ColliderType: 1
  - first: {x: -11, y: -4, z: 0}
    second:
      m_TileIndex: 45
      m_TileSpriteIndex: 45
      m_TileMatrixIndex: 0
      m_TileColorIndex: 0
      m_ObjectToInstantiate: {fileID: 0}
      m_TileFlags: 1
      m_ColliderType: 1
  - first: {x: -10, y: -4, z: 0}
    second:
      m_TileIndex: 46
      m_TileSpriteIndex: 46
      m_TileMatrixIndex: 0
      m_TileColorIndex: 0
      m_ObjectToInstantiate: {fileID: 0}
      m_TileFlags: 1
      m_ColliderType: 1
  - first: {x: -9, y: -4, z: 0}
    second:
      m_TileIndex: 47
      m_TileSpriteIndex: 47
      m_TileMatrixIndex: 0
      m_TileColorIndex: 0
      m_ObjectToInstantiate: {fileID: 0}
      m_TileFlags: 1
      m_ColliderType: 1
  - first: {x: -8, y: -4, z: 0}
    second:
      m_TileIndex: 48
      m_TileSpriteIndex: 48
      m_TileMatrixIndex: 0
      m_TileColorIndex: 0
      m_ObjectToInstantiate: {fileID: 0}
      m_TileFlags: 1
      m_ColliderType: 1
  - first: {x: -12, y: -3, z: 0}
    second:
      m_TileIndex: 39
      m_TileSpriteIndex: 39
      m_TileMatrixIndex: 0
      m_TileColorIndex: 0
      m_ObjectToInstantiate: {fileID: 0}
      m_TileFlags: 1
      m_ColliderType: 1
  - first: {x: -11, y: -3, z: 0}
    second:
      m_TileIndex: 40
      m_TileSpriteIndex: 40
      m_TileMatrixIndex: 0
      m_TileColorIndex: 0
      m_ObjectToInstantiate: {fileID: 0}
      m_TileFlags: 1
      m_ColliderType: 1
  - first: {x: -10, y: -3, z: 0}
    second:
      m_TileIndex: 41
      m_TileSpriteIndex: 41
      m_TileMatrixIndex: 0
      m_TileColorIndex: 0
      m_ObjectToInstantiate: {fileID: 0}
      m_TileFlags: 1
      m_ColliderType: 1
  - first: {x: -9, y: -3, z: 0}
    second:
      m_TileIndex: 42
      m_TileSpriteIndex: 42
      m_TileMatrixIndex: 0
      m_TileColorIndex: 0
      m_ObjectToInstantiate: {fileID: 0}
      m_TileFlags: 1
      m_ColliderType: 1
  - first: {x: -8, y: -3, z: 0}
    second:
      m_TileIndex: 43
      m_TileSpriteIndex: 43
      m_TileMatrixIndex: 0
      m_TileColorIndex: 0
      m_ObjectToInstantiate: {fileID: 0}
      m_TileFlags: 1
      m_ColliderType: 1
  - first: {x: -5, y: -3, z: 0}
    second:
      m_TileIndex: 24
      m_TileSpriteIndex: 24
      m_TileMatrixIndex: 0
      m_TileColorIndex: 0
      m_ObjectToInstantiate: {fileID: 0}
      m_TileFlags: 1
      m_ColliderType: 1
  - first: {x: -4, y: -3, z: 0}
    second:
      m_TileIndex: 25
      m_TileSpriteIndex: 25
      m_TileMatrixIndex: 0
      m_TileColorIndex: 0
      m_ObjectToInstantiate: {fileID: 0}
      m_TileFlags: 1
      m_ColliderType: 1
  - first: {x: -3, y: -3, z: 0}
    second:
      m_TileIndex: 26
      m_TileSpriteIndex: 26
      m_TileMatrixIndex: 0
      m_TileColorIndex: 0
      m_ObjectToInstantiate: {fileID: 0}
      m_TileFlags: 1
      m_ColliderType: 1
  - first: {x: -2, y: -3, z: 0}
    second:
      m_TileIndex: 27
      m_TileSpriteIndex: 27
      m_TileMatrixIndex: 0
      m_TileColorIndex: 0
      m_ObjectToInstantiate: {fileID: 0}
      m_TileFlags: 1
      m_ColliderType: 1
  - first: {x: -1, y: -3, z: 0}
    second:
      m_TileIndex: 28
      m_TileSpriteIndex: 28
      m_TileMatrixIndex: 0
      m_TileColorIndex: 0
      m_ObjectToInstantiate: {fileID: 0}
      m_TileFlags: 1
      m_ColliderType: 1
  - first: {x: -12, y: -2, z: 0}
    second:
      m_TileIndex: 34
      m_TileSpriteIndex: 34
      m_TileMatrixIndex: 0
      m_TileColorIndex: 0
      m_ObjectToInstantiate: {fileID: 0}
      m_TileFlags: 1
      m_ColliderType: 1
  - first: {x: -11, y: -2, z: 0}
    second:
      m_TileIndex: 35
      m_TileSpriteIndex: 35
      m_TileMatrixIndex: 0
      m_TileColorIndex: 0
      m_ObjectToInstantiate: {fileID: 0}
      m_TileFlags: 1
      m_ColliderType: 1
  - first: {x: -10, y: -2, z: 0}
    second:
      m_TileIndex: 36
      m_TileSpriteIndex: 36
      m_TileMatrixIndex: 0
      m_TileColorIndex: 0
      m_ObjectToInstantiate: {fileID: 0}
      m_TileFlags: 1
      m_ColliderType: 1
  - first: {x: -9, y: -2, z: 0}
    second:
      m_TileIndex: 37
      m_TileSpriteIndex: 37
      m_TileMatrixIndex: 0
      m_TileColorIndex: 0
      m_ObjectToInstantiate: {fileID: 0}
      m_TileFlags: 1
      m_ColliderType: 1
  - first: {x: -8, y: -2, z: 0}
    second:
      m_TileIndex: 38
      m_TileSpriteIndex: 38
      m_TileMatrixIndex: 0
      m_TileColorIndex: 0
      m_ObjectToInstantiate: {fileID: 0}
      m_TileFlags: 1
      m_ColliderType: 1
  - first: {x: -5, y: -2, z: 0}
    second:
      m_TileIndex: 19
      m_TileSpriteIndex: 19
      m_TileMatrixIndex: 0
      m_TileColorIndex: 0
      m_ObjectToInstantiate: {fileID: 0}
      m_TileFlags: 1
      m_ColliderType: 1
  - first: {x: -4, y: -2, z: 0}
    second:
      m_TileIndex: 20
      m_TileSpriteIndex: 20
      m_TileMatrixIndex: 0
      m_TileColorIndex: 0
      m_ObjectToInstantiate: {fileID: 0}
      m_TileFlags: 1
      m_ColliderType: 1
  - first: {x: -3, y: -2, z: 0}
    second:
      m_TileIndex: 21
      m_TileSpriteIndex: 21
      m_TileMatrixIndex: 0
      m_TileColorIndex: 0
      m_ObjectToInstantiate: {fileID: 0}
      m_TileFlags: 1
      m_ColliderType: 1
  - first: {x: -2, y: -2, z: 0}
    second:
      m_TileIndex: 22
      m_TileSpriteIndex: 22
      m_TileMatrixIndex: 0
      m_TileColorIndex: 0
      m_ObjectToInstantiate: {fileID: 0}
      m_TileFlags: 1
      m_ColliderType: 1
  - first: {x: -1, y: -2, z: 0}
    second:
      m_TileIndex: 23
      m_TileSpriteIndex: 23
      m_TileMatrixIndex: 0
      m_TileColorIndex: 0
      m_ObjectToInstantiate: {fileID: 0}
      m_TileFlags: 1
      m_ColliderType: 1
  - first: {x: -12, y: -1, z: 0}
    second:
      m_TileIndex: 29
      m_TileSpriteIndex: 29
      m_TileMatrixIndex: 0
      m_TileColorIndex: 0
      m_ObjectToInstantiate: {fileID: 0}
      m_TileFlags: 1
      m_ColliderType: 1
  - first: {x: -11, y: -1, z: 0}
    second:
      m_TileIndex: 30
      m_TileSpriteIndex: 30
      m_TileMatrixIndex: 0
      m_TileColorIndex: 0
      m_ObjectToInstantiate: {fileID: 0}
      m_TileFlags: 1
      m_ColliderType: 1
  - first: {x: -10, y: -1, z: 0}
    second:
      m_TileIndex: 31
      m_TileSpriteIndex: 32
      m_TileMatrixIndex: 0
      m_TileColorIndex: 0
      m_ObjectToInstantiate: {fileID: 0}
      m_TileFlags: 1
      m_ColliderType: 1
  - first: {x: -9, y: -1, z: 0}
    second:
      m_TileIndex: 32
      m_TileSpriteIndex: 31
      m_TileMatrixIndex: 0
      m_TileColorIndex: 0
      m_ObjectToInstantiate: {fileID: 0}
      m_TileFlags: 1
      m_ColliderType: 1
  - first: {x: -8, y: -1, z: 0}
    second:
      m_TileIndex: 33
      m_TileSpriteIndex: 33
      m_TileMatrixIndex: 0
      m_TileColorIndex: 0
      m_ObjectToInstantiate: {fileID: 0}
      m_TileFlags: 1
      m_ColliderType: 1
  - first: {x: -5, y: 0, z: 0}
    second:
      m_TileIndex: 5
      m_TileSpriteIndex: 5
      m_TileMatrixIndex: 0
      m_TileColorIndex: 0
      m_ObjectToInstantiate: {fileID: 0}
      m_TileFlags: 1
      m_ColliderType: 1
  - first: {x: -4, y: 0, z: 0}
    second:
      m_TileIndex: 6
      m_TileSpriteIndex: 6
      m_TileMatrixIndex: 0
      m_TileColorIndex: 0
      m_ObjectToInstantiate: {fileID: 0}
      m_TileFlags: 1
      m_ColliderType: 1
  - first: {x: -3, y: 0, z: 0}
    second:
      m_TileIndex: 7
      m_TileSpriteIndex: 7
      m_TileMatrixIndex: 0
      m_TileColorIndex: 0
      m_ObjectToInstantiate: {fileID: 0}
      m_TileFlags: 1
      m_ColliderType: 1
  - first: {x: -2, y: 0, z: 0}
    second:
      m_TileIndex: 8
      m_TileSpriteIndex: 8
      m_TileMatrixIndex: 0
      m_TileColorIndex: 0
      m_ObjectToInstantiate: {fileID: 0}
      m_TileFlags: 1
      m_ColliderType: 1
  - first: {x: -1, y: 0, z: 0}
    second:
      m_TileIndex: 9
      m_TileSpriteIndex: 9
      m_TileMatrixIndex: 0
      m_TileColorIndex: 0
      m_ObjectToInstantiate: {fileID: 0}
      m_TileFlags: 1
      m_ColliderType: 1
  - first: {x: -12, y: 1, z: 0}
    second:
      m_TileIndex: 15
      m_TileSpriteIndex: 15
      m_TileMatrixIndex: 0
      m_TileColorIndex: 0
      m_ObjectToInstantiate: {fileID: 0}
      m_TileFlags: 1
      m_ColliderType: 1
  - first: {x: -11, y: 1, z: 0}
    second:
      m_TileIndex: 16
      m_TileSpriteIndex: 16
      m_TileMatrixIndex: 0
      m_TileColorIndex: 0
      m_ObjectToInstantiate: {fileID: 0}
      m_TileFlags: 1
      m_ColliderType: 1
  - first: {x: -9, y: 1, z: 0}
    second:
      m_TileIndex: 17
      m_TileSpriteIndex: 17
      m_TileMatrixIndex: 0
      m_TileColorIndex: 0
      m_ObjectToInstantiate: {fileID: 0}
      m_TileFlags: 1
      m_ColliderType: 1
  - first: {x: -8, y: 1, z: 0}
    second:
      m_TileIndex: 18
      m_TileSpriteIndex: 18
      m_TileMatrixIndex: 0
      m_TileColorIndex: 0
      m_ObjectToInstantiate: {fileID: 0}
      m_TileFlags: 1
      m_ColliderType: 1
  - first: {x: -5, y: 1, z: 0}
    second:
      m_TileIndex: 0
      m_TileSpriteIndex: 0
      m_TileMatrixIndex: 0
      m_TileColorIndex: 0
      m_ObjectToInstantiate: {fileID: 0}
      m_TileFlags: 1
      m_ColliderType: 1
  - first: {x: -4, y: 1, z: 0}
    second:
      m_TileIndex: 1
      m_TileSpriteIndex: 1
      m_TileMatrixIndex: 0
      m_TileColorIndex: 0
      m_ObjectToInstantiate: {fileID: 0}
      m_TileFlags: 1
      m_ColliderType: 1
  - first: {x: -3, y: 1, z: 0}
    second:
      m_TileIndex: 2
      m_TileSpriteIndex: 2
      m_TileMatrixIndex: 0
      m_TileColorIndex: 0
      m_ObjectToInstantiate: {fileID: 0}
      m_TileFlags: 1
      m_ColliderType: 1
  - first: {x: -2, y: 1, z: 0}
    second:
      m_TileIndex: 3
      m_TileSpriteIndex: 3
      m_TileMatrixIndex: 0
      m_TileColorIndex: 0
      m_ObjectToInstantiate: {fileID: 0}
      m_TileFlags: 1
      m_ColliderType: 1
  - first: {x: -1, y: 1, z: 0}
    second:
      m_TileIndex: 4
      m_TileSpriteIndex: 4
      m_TileMatrixIndex: 0
      m_TileColorIndex: 0
      m_ObjectToInstantiate: {fileID: 0}
      m_TileFlags: 1
      m_ColliderType: 1
  - first: {x: -12, y: 2, z: 0}
    second:
      m_TileIndex: 10
      m_TileSpriteIndex: 10
      m_TileMatrixIndex: 0
      m_TileColorIndex: 0
      m_ObjectToInstantiate: {fileID: 0}
      m_TileFlags: 1
      m_ColliderType: 1
  - first: {x: -11, y: 2, z: 0}
    second:
      m_TileIndex: 11
      m_TileSpriteIndex: 11
      m_TileMatrixIndex: 0
      m_TileColorIndex: 0
      m_ObjectToInstantiate: {fileID: 0}
      m_TileFlags: 1
      m_ColliderType: 1
  - first: {x: -10, y: 2, z: 0}
    second:
      m_TileIndex: 12
      m_TileSpriteIndex: 12
      m_TileMatrixIndex: 0
      m_TileColorIndex: 0
      m_ObjectToInstantiate: {fileID: 0}
      m_TileFlags: 1
      m_ColliderType: 1
  - first: {x: -9, y: 2, z: 0}
    second:
      m_TileIndex: 13
      m_TileSpriteIndex: 13
      m_TileMatrixIndex: 0
      m_TileColorIndex: 0
      m_ObjectToInstantiate: {fileID: 0}
      m_TileFlags: 1
      m_ColliderType: 1
  - first: {x: -8, y: 2, z: 0}
    second:
      m_TileIndex: 14
      m_TileSpriteIndex: 14
      m_TileMatrixIndex: 0
      m_TileColorIndex: 0
      m_ObjectToInstantiate: {fileID: 0}
      m_TileFlags: 1
      m_ColliderType: 1
  m_AnimatedTiles: {}
  m_TileAssetArray:
  - m_RefCount: 1
    m_Data: {fileID: 11400000, guid: 6cc52fc3c1348c148812271bc8935ba4, type: 2}
  - m_RefCount: 1
    m_Data: {fileID: 11400000, guid: 3a4d9c6008ec9a14ba9f8c99c5a39671, type: 2}
  - m_RefCount: 1
    m_Data: {fileID: 11400000, guid: 29102bedbbf6bde4b8bf58ec51bb2bed, type: 2}
  - m_RefCount: 1
    m_Data: {fileID: 11400000, guid: ae7e637869f513b4da6cb11b899e81a7, type: 2}
  - m_RefCount: 1
    m_Data: {fileID: 11400000, guid: 3776d81b695613f43ae37fa4db4ec072, type: 2}
  - m_RefCount: 1
    m_Data: {fileID: 11400000, guid: ffec0421dc7f2ce4190b26a92fce57c7, type: 2}
  - m_RefCount: 1
    m_Data: {fileID: 11400000, guid: e1ddf0d69d31dc846ac4f0b4890e9806, type: 2}
  - m_RefCount: 1
    m_Data: {fileID: 11400000, guid: 186ea69e7eabe5643ba45e2a3c63d07e, type: 2}
  - m_RefCount: 1
    m_Data: {fileID: 11400000, guid: 032d0db49ae8df9478484f82b567c7f1, type: 2}
  - m_RefCount: 1
    m_Data: {fileID: 11400000, guid: bb0caf7ede7599e41aa942af958541cc, type: 2}
  - m_RefCount: 1
    m_Data: {fileID: 11400000, guid: 5a3850553cbc6044db76dac657e81fd5, type: 2}
  - m_RefCount: 1
    m_Data: {fileID: 11400000, guid: e77dd574cbc64424ab8446d8bf789a9c, type: 2}
  - m_RefCount: 1
    m_Data: {fileID: 11400000, guid: d6a58ebcdb6487a4aada170ae32721a9, type: 2}
  - m_RefCount: 1
    m_Data: {fileID: 11400000, guid: 987d596bfeb05af459343c3e21e2feec, type: 2}
  - m_RefCount: 1
    m_Data: {fileID: 11400000, guid: 96f7e21e59134a44bb94ad6b5b7d81c7, type: 2}
  - m_RefCount: 1
    m_Data: {fileID: 11400000, guid: 865d176e782671144b5312e8cb742206, type: 2}
  - m_RefCount: 1
    m_Data: {fileID: 11400000, guid: 4f9309f2aacb2b647992a18167452e36, type: 2}
  - m_RefCount: 1
    m_Data: {fileID: 11400000, guid: 143074abe1e8f1d40ae6c825c6902063, type: 2}
  - m_RefCount: 1
    m_Data: {fileID: 11400000, guid: d319badf0ab0a7445a19fdd5aea60818, type: 2}
  - m_RefCount: 1
    m_Data: {fileID: 11400000, guid: 8269bb041e0999941ba3c976b1202a50, type: 2}
  - m_RefCount: 1
    m_Data: {fileID: 11400000, guid: fe95e4842b7c1844ba904bc11ce64500, type: 2}
  - m_RefCount: 1
    m_Data: {fileID: 11400000, guid: afd194be5eb1da44a9db0e05ec49f730, type: 2}
  - m_RefCount: 1
    m_Data: {fileID: 11400000, guid: 61cb977f7d82a664bb458dc6ec126cde, type: 2}
  - m_RefCount: 1
    m_Data: {fileID: 11400000, guid: 931a1274fe878ea41b17a95ea733b71e, type: 2}
  - m_RefCount: 1
    m_Data: {fileID: 11400000, guid: 80e503c8470e7f1428a004b5993d51c1, type: 2}
  - m_RefCount: 1
    m_Data: {fileID: 11400000, guid: 22c931d91db3e444787082c7a2e01493, type: 2}
  - m_RefCount: 1
    m_Data: {fileID: 11400000, guid: 3a946cb6165913a48ad26effb4de61af, type: 2}
  - m_RefCount: 1
    m_Data: {fileID: 11400000, guid: 0e552ce5b48e77345aa3c68aaba6e4f3, type: 2}
  - m_RefCount: 1
    m_Data: {fileID: 11400000, guid: 0991fc2bac08cc14486af6e50f1e975e, type: 2}
  - m_RefCount: 1
    m_Data: {fileID: 11400000, guid: 40b19968a718b3643b443e72f7a1ab34, type: 2}
  - m_RefCount: 1
    m_Data: {fileID: 11400000, guid: d6bee09dc0b6b2749a9520ca277e424d, type: 2}
  - m_RefCount: 1
    m_Data: {fileID: 11400000, guid: 3683717328d7e8c41a95ddda5a6d2407, type: 2}
  - m_RefCount: 1
    m_Data: {fileID: 11400000, guid: 7fea58702b23f3f45ba94cd8c4547ecf, type: 2}
  - m_RefCount: 1
    m_Data: {fileID: 11400000, guid: f565ad97d422c9348a20a262c183f751, type: 2}
  - m_RefCount: 1
    m_Data: {fileID: 11400000, guid: 6209bbef6ef79eb449aeb303108daac5, type: 2}
  - m_RefCount: 1
    m_Data: {fileID: 11400000, guid: f7c33dee2a9d0344aa4da8a20c8bd2c3, type: 2}
  - m_RefCount: 1
    m_Data: {fileID: 11400000, guid: be3c54bd994d04d4d84f568a34f95454, type: 2}
  - m_RefCount: 1
    m_Data: {fileID: 11400000, guid: c89cd693ba1a7434ca19077be3d72439, type: 2}
  - m_RefCount: 1
    m_Data: {fileID: 11400000, guid: f05e987203739484d9fafdc43d586e95, type: 2}
  - m_RefCount: 1
    m_Data: {fileID: 11400000, guid: d86587f5d33b76846bfc1e1e2d933bb9, type: 2}
  - m_RefCount: 1
    m_Data: {fileID: 11400000, guid: 6f5f096361c4b424d8f2fbbcf46dfa67, type: 2}
  - m_RefCount: 1
    m_Data: {fileID: 11400000, guid: 81b0382a6068d1f4b92e6616cf8129be, type: 2}
  - m_RefCount: 1
    m_Data: {fileID: 11400000, guid: de2e69c2911e7d447a993f2166c5198f, type: 2}
  - m_RefCount: 1
    m_Data: {fileID: 11400000, guid: e701a21836bf3e049ad393abbaf2d6e5, type: 2}
  - m_RefCount: 1
    m_Data: {fileID: 11400000, guid: b1b6a97969639d9459b380f660997ee5, type: 2}
  - m_RefCount: 1
    m_Data: {fileID: 11400000, guid: da0f4645d892d414a85c782f3ae49316, type: 2}
  - m_RefCount: 1
    m_Data: {fileID: 11400000, guid: 70f4ff6c1201a7c4b846dcb22feec675, type: 2}
  - m_RefCount: 1
    m_Data: {fileID: 11400000, guid: be4c91e3c424d564f94dfc3abdc83d98, type: 2}
  - m_RefCount: 1
    m_Data: {fileID: 11400000, guid: dbcbe7ae8e38faa46be41ea7aca4db1b, type: 2}
  m_TileSpriteArray:
  - m_RefCount: 1
    m_Data: {fileID: 21300000, guid: d7bdf4881135ad64185d392cc5bd9fec, type: 3}
  - m_RefCount: 1
    m_Data: {fileID: 21300000, guid: 3c20e2daa87ed4147af96a12f1306b69, type: 3}
  - m_RefCount: 1
    m_Data: {fileID: 21300000, guid: cf6f4c56d3d61da4a90409c9fce0f07e, type: 3}
  - m_RefCount: 1
    m_Data: {fileID: 21300000, guid: fb614dd86cfcea6409ac35b4f982955d, type: 3}
  - m_RefCount: 1
    m_Data: {fileID: 21300000, guid: c1587b3b4b5bf3a4d831eb088a2a8dc2, type: 3}
  - m_RefCount: 1
    m_Data: {fileID: 21300000, guid: f200bf314cea53046bd0a37fdf9972b0, type: 3}
  - m_RefCount: 1
    m_Data: {fileID: 21300000, guid: c75ebef885d04f14baf1270109dbc63d, type: 3}
  - m_RefCount: 1
    m_Data: {fileID: 21300000, guid: 3e0def4cbe6993f44ba1068ad83d3793, type: 3}
  - m_RefCount: 1
    m_Data: {fileID: 21300000, guid: 06750a0a8434b2943bf684ae71be823d, type: 3}
  - m_RefCount: 1
    m_Data: {fileID: 21300000, guid: 8216aefd3ca8671488eecdcf5d8e849b, type: 3}
  - m_RefCount: 1
    m_Data: {fileID: 21300000, guid: 033ad40017451cf4cbe3bfe8c3994b96, type: 3}
  - m_RefCount: 1
    m_Data: {fileID: 21300000, guid: c110af6fc7849be49a5651d76d07fa95, type: 3}
  - m_RefCount: 1
    m_Data: {fileID: 21300000, guid: 8f6017220c334514cb5f99a44838f5e3, type: 3}
  - m_RefCount: 1
    m_Data: {fileID: 21300000, guid: 71277f43073dbc64f8ae4464ff964ac8, type: 3}
  - m_RefCount: 1
    m_Data: {fileID: 21300000, guid: 627eb3b12408c8d469a89d41f6425f44, type: 3}
  - m_RefCount: 1
    m_Data: {fileID: 21300000, guid: fae4ecfbaa5bb2b4c8e059e81362c1d2, type: 3}
  - m_RefCount: 1
    m_Data: {fileID: 21300000, guid: 4ce1f8278e9401248b553a803e6b35f5, type: 3}
  - m_RefCount: 1
    m_Data: {fileID: 21300000, guid: a24b32d8e63b7ea48880b7cdb295f8b3, type: 3}
  - m_RefCount: 1
    m_Data: {fileID: 21300000, guid: e09d132ebb5168f40b53a783cc696ffb, type: 3}
  - m_RefCount: 1
    m_Data: {fileID: 21300000, guid: 2427805fc41992f4c83eddc79df74040, type: 3}
  - m_RefCount: 1
    m_Data: {fileID: 21300000, guid: c8c0e8fe8fb68fb4bb3208b4938eea37, type: 3}
  - m_RefCount: 1
    m_Data: {fileID: 21300000, guid: 6e4de33322d356f48b817fb635c5d1fc, type: 3}
  - m_RefCount: 1
    m_Data: {fileID: 21300000, guid: 939a48db30164bb41a77d88005c7202e, type: 3}
  - m_RefCount: 1
    m_Data: {fileID: 21300000, guid: d5f03ba5f6a060e4c899792ca6862285, type: 3}
  - m_RefCount: 1
    m_Data: {fileID: 21300000, guid: 82e13a2198eb59340a3ddcf602367cc2, type: 3}
  - m_RefCount: 1
    m_Data: {fileID: 21300000, guid: e7f3873f6d3decd4187270c23344bd86, type: 3}
  - m_RefCount: 1
    m_Data: {fileID: 21300000, guid: 7209c88a1165c594088dfc87e085d2f6, type: 3}
  - m_RefCount: 1
    m_Data: {fileID: 21300000, guid: 43daec954923f1b40bfd3db405f91359, type: 3}
  - m_RefCount: 1
    m_Data: {fileID: 21300000, guid: 6f3d11c402a372e46b934b739f5d8e3e, type: 3}
  - m_RefCount: 1
    m_Data: {fileID: 21300000, guid: 51bd578cce3b756458dbe8351be5387c, type: 3}
  - m_RefCount: 1
    m_Data: {fileID: 21300000, guid: f4c0d9768c035254cb9c33a7fc8b1688, type: 3}
  - m_RefCount: 1
    m_Data: {fileID: 21300000, guid: 37f1e0e81cdf0054f9121e9d26ccec1b, type: 3}
  - m_RefCount: 1
    m_Data: {fileID: 21300000, guid: 9c95b0e8d7b857741a7c8e2c9c459f2a, type: 3}
  - m_RefCount: 1
    m_Data: {fileID: 21300000, guid: 40e4b434ccc654249b2e74b32d4d709f, type: 3}
  - m_RefCount: 1
    m_Data: {fileID: 21300000, guid: 41daa914220222945a1f1bbf8a57d82b, type: 3}
  - m_RefCount: 1
    m_Data: {fileID: 21300000, guid: f2b2c633c62f95448b8063e18046b456, type: 3}
  - m_RefCount: 1
    m_Data: {fileID: 21300000, guid: 673e44454bf2ce6449e20e2d07b33d3c, type: 3}
  - m_RefCount: 1
    m_Data: {fileID: 21300000, guid: 4e29eee09e9d35e489b4c12d1cd92cc8, type: 3}
  - m_RefCount: 1
    m_Data: {fileID: 21300000, guid: dd5526398a9382e42a1918f51cfcd32f, type: 3}
  - m_RefCount: 1
    m_Data: {fileID: 21300000, guid: 531180a415354f149ad603c8ca5f59d8, type: 3}
  - m_RefCount: 1
    m_Data: {fileID: 21300000, guid: fa32117d6fcd8eb44a1693d0b9e7f1d8, type: 3}
  - m_RefCount: 1
    m_Data: {fileID: 21300000, guid: d32137aca9e92534da0cd1b52748d3d7, type: 3}
  - m_RefCount: 1
    m_Data: {fileID: 21300000, guid: 2f6290142b26dd6489a385f0de15bab5, type: 3}
  - m_RefCount: 1
    m_Data: {fileID: 21300000, guid: f00600ecbf38e8f4f86b930b6ce5f8c9, type: 3}
  - m_RefCount: 1
    m_Data: {fileID: 21300000, guid: a98b1da874b660d45978ba2d187502f2, type: 3}
  - m_RefCount: 1
    m_Data: {fileID: 21300000, guid: 90ab6413f72817e4cb405d80c70b51e5, type: 3}
  - m_RefCount: 1
    m_Data: {fileID: 21300000, guid: abc84cac509290845bbb38b7b510457e, type: 3}
  - m_RefCount: 1
    m_Data: {fileID: 21300000, guid: b6641b9709882bf4181dd15f81649bb9, type: 3}
  - m_RefCount: 1
    m_Data: {fileID: 21300000, guid: a40828e042e8ec44886b13668cd0a030, type: 3}
  m_TileMatrixArray:
  - m_RefCount: 49
    m_Data:
      e00: 1
      e01: 0
      e02: 0
      e03: 0
      e10: 0
      e11: 1
      e12: 0
      e13: 0
      e20: 0
      e21: 0
      e22: 1
      e23: 0
      e30: 0
      e31: 0
      e32: 0
      e33: 1
  m_TileColorArray:
  - m_RefCount: 49
    m_Data: {r: 1, g: 1, b: 1, a: 1}
  m_AnimationFrameRate: 1
  m_Color: {r: 1, g: 1, b: 1, a: 1}
  m_Origin: {x: -12, y: -4, z: 0}
  m_Size: {x: 12, y: 7, z: 1}
  m_TileAnchor: {x: 0.5, y: 0.5, z: 0}
  m_TileOrientation: 0
  m_TileOrientationMatrix:
    e00: 1
    e01: 0
    e02: 0
    e03: 0
    e10: 0
    e11: 1
    e12: 0
    e13: 0
    e20: 0
    e21: 0
    e22: 1
    e23: 0
    e30: 0
    e31: 0
    e32: 0
    e33: 1
--- !u!483693784 &3664157345979934054
TilemapRenderer:
  m_ObjectHideFlags: 0
  m_CorrespondingSourceObject: {fileID: 0}
  m_PrefabInstance: {fileID: 0}
  m_PrefabAsset: {fileID: 0}
  m_GameObject: {fileID: 1530037279103856}
  m_Enabled: 0
  m_CastShadows: 0
  m_ReceiveShadows: 0
  m_DynamicOccludee: 0
  m_MotionVectors: 1
  m_LightProbeUsage: 0
  m_ReflectionProbeUsage: 0
  m_RenderingLayerMask: 1
  m_RendererPriority: 0
  m_Materials:
  - {fileID: 10754, guid: 0000000000000000f000000000000000, type: 0}
  m_StaticBatchInfo:
    firstSubMesh: 0
    subMeshCount: 0
  m_StaticBatchRoot: {fileID: 0}
  m_ProbeAnchor: {fileID: 0}
  m_LightProbeVolumeOverride: {fileID: 0}
  m_ScaleInLightmap: 1
  m_PreserveUVs: 0
  m_IgnoreNormalsForChartDetection: 0
  m_ImportantGI: 0
  m_StitchLightmapSeams: 0
  m_SelectedEditorRenderState: 0
  m_MinimumChartSize: 4
  m_AutoUVMaxDistance: 0.5
  m_AutoUVMaxAngle: 89
  m_LightmapParameters: {fileID: 0}
  m_SortingLayerID: 0
  m_SortingLayer: 0
  m_SortingOrder: 0
  m_ChunkSize: {x: 32, y: 32, z: 32}
  m_ChunkCullingBounds: {x: 0, y: 0, z: 0}
  m_MaxChunkCount: 16
  m_MaxFrameAge: 16
  m_SortOrder: 0
  m_Mode: 0
  m_DetectChunkCullingBounds: 0
  m_MaskInteraction: 0
--- !u!114 &114236194936213606
MonoBehaviour:
  m_ObjectHideFlags: 0
  m_CorrespondingSourceObject: {fileID: 0}
  m_PrefabInstance: {fileID: 0}
  m_PrefabAsset: {fileID: 0}
  m_GameObject: {fileID: 0}
  m_Enabled: 1
  m_EditorHideFlags: 1
  m_Script: {fileID: 12395, guid: 0000000000000000e000000000000000, type: 0}
  m_Name: Palette Settings
  m_EditorClassIdentifier: 
  cellSizing: 0
