{
"skeleton": {
	"hash": "6T4yHbXFp1XIEqJQA3NngWMOtwM",
	"spine": "3.8.76",
	"x": -75.02,
	"y": -31.34,
	"width": 228.85,
	"height": 390.18,
	"images": "./Images/",
	"audio": "D:/Projects/Unity/RoboMania/Assets/Resources/Art/Characters/Terrabot_Game_Player_Art_Pack/Spine"
},
"bones": [
	{ "name": "Root", "length": 0.66, "rotation": 0.11, "x": 5.7, "y": 119.67 },
	{ "name": "Torso", "parent": "Root", "length": 45.56, "rotation": 101.21, "x": 5.37, "y": 25.17 },
	{ "name": "Head", "parent": "Torso", "length": 116.33, "rotation": -7.98, "x": 55.62, "y": -2.01 },
	{ "name": "Left Upper Arm", "parent": "Torso", "length": 53.94, "rotation": -153.72, "x": 34.63, "y": -26.46 },
	{ "name": "Right Upper Leg", "parent": "Root", "length": 46.32, "rotation": -92.78, "x": -18.67, "y": -2.17 },
	{ "name": "Right Leg", "parent": "Right Upper Leg", "length": 56.67, "rotation": 8.23, "x": 46.67, "y": -0.68 },
	{ "name": "Right Foot", "parent": "Right Leg", "length": 47.27, "rotation": 76.8, "x": 57.27, "y": 1 },
	{ "name": "Left Upper Leg", "parent": "Root", "length": 45.14, "rotation": -81.89, "x": 8.34, "y": -7.14 },
	{ "name": "Left Leg", "parent": "Left Upper Leg", "length": 48.44, "rotation": 0.57, "x": 46.55, "y": 0.11 },
	{ "name": "Left Foot", "parent": "Left Leg", "length": 41.74, "rotation": 73.67, "x": 49.88, "y": 2.18 },
	{ "name": "Right Upper Arm", "parent": "Torso", "length": 51.22, "rotation": -175.98, "x": 40.2, "y": 38.74 },
	{ "name": "Right Forearm", "parent": "Right Upper Arm", "length": 168.26, "rotation": 50.09, "x": 53.39, "y": 0.06 },
	{ "name": "Fire Point", "parent": "Right Forearm", "rotation": -100.24, "x": 173.23, "y": 0.08 },
	{ "name": "Aiming Point", "parent": "Right Forearm", "rotation": -100.24, "x": 58.18, "y": 0.51 },
	{ "name": "Left Forearm + Hand", "parent": "Left Upper Arm", "length": 80.37, "rotation": 52.06, "x": 53.95, "y": 1.3 },
	{ "name": "Hand", "parent": "Right Forearm", "length": 32.6, "rotation": 4.94, "x": 62.77, "y": -13.07 }
],
"slots": [
	{ "name": "Left Forearm", "bone": "Left Forearm + Hand", "color": "1fb60095", "attachment": "Left Forearm" },
	{ "name": "Left Hand", "bone": "Left Forearm + Hand", "color": "1fb60095", "attachment": "Left Hand (Clenched)" },
	{ "name": "Left Upper Arm", "bone": "Left Upper Arm", "color": "1fb60095", "attachment": "Left Upper Arm" },
	{ "name": "Left Forearm (Wall-Sliding)", "bone": "Left Forearm + Hand", "color": "1fb60095", "attachment": "Left Forearm (Wall-Sliding)" },
	{ "name": "Left Jetboot Fire", "bone": "Left Foot", "color": "1fb60095", "attachment": "Jetboot Fire 1" },
	{ "name": "Left Foot", "bone": "Left Foot", "color": "1fb60095", "attachment": "Left Foot" },
	{ "name": "Left Upper Leg", "bone": "Left Upper Leg", "color": "1fb60095", "attachment": "Left Upper Leg" },
	{ "name": "Left Leg", "bone": "Left Leg", "color": "1fb60095", "attachment": "Left Leg" },
	{ "name": "Pelvis", "bone": "Root", "color": "1fb60095", "attachment": "Pelvis" },
	{ "name": "Torso + Neck", "bone": "Torso", "color": "1fb60095", "attachment": "Torso + Neck" },
	{ "name": "Head", "bone": "Head", "color": "1fb60095", "attachment": "Head" },
	{ "name": "Visible Eye", "bone": "Head", "color": "1fb60095", "attachment": "Open Eye" },
	{ "name": "Right Upper Leg", "bone": "Right Upper Leg", "color": "1fb60095", "attachment": "Right Upper Leg" },
	{ "name": "Right Jetboot Fire", "bone": "Right Foot", "color": "1eb60094", "attachment": "Jetboot Fire 1" },
	{ "name": "Right Foot", "bone": "Right Foot", "color": "1fb60095", "attachment": "Right Foot" },
	{ "name": "Right Leg", "bone": "Right Leg", "color": "1fb60095", "attachment": "Right Leg" },
	{ "name": "Right Upper Arm", "bone": "Right Upper Arm", "color": "1fb60095", "attachment": "Right Upper Arm" },
	{ "name": "Rifle", "bone": "Right Forearm", "color": "1fb60095", "attachment": "Gun" },
	{ "name": "Right Hand", "bone": "Hand", "color": "1fb60095", "attachment": "Right Hand" },
	{ "name": "Right Forearm", "bone": "Right Forearm", "color": "1fb60095", "attachment": "Right Forearm" },
	{ "name": "Right Forearm Laser Aimer", "bone": "Right Forearm", "color": "1fb60095", "attachment": "Right Forearm Laser Aimer" }
],
"skins": [
	{
		"name": "default",
		"attachments": {
			"Left Foot": {
				"Foot (Front)": { "path": "Right Facing/Running/Foot (Front)", "x": -6.37, "y": 1.77, "rotation": 7.64, "width": 57, "height": 41 }
			},
			"Left Hand": {
				"Left Hand (Clenched)": { "path": "Right Facing/Running/Left Hand (Clenched)", "x": 66.66, "y": -0.5, "rotation": 0.51, "width": 46, "height": 35 }
			},
			"Left Jetboot Fire": {
				"Jetboot Fire 1": {
					"x": -5.91,
					"y": -25.89,
					"scaleX": 0.38,
					"scaleY": 0.38,
					"rotation": -172.42,
					"width": 91,
					"height": 110
				},
				"Jetboot Fire 2": {
					"x": -4.94,
					"y": -32.94,
					"scaleX": 0.38,
					"scaleY": 0.38,
					"rotation": 187.53,
					"width": 91,
					"height": 179
				},
				"Jetboot Fire 3": {
					"x": -2.72,
					"y": -47.93,
					"scaleX": 0.38,
					"scaleY": 0.38,
					"rotation": 187.53,
					"width": 96,
					"height": 250
				},
				"Jetboot Fire 4": {
					"x": -0.48,
					"y": -48.62,
					"scaleX": 0.38,
					"scaleY": 0.38,
					"rotation": 187.53,
					"width": 107,
					"height": 271
				},
				"Jetboot Fire 5": {
					"x": -2.82,
					"y": -51.68,
					"scaleX": 0.38,
					"scaleY": 0.38,
					"rotation": 187.53,
					"width": 96,
					"height": 282
				}
			},
			"Left Leg": {
				"Leg (Front)": { "path": "Right Facing/Running/Leg (Front)", "x": 0.06, "y": 0.6, "rotation": 81.31, "width": 47, "height": 84 }
			},
			"Right Foot": {
				"Foot (Front)": { "path": "Right Facing/Running/Foot (Front)", "x": 0.64, "y": 0.56, "rotation": 7.76, "width": 57, "height": 41 }
			},
			"Right Jetboot Fire": {
				"Jetboot Fire 1": {
					"x": 0.24,
					"y": -24.87,
					"scaleX": 0.375,
					"scaleY": 0.375,
					"rotation": 187.64,
					"width": 91,
					"height": 110
				},
				"Jetboot Fire 2": {
					"x": 1.78,
					"y": -36.08,
					"scaleX": 0.38,
					"scaleY": 0.38,
					"rotation": 187.64,
					"width": 91,
					"height": 179
				},
				"Jetboot Fire 3": {
					"x": 3.37,
					"y": -48.82,
					"scaleX": 0.38,
					"scaleY": 0.38,
					"rotation": 187.64,
					"width": 96,
					"height": 250
				},
				"Jetboot Fire 4": {
					"x": 6.81,
					"y": -53.89,
					"scaleX": 0.38,
					"scaleY": 0.38,
					"rotation": 187.64,
					"width": 107,
					"height": 271
				},
				"Jetboot Fire 5": {
					"x": 5.41,
					"y": -57.04,
					"scaleX": 0.38,
					"scaleY": 0.38,
					"rotation": 187.64,
					"width": 96,
					"height": 282
				}
			},
			"Right Leg": {
				"Leg (Front)": { "path": "Right Facing/Running/Leg (Front)", "x": 8.45, "y": 2.5, "rotation": 84.55, "width": 47, "height": 84 }
			}
		}
	},
	{
		"name": "Right Facing",
		"attachments": {
			"Head": {
				"Head": { "path": "Right Facing/Running/Head", "x": 76.39, "y": -5, "rotation": -94.88, "width": 151, "height": 161 }
			},
			"Left Foot": {
				"Left Foot": {
					"name": "Foot (Side)",
					"path": "Right Facing/Running/Foot (Side)",
					"x": 8.85,
					"y": 7.9,
					"rotation": 6.19,
					"width": 100,
					"height": 47
				}
			},
			"Left Forearm": {
				"Left Forearm": { "path": "Right Facing/Running/Left Forearm", "x": 16.46, "y": 2.44, "rotation": -0.55, "width": 85, "height": 51 }
			},
			"Left Forearm (Wall-Sliding)": {
				"Left Forearm (Wall-Sliding)": { "path": "Right Facing/Running/Right Forearm", "x": 20.27, "y": 2.6, "rotation": 0.05, "width": 86, "height": 51 }
			},
			"Left Hand": {
				"Left Hand (Open)": { "path": "Right Facing/Running/Left Hand (Open)", "x": 68.77, "y": -1.38, "rotation": -0.6, "width": 49, "height": 34 },
				"Left Hand (Wall-Sliding)": {
					"path": "Right Facing/Running/Left Hand (Wall-Sliding)",
					"x": 76.2,
					"y": 4.29,
					"scaleX": -1,
					"scaleY": -1,
					"rotation": -177.17,
					"width": 47,
					"height": 35
				}
			},
			"Left Leg": {
				"Left Leg": {
					"name": "Leg (Side)",
					"path": "Right Facing/Running/Leg (Side)",
					"x": 5.53,
					"y": 6.9,
					"rotation": 79.86,
					"width": 56,
					"height": 85
				}
			},
			"Left Upper Arm": {
				"Left Upper Arm": {
					"name": "Link",
					"path": "Right Facing/Running/Link",
					"x": 25.23,
					"y": 0.43,
					"rotation": -179.65,
					"width": 70,
					"height": 15
				}
			},
			"Left Upper Leg": {
				"Left Upper Leg": {
					"name": "Link",
					"path": "Right Facing/Running/Link",
					"x": 25.08,
					"y": 0.23,
					"rotation": -178.46,
					"width": 70,
					"height": 15
				}
			},
			"Pelvis": {
				"Pelvis": { "path": "Right Facing/Running/Pelvis", "x": -8.84, "y": 12.49, "rotation": -1.45, "width": 65, "height": 66 }
			},
			"Rifle": {
				"Gun": {
					"name": "Rifle",
					"path": "Right Facing/Running/Rifle",
					"x": 97.75,
					"y": -3.36,
					"rotation": -9.33,
					"width": 150,
					"height": 85
				}
			},
			"Right Foot": {
				"Right Foot": {
					"name": "Foot (Side)",
					"path": "Right Facing/Running/Foot (Side)",
					"x": 14.89,
					"y": 9.13,
					"rotation": 6.3,
					"width": 100,
					"height": 47
				}
			},
			"Right Forearm": {
				"Right Forearm": {
					"path": "Right Facing/Running/Right Forearm",
					"x": 21.02,
					"y": -4.65,
					"scaleX": -1,
					"rotation": 169.21,
					"width": 86,
					"height": 51
				}
			},
			"Right Forearm Laser Aimer": {
				"Right Forearm Laser Aimer": { "path": "Right Facing/Running/Right Forearm Laser Aimer", "x": 19.67, "y": -4.18, "rotation": -9.89, "width": 89, "height": 63 }
			},
			"Right Hand": {
				"Right Hand": { "path": "Right Facing/Running/Right Hand", "x": 11.29, "y": -5.15, "rotation": -17.84, "width": 44, "height": 32 }
			},
			"Right Leg": {
				"Right Leg": {
					"name": "Leg (Side)",
					"path": "Right Facing/Running/Leg (Side)",
					"x": 11.37,
					"y": 8.52,
					"rotation": 83.1,
					"width": 56,
					"height": 85
				}
			},
			"Right Upper Arm": {
				"Right Upper Arm": {
					"name": "Link",
					"path": "Right Facing/Running/Link",
					"x": 29.69,
					"y": 2.32,
					"rotation": 3.73,
					"width": 70,
					"height": 15
				}
			},
			"Right Upper Leg": {
				"Right Upper Leg": {
					"name": "Link",
					"path": "Right Facing/Running/Link",
					"x": 28.88,
					"y": 0.6,
					"rotation": 179.33,
					"width": 70,
					"height": 15
				}
			},
			"Torso + Neck": {
				"Torso + Neck": { "path": "Right Facing/Running/Torso + Neck", "x": 53.86, "y": 4.15, "rotation": -102.66, "width": 94, "height": 108 }
			},
			"Visible Eye": {
				"Open Eye": {
					"name": "Right Eye",
					"path": "Right Facing/Running/Right Eye (Open)",
					"x": 47.03,
					"y": -31.66,
					"rotation": -94.68,
					"width": 31,
					"height": 16
				},
				"Stunned Eye 1": {
					"name": "Right Eye (Stunned 1)",
					"path": "Right Facing/Running/Right Eye (Stunned 1)",
					"x": 47.2,
					"y": -29.96,
					"rotation": -94.74,
					"width": 32,
					"height": 10
				},
				"Stunned Eye 2": {
					"name": "Right Eye (Stunned 2)",
					"path": "Right Facing/Running/Right Eye (Stunned 2)",
					"x": 45.8,
					"y": -31.15,
					"rotation": -94.74,
					"width": 30,
					"height": 11
				}
			}
		}
	}
],
"animations": {
	"Death (Air)": {
		"slots": {
			"Left Forearm (Wall-Sliding)": {
				"attachment": [
					{ "name": null }
				]
			},
			"Left Jetboot Fire": {
				"attachment": [
					{ "name": null }
				]
			},
			"Right Jetboot Fire": {
				"attachment": [
					{ "name": null }
				]
			},
			"Visible Eye": {
				"attachment": [
					{ "name": "Stunned Eye 2" },
					{ "time": 0.1, "name": "Stunned Eye 1" },
					{ "time": 0.2, "name": "Stunned Eye 2" },
					{ "time": 0.3, "name": "Stunned Eye 1" },
					{ "time": 0.4, "name": "Stunned Eye 2" },
					{ "time": 0.5, "name": "Stunned Eye 1" },
					{ "time": 0.5333, "name": null }
				]
			}
		},
		"bones": {
			"Left Upper Leg": {
				"rotate": [
					{ "angle": 16.06 },
					{ "time": 0.5, "angle": 31.77, "curve": "stepped" },
					{ "time": 1, "angle": 31.77 },
					{ "time": 1.0667, "angle": 14.71 },
					{ "time": 1.3333, "angle": -11.74 }
				]
			},
			"Left Leg": {
				"rotate": [
					{ "angle": -28.52 },
					{ "time": 0.5, "angle": -102.93, "curve": "stepped" },
					{ "time": 1, "angle": -102.93 },
					{ "time": 1.0667, "angle": -71.29 },
					{ "time": 1.3333, "angle": -17.6 }
				]
			},
			"Right Upper Leg": {
				"rotate": [
					{ "angle": -15.11 },
					{ "time": 0.5, "angle": 15.98, "curve": "stepped" },
					{ "time": 1.0667, "angle": 15.98 },
					{ "time": 1.3333, "angle": -5.62 }
				]
			},
			"Right Leg": {
				"rotate": [
					{ "angle": -14.12 },
					{ "time": 0.5, "angle": -92.55, "curve": "stepped" },
					{ "time": 1, "angle": -92.55 },
					{ "time": 1.0667, "angle": -63.31 },
					{ "time": 1.3333, "angle": -7.85 }
				]
			},
			"Head": {
				"rotate": [
					{ "angle": -26.53 },
					{ "time": 0.5, "angle": 21.21, "curve": "stepped" },
					{ "time": 1, "angle": 21.21 },
					{ "time": 1.2, "angle": -5.59 }
				]
			},
			"Left Upper Arm": {
				"rotate": [
					{ "angle": 74.97 },
					{ "time": 0.5, "angle": -62.06 }
				]
			},
			"Right Upper Arm": {
				"rotate": [
					{ "angle": 53.25 },
					{ "time": 0.5, "angle": -61.22, "curve": "stepped" },
					{ "time": 0.8333, "angle": -61.22 },
					{ "time": 1.2, "angle": -16.37 }
				]
			},
			"Root": {
				"rotate": [
					{},
					{ "time": 0.5, "angle": 96.18 }
				],
				"translate": [
					{},
					{ "time": 0.5, "y": 62.7, "curve": "stepped" },
					{ "time": 0.8333, "y": 62.7 },
					{ "time": 1.2, "y": -57.1 }
				]
			},
			"Torso": {
				"rotate": [
					{},
					{ "time": 0.5, "angle": 13.53, "curve": "stepped" },
					{ "time": 0.8333, "angle": 13.53 },
					{ "time": 1.2, "angle": -2.8 }
				]
			},
			"Left Forearm + Hand": {
				"rotate": [
					{},
					{ "time": 0.5, "angle": -18.11 }
				]
			},
			"Right Forearm": {
				"rotate": [
					{},
					{ "time": 0.5, "angle": -9.04, "curve": "stepped" },
					{ "time": 0.8333, "angle": -9.04 },
					{ "time": 1.2, "angle": -38.41 }
				]
			},
			"Right Foot": {
				"rotate": [
					{ "angle": -23.55 }
				]
			},
			"Left Foot": {
				"rotate": [
					{ "angle": -23.8 }
				]
			}
		}
	},
	"Death (Air - Land)": {
		"slots": {
			"Left Forearm (Wall-Sliding)": {
				"attachment": [
					{ "name": null }
				]
			},
			"Left Jetboot Fire": {
				"attachment": [
					{ "name": null }
				]
			},
			"Right Jetboot Fire": {
				"attachment": [
					{ "name": null }
				]
			},
			"Visible Eye": {
				"attachment": [
					{ "name": null }
				]
			}
		},
		"bones": {
			"Left Upper Leg": {
				"rotate": [
					{ "angle": 31.77, "curve": "stepped" },
					{ "time": 0.1667, "angle": 31.77 },
					{ "time": 0.2333, "angle": 14.71 },
					{ "time": 0.5, "angle": -11.74 }
				]
			},
			"Left Leg": {
				"rotate": [
					{ "angle": -102.93, "curve": "stepped" },
					{ "time": 0.1667, "angle": -102.93 },
					{ "time": 0.2333, "angle": -71.29 },
					{ "time": 0.5, "angle": -17.6 }
				]
			},
			"Right Upper Leg": {
				"rotate": [
					{ "angle": 15.98, "curve": "stepped" },
					{ "time": 0.2333, "angle": 15.98 },
					{ "time": 0.5, "angle": -5.62 }
				]
			},
			"Right Leg": {
				"rotate": [
					{ "angle": -92.55, "curve": "stepped" },
					{ "time": 0.1667, "angle": -92.55 },
					{ "time": 0.2333, "angle": -63.31 },
					{ "time": 0.5, "angle": -7.85 }
				]
			},
			"Head": {
				"rotate": [
					{ "angle": 21.21, "curve": "stepped" },
					{ "time": 0.1667, "angle": 21.21 },
					{ "time": 0.3667, "angle": -5.59 }
				]
			},
			"Left Upper Arm": {
				"rotate": [
					{ "angle": -62.06 }
				]
			},
			"Right Upper Arm": {
				"rotate": [
					{ "angle": -61.22 },
					{ "time": 0.3667, "angle": -16.37 }
				]
			},
			"Root": {
				"rotate": [
					{ "angle": 96.18 }
				],
				"translate": [
					{ "y": 62.7 },
					{ "time": 0.3667, "y": -57.1 }
				]
			},
			"Torso": {
				"rotate": [
					{ "angle": 13.53 },
					{ "time": 0.3667, "angle": -2.8 }
				]
			},
			"Left Forearm + Hand": {
				"rotate": [
					{ "angle": -18.11 }
				]
			},
			"Right Forearm": {
				"rotate": [
					{ "angle": -9.04 },
					{ "time": 0.3667, "angle": -38.41 }
				]
			}
		}
	},
	"Death (Air - Launch)": {
		"slots": {
			"Left Forearm (Wall-Sliding)": {
				"attachment": [
					{ "name": null }
				]
			},
			"Left Jetboot Fire": {
				"attachment": [
					{ "name": null }
				]
			},
			"Right Jetboot Fire": {
				"attachment": [
					{ "name": null }
				]
			},
			"Visible Eye": {
				"attachment": [
					{ "name": "Stunned Eye 1" },
					{ "time": 0.1, "name": "Stunned Eye 2" },
					{ "time": 0.2, "name": "Stunned Eye 1" },
					{ "time": 0.3, "name": "Stunned Eye 2" },
					{ "time": 0.4, "name": "Stunned Eye 1" },
					{ "time": 0.5, "name": "Stunned Eye 2" },
					{ "time": 0.5333, "name": null }
				]
			}
		},
		"bones": {
			"Left Upper Leg": {
				"rotate": [
					{ "angle": 16.06 },
					{ "time": 0.5, "angle": 31.77 }
				]
			},
			"Left Leg": {
				"rotate": [
					{ "angle": -28.52 },
					{ "time": 0.5, "angle": -102.93 }
				]
			},
			"Left Foot": {
				"rotate": [
					{ "angle": -23.8 }
				]
			},
			"Right Upper Leg": {
				"rotate": [
					{ "angle": -15.11 },
					{ "time": 0.5, "angle": 15.98 }
				]
			},
			"Right Leg": {
				"rotate": [
					{ "angle": -14.12 },
					{ "time": 0.5, "angle": -92.55 }
				]
			},
			"Right Foot": {
				"rotate": [
					{ "angle": -23.55 }
				]
			},
			"Head": {
				"rotate": [
					{ "angle": -26.53 },
					{ "time": 0.5, "angle": 21.21 }
				]
			},
			"Left Upper Arm": {
				"rotate": [
					{ "angle": 74.97 },
					{ "time": 0.5, "angle": -62.06 }
				]
			},
			"Right Upper Arm": {
				"rotate": [
					{ "angle": 53.25 },
					{ "time": 0.5, "angle": -61.22 }
				]
			},
			"Root": {
				"rotate": [
					{},
					{ "time": 0.5, "angle": 96.18 }
				],
				"translate": [
					{},
					{ "time": 0.5, "y": 62.7 }
				]
			},
			"Torso": {
				"rotate": [
					{},
					{ "time": 0.5, "angle": 13.53 }
				]
			},
			"Left Forearm + Hand": {
				"rotate": [
					{},
					{ "time": 0.5, "angle": -18.11 }
				]
			},
			"Right Forearm": {
				"rotate": [
					{},
					{ "time": 0.5, "angle": -9.04 }
				]
			}
		}
	},
	"Death (Ground)": {
		"slots": {
			"Left Forearm (Wall-Sliding)": {
				"attachment": [
					{ "name": null }
				]
			},
			"Left Jetboot Fire": {
				"attachment": [
					{ "name": null }
				]
			},
			"Right Jetboot Fire": {
				"attachment": [
					{ "name": null }
				]
			},
			"Visible Eye": {
				"attachment": [
					{ "name": "Stunned Eye 2" },
					{ "time": 0.1, "name": "Stunned Eye 1" },
					{ "time": 0.2, "name": "Stunned Eye 2" },
					{ "time": 0.3, "name": "Stunned Eye 1" },
					{ "time": 0.4, "name": "Stunned Eye 2" },
					{ "time": 0.5, "name": "Stunned Eye 1" },
					{ "time": 0.6, "name": "Stunned Eye 2" },
					{ "time": 0.7, "name": "Stunned Eye 1" },
					{ "time": 0.8, "name": "Stunned Eye 2" },
					{ "time": 0.9, "name": "Stunned Eye 1" },
					{ "time": 1, "name": "Stunned Eye 2" },
					{ "time": 1.1, "name": null }
				]
			}
		},
		"bones": {
			"Right Upper Leg": {
				"rotate": [
					{ "time": 1.4667 },
					{ "time": 1.7, "angle": -33.55 },
					{ "time": 1.8333, "angle": -25.7 }
				]
			},
			"Right Leg": {
				"rotate": [
					{},
					{ "time": 0.6667, "angle": -85.92, "curve": "stepped" },
					{ "time": 1.4667, "angle": -85.92 },
					{ "time": 1.7, "angle": -33.3 },
					{ "time": 1.8333, "angle": -10.44 }
				]
			},
			"Right Foot": {
				"rotate": [
					{},
					{ "time": 0.6667, "angle": -31.24 },
					{ "time": 1.8333, "angle": -23.55 }
				]
			},
			"Left Upper Leg": {
				"rotate": [
					{},
					{ "time": 0.1667, "angle": 29.95 },
					{ "time": 0.6667, "angle": 58.99, "curve": "stepped" },
					{ "time": 1.3333, "angle": 58.99 },
					{ "time": 1.6, "angle": -29.38 },
					{ "time": 1.8333, "angle": -43.92 }
				]
			},
			"Left Leg": {
				"rotate": [
					{},
					{ "time": 0.1667, "angle": -27.83 },
					{ "time": 0.6667, "angle": -50.44, "curve": "stepped" },
					{ "time": 1.3333, "angle": -50.44 },
					{ "time": 1.8333, "angle": -10.71 }
				]
			},
			"Left Foot": {
				"rotate": [
					{ "time": 0.1667 },
					{ "time": 0.6667, "angle": 3.53, "curve": "stepped" },
					{ "time": 1.3333, "angle": 3.53 },
					{ "time": 1.6, "angle": -9.49 },
					{ "time": 1.8333, "angle": -4.67 }
				]
			},
			"Root": {
				"rotate": [
					{},
					{ "time": 0.6667, "angle": -9.45, "curve": "stepped" },
					{ "time": 1.3333, "angle": -9.45 },
					{ "time": 1.8333, "angle": -64.3 }
				],
				"translate": [
					{},
					{ "time": 0.6667, "y": -30.32, "curve": "stepped" },
					{ "time": 1.3333, "y": -30.32 },
					{ "time": 1.8333, "y": -88.21 }
				]
			},
			"Torso": {
				"rotate": [
					{},
					{ "time": 0.6667, "angle": -13.44 }
				]
			},
			"Left Forearm + Hand": {
				"rotate": [
					{},
					{ "time": 0.6667, "angle": -37.5 }
				]
			},
			"Left Upper Arm": {
				"rotate": [
					{},
					{ "time": 0.6667, "angle": -11.04, "curve": "stepped" },
					{ "time": 1.3333, "angle": -11.04 },
					{ "time": 1.8333, "angle": -56.66 }
				]
			},
			"Right Upper Arm": {
				"rotate": [
					{},
					{ "time": 0.6667, "angle": 33.92 },
					{ "time": 1, "angle": 60.78, "curve": "stepped" },
					{ "time": 1.3333, "angle": 60.78 },
					{ "time": 1.8333, "angle": 100.09 }
				]
			},
			"Right Forearm": {
				"rotate": [
					{},
					{ "time": 0.6667, "angle": 21.31 },
					{ "time": 1, "angle": -5.29 }
				]
			}
		}
	},
	"Enter Ship (Ground)": {
		"slots": {
			"Left Forearm (Wall-Sliding)": {
				"attachment": [
					{ "name": null }
				]
			},
			"Left Jetboot Fire": {
				"attachment": [
					{ "name": null }
				]
			},
			"Right Jetboot Fire": {
				"attachment": [
					{ "name": null }
				]
			}
		},
		"bones": {
			"Head": {
				"rotate": [
					{},
					{ "time": 0.3333, "angle": 37.26 }
				]
			},
			"Right Upper Arm": {
				"rotate": [
					{ "angle": -21.98 }
				]
			},
			"Left Upper Arm": {
				"rotate": [
					{},
					{ "time": 0.3333, "angle": -39.71 }
				]
			},
			"Right Forearm": {
				"rotate": [
					{},
					{ "time": 0.3333, "angle": -32.16 }
				]
			},
			"Root": {
				"translate": [
					{ "time": 0.3333 },
					{ "time": 1, "y": 154.12 }
				]
			},
			"Left Foot": {
				"rotate": [
					{ "time": 0.5667 },
					{ "time": 0.7667, "angle": -23.07 }
				]
			},
			"Right Foot": {
				"rotate": [
					{ "time": 0.4667 },
					{ "time": 0.6667, "angle": -19.54 }
				]
			},
			"Left Forearm + Hand": {
				"rotate": [
					{},
					{ "time": 0.3333, "angle": -43.7 }
				]
			},
			"Left Upper Leg": {
				"rotate": [
					{ "time": 0.3333 },
					{ "time": 0.6667, "angle": 8.22 }
				]
			},
			"Left Leg": {
				"rotate": [
					{ "time": 0.3333 },
					{ "time": 0.6667, "angle": -12.35 }
				]
			},
			"Right Upper Leg": {
				"rotate": [
					{ "time": 0.3333 },
					{ "time": 0.6667, "angle": -5.37 }
				]
			},
			"Right Leg": {
				"rotate": [
					{ "time": 0.3333 },
					{ "time": 0.6667, "angle": -16.19 }
				]
			}
		}
	},
	"Fall": {
		"slots": {
			"Left Forearm (Wall-Sliding)": {
				"attachment": [
					{ "name": null }
				]
			},
			"Left Jetboot Fire": {
				"attachment": [
					{ "name": null }
				]
			},
			"Right Jetboot Fire": {
				"attachment": [
					{ "name": null }
				]
			}
		},
		"bones": {
			"Right Foot": {
				"rotate": [
					{ "angle": 2.12 },
					{ "time": 0.2667, "angle": -23.55 }
				]
			},
			"Left Upper Leg": {
				"rotate": [
					{ "angle": 44.49 },
					{ "time": 0.4, "angle": 16.06 }
				]
			},
			"Left Leg": {
				"rotate": [
					{ "angle": -28.52 }
				]
			},
			"Right Upper Leg": {
				"rotate": [
					{ "angle": -2.19 },
					{ "time": 0.2667, "angle": -15.11 }
				]
			},
			"Right Forearm": {
				"rotate": [
					{ "angle": -27.34 },
					{ "time": 0.5 }
				]
			},
			"Right Leg": {
				"rotate": [
					{ "angle": -2.38 },
					{ "time": 0.2667, "angle": -14.12 }
				]
			},
			"Root": {
				"translate": [
					{ "y": 30.33 },
					{ "time": 0.5 }
				]
			},
			"Left Upper Arm": {
				"rotate": [
					{ "angle": -37.89 },
					{ "time": 0.5, "angle": 74.97 }
				]
			},
			"Left Foot": {
				"rotate": [
					{ "angle": -23.8 }
				]
			},
			"Right Upper Arm": {
				"rotate": [
					{ "angle": -39.59 },
					{ "time": 0.5, "angle": 53.25 }
				]
			},
			"Torso": {
				"rotate": [
					{ "angle": 10.28 },
					{ "time": 0.5, "angle": -15.16 }
				]
			},
			"Left Forearm + Hand": {
				"rotate": [
					{ "angle": -34.18 },
					{ "time": 0.5 }
				]
			},
			"Head": {
				"rotate": [
					{ "angle": 18.78 },
					{ "time": 0.5, "angle": -26.53 }
				]
			}
		}
	},
	"Fall (Everything Else)": {
		"slots": {
			"Left Forearm (Wall-Sliding)": {
				"attachment": [
					{ "name": null }
				]
			},
			"Left Jetboot Fire": {
				"attachment": [
					{ "name": null }
				]
			},
			"Right Jetboot Fire": {
				"attachment": [
					{ "name": null }
				]
			}
		},
		"bones": {
			"Right Foot": {
				"rotate": [
					{ "angle": 2.12 },
					{ "time": 0.2667, "angle": -23.55 }
				]
			},
			"Left Upper Leg": {
				"rotate": [
					{ "angle": 44.49 },
					{ "time": 0.4, "angle": 16.06 }
				]
			},
			"Left Leg": {
				"rotate": [
					{ "angle": -28.52 }
				]
			},
			"Right Upper Leg": {
				"rotate": [
					{ "angle": -2.19 },
					{ "time": 0.2667, "angle": -15.11 }
				]
			},
			"Right Leg": {
				"rotate": [
					{ "angle": -2.38 },
					{ "time": 0.2667, "angle": -14.12 }
				]
			},
			"Root": {
				"translate": [
					{ "y": 30.33 },
					{ "time": 0.5 }
				]
			},
			"Left Upper Arm": {
				"rotate": [
					{ "angle": -37.89 },
					{ "time": 0.5, "angle": 74.97 }
				]
			},
			"Left Foot": {
				"rotate": [
					{ "angle": -23.8 }
				]
			},
			"Torso": {
				"rotate": [
					{ "angle": 10.28 },
					{ "time": 0.5, "angle": -15.16 }
				]
			},
			"Left Forearm + Hand": {
				"rotate": [
					{ "angle": -34.18 },
					{ "time": 0.5 }
				]
			}
		}
	},
	"Fall (Right Arm + Head)": {
		"slots": {
			"Left Forearm (Wall-Sliding)": {
				"attachment": [
					{ "name": null }
				]
			},
			"Left Jetboot Fire": {
				"attachment": [
					{ "name": null }
				]
			},
			"Right Jetboot Fire": {
				"attachment": [
					{ "name": null }
				]
			}
		},
		"bones": {
			"Right Forearm": {
				"rotate": [
					{ "angle": -27.34 },
					{ "time": 0.5 }
				]
			},
			"Right Upper Arm": {
				"rotate": [
					{ "angle": -39.59 },
					{ "time": 0.5, "angle": 53.25 }
				]
			},
			"Head": {
				"rotate": [
					{ "angle": 18.78 },
					{ "time": 0.5, "angle": -26.53 }
				]
			}
		}
	},
	"Fire": {
		"slots": {
			"Left Forearm (Wall-Sliding)": {
				"attachment": [
					{ "name": null }
				]
			},
			"Left Jetboot Fire": {
				"attachment": [
					{ "name": null }
				]
			},
			"Right Jetboot Fire": {
				"attachment": [
					{ "name": null }
				]
			}
		},
		"bones": {
			"Hand": {
				"rotate": [
					{},
					{ "time": 0.1, "angle": -12.48 },
					{ "time": 0.3333 }
				],
				"shear": [
					{},
					{ "time": 0.1, "x": 20 },
					{ "time": 0.3333 }
				]
			},
			"Right Upper Arm": {
				"rotate": [
					{ "angle": 9 },
					{ "time": 0.5, "angle": -17.61 },
					{ "time": 1, "angle": 9 }
				]
			}
		}
	},
	"Fire (Unscaled)": {
		"slots": {
			"Left Forearm (Wall-Sliding)": {
				"attachment": [
					{ "name": null }
				]
			},
			"Left Jetboot Fire": {
				"attachment": [
					{ "name": null }
				]
			},
			"Right Jetboot Fire": {
				"attachment": [
					{ "name": null }
				]
			}
		},
		"bones": {
			"Hand": {
				"rotate": [
					{},
					{ "time": 0.0333, "angle": -12.48 },
					{ "time": 0.1 }
				],
				"shear": [
					{},
					{ "time": 0.0333, "x": 20 },
					{ "time": 0.1 }
				]
			},
			"Right Upper Arm": {
				"rotate": [
					{ "angle": 9 },
					{ "time": 0.1667, "angle": -17.61 },
					{ "time": 0.3333, "angle": 9 }
				]
			},
			"Right Forearm": {
				"rotate": [
					{ "angle": 54.53 },
					{ "time": 0.1667, "angle": 82.13 },
					{ "time": 0.3333, "angle": 54.53 }
				]
			}
		}
	},
	"Hover": {
		"slots": {
			"Left Forearm (Wall-Sliding)": {
				"attachment": [
					{ "name": null }
				]
			},
			"Left Jetboot Fire": {
				"attachment": [
					{ "name": "Jetboot Fire 5" },
					{ "time": 0.0667, "name": "Jetboot Fire 4" },
					{ "time": 0.1333, "name": "Jetboot Fire 3" },
					{ "time": 0.2, "name": "Jetboot Fire 4" },
					{ "time": 0.2667, "name": "Jetboot Fire 5" },
					{ "time": 0.3333, "name": "Jetboot Fire 4" },
					{ "time": 0.4, "name": "Jetboot Fire 3" },
					{ "time": 0.4667, "name": "Jetboot Fire 4" },
					{ "time": 0.5333, "name": "Jetboot Fire 5" },
					{ "time": 0.6, "name": "Jetboot Fire 4" },
					{ "time": 0.6667, "name": "Jetboot Fire 3" },
					{ "time": 0.7333, "name": "Jetboot Fire 4" },
					{ "time": 0.8, "name": "Jetboot Fire 5" },
					{ "time": 0.8667, "name": "Jetboot Fire 4" },
					{ "time": 0.9333, "name": "Jetboot Fire 3" },
					{ "time": 1, "name": "Jetboot Fire 5" }
				]
			},
			"Right Jetboot Fire": {
				"attachment": [
					{ "name": "Jetboot Fire 5" },
					{ "time": 0.0667, "name": "Jetboot Fire 4" },
					{ "time": 0.1333, "name": "Jetboot Fire 3" },
					{ "time": 0.2, "name": "Jetboot Fire 5" },
					{ "time": 0.2667, "name": "Jetboot Fire 4" },
					{ "time": 0.3333, "name": "Jetboot Fire 3" },
					{ "time": 0.4, "name": "Jetboot Fire 4" },
					{ "time": 0.4667, "name": "Jetboot Fire 5" },
					{ "time": 0.5333, "name": "Jetboot Fire 4" },
					{ "time": 0.6, "name": "Jetboot Fire 3" },
					{ "time": 0.6667, "name": "Jetboot Fire 5" },
					{ "time": 0.7333, "name": "Jetboot Fire 4" },
					{ "time": 0.8, "name": "Jetboot Fire 3" },
					{ "time": 0.8667, "name": "Jetboot Fire 5" },
					{ "time": 0.9333, "name": "Jetboot Fire 4" },
					{ "time": 0.9667, "name": "Jetboot Fire 5" }
				]
			}
		},
		"bones": {
			"Left Forearm + Hand": {
				"rotate": [
					{ "angle": -43.35 },
					{ "time": 0.3333, "angle": -59.09 },
					{ "time": 0.8333, "angle": -27.78 },
					{ "time": 1, "angle": -43.35 }
				]
			},
			"Right Foot": {
				"rotate": [
					{ "angle": 1.61 },
					{ "time": 0.3333, "angle": 12.47 },
					{ "time": 0.6667, "angle": -11.97 },
					{ "time": 1, "angle": 1.61 }
				]
			},
			"Left Upper Leg": {
				"rotate": [
					{ "angle": 3.97 },
					{ "time": 0.1667, "angle": -10.25 },
					{ "time": 0.5, "angle": -21.35 },
					{ "time": 0.9, "angle": 12.46 },
					{ "time": 1, "angle": 3.97 }
				]
			},
			"Left Leg": {
				"rotate": [
					{ "angle": -4.89 },
					{ "time": 0.3333, "angle": 3.27 },
					{ "time": 0.6667, "angle": -14.89 },
					{ "time": 1, "angle": -4.89 }
				]
			},
			"Right Upper Leg": {
				"rotate": [
					{ "angle": -1.11 },
					{ "time": 0.1667, "angle": 6.37 },
					{ "time": 0.5, "angle": -9.36 },
					{ "time": 0.8333, "angle": 11.21 },
					{ "time": 1, "angle": -1.11 }
				]
			},
			"Right Forearm": {
				"rotate": [
					{ "angle": -20.99 },
					{ "time": 0.5, "angle": -4.44 },
					{ "time": 1, "angle": -20.99 }
				]
			},
			"Torso": {
				"rotate": [
					{ "angle": -15.16 }
				]
			},
			"Right Leg": {
				"rotate": [
					{ "angle": -15.92 },
					{ "time": 0.3333, "angle": -21.02 },
					{ "time": 0.5, "angle": -25.7 },
					{ "time": 0.6667, "angle": -11.88 },
					{ "time": 1, "angle": -15.92 }
				]
			},
			"Root": {
				"rotate": [
					{},
					{ "time": 0.1667, "angle": -2.61 },
					{ "time": 0.5, "angle": 2.39 },
					{ "time": 0.6667, "angle": 4.89 },
					{ "time": 1 }
				],
				"translate": [
					{},
					{ "time": 0.1667, "y": 16 },
					{ "time": 0.5, "y": -9 },
					{ "time": 0.8333, "y": 11 },
					{ "time": 1 }
				]
			},
			"Left Upper Arm": {
				"rotate": [
					{ "angle": -18.17 },
					{ "time": 0.3333, "angle": -6.68 },
					{ "time": 0.8333, "angle": -28.63 },
					{ "time": 1, "angle": -18.17 }
				]
			},
			"Left Foot": {
				"rotate": [
					{ "angle": -2.29 },
					{ "time": 0.3333, "angle": -15.81 },
					{ "time": 0.6667, "angle": 7.73 },
					{ "time": 1, "angle": -2.29 }
				]
			},
			"Right Upper Arm": {
				"rotate": [
					{ "angle": 25.58 },
					{ "time": 0.5, "angle": 28.89 },
					{ "time": 1, "angle": 25.58 }
				]
			},
			"Head": {
				"rotate": [
					{ "angle": 4.38 },
					{ "time": 0.5, "angle": -9.62 },
					{ "time": 1, "angle": 4.38 }
				]
			}
		}
	},
	"Hover (Everything Else)": {
		"slots": {
			"Left Forearm (Wall-Sliding)": {
				"attachment": [
					{ "name": null }
				]
			},
			"Left Jetboot Fire": {
				"attachment": [
					{ "name": "Jetboot Fire 5" },
					{ "time": 0.0667, "name": "Jetboot Fire 4" },
					{ "time": 0.1333, "name": "Jetboot Fire 3" },
					{ "time": 0.2, "name": "Jetboot Fire 4" },
					{ "time": 0.2667, "name": "Jetboot Fire 5" },
					{ "time": 0.3333, "name": "Jetboot Fire 4" },
					{ "time": 0.4, "name": "Jetboot Fire 3" },
					{ "time": 0.4667, "name": "Jetboot Fire 4" },
					{ "time": 0.5333, "name": "Jetboot Fire 5" },
					{ "time": 0.6, "name": "Jetboot Fire 4" },
					{ "time": 0.6667, "name": "Jetboot Fire 3" },
					{ "time": 0.7333, "name": "Jetboot Fire 4" },
					{ "time": 0.8, "name": "Jetboot Fire 5" },
					{ "time": 0.8667, "name": "Jetboot Fire 4" },
					{ "time": 0.9333, "name": "Jetboot Fire 3" },
					{ "time": 1, "name": "Jetboot Fire 5" }
				]
			},
			"Right Jetboot Fire": {
				"attachment": [
					{ "name": "Jetboot Fire 5" },
					{ "time": 0.0667, "name": "Jetboot Fire 4" },
					{ "time": 0.1333, "name": "Jetboot Fire 3" },
					{ "time": 0.2, "name": "Jetboot Fire 5" },
					{ "time": 0.2667, "name": "Jetboot Fire 4" },
					{ "time": 0.3333, "name": "Jetboot Fire 3" },
					{ "time": 0.4, "name": "Jetboot Fire 4" },
					{ "time": 0.4667, "name": "Jetboot Fire 5" },
					{ "time": 0.5333, "name": "Jetboot Fire 4" },
					{ "time": 0.6, "name": "Jetboot Fire 3" },
					{ "time": 0.6667, "name": "Jetboot Fire 5" },
					{ "time": 0.7333, "name": "Jetboot Fire 4" },
					{ "time": 0.8, "name": "Jetboot Fire 3" },
					{ "time": 0.8667, "name": "Jetboot Fire 5" },
					{ "time": 0.9333, "name": "Jetboot Fire 4" },
					{ "time": 0.9667, "name": "Jetboot Fire 5" }
				]
			}
		},
		"bones": {
			"Left Forearm + Hand": {
				"rotate": [
					{ "angle": -43.35 },
					{ "time": 0.3333, "angle": -59.09 },
					{ "time": 0.8333, "angle": -27.78 },
					{ "time": 1, "angle": -43.35 }
				]
			},
			"Right Foot": {
				"rotate": [
					{ "angle": 1.61 },
					{ "time": 0.3333, "angle": 12.47 },
					{ "time": 0.6667, "angle": -11.97 },
					{ "time": 1, "angle": 1.61 }
				]
			},
			"Left Upper Leg": {
				"rotate": [
					{ "angle": 3.97 },
					{ "time": 0.1667, "angle": -10.25 },
					{ "time": 0.5, "angle": -21.35 },
					{ "time": 0.9, "angle": 12.46 },
					{ "time": 1, "angle": 3.97 }
				]
			},
			"Left Leg": {
				"rotate": [
					{ "angle": -4.89 },
					{ "time": 0.3333, "angle": 3.27 },
					{ "time": 0.6667, "angle": -14.89 },
					{ "time": 1, "angle": -4.89 }
				]
			},
			"Right Upper Leg": {
				"rotate": [
					{ "angle": -1.11 },
					{ "time": 0.1667, "angle": 6.37 },
					{ "time": 0.5, "angle": -9.36 },
					{ "time": 0.8333, "angle": 11.21 },
					{ "time": 1, "angle": -1.11 }
				]
			},
			"Torso": {
				"rotate": [
					{ "angle": -15.16 }
				]
			},
			"Right Leg": {
				"rotate": [
					{ "angle": -15.92 },
					{ "time": 0.3333, "angle": -21.02 },
					{ "time": 0.5, "angle": -25.7 },
					{ "time": 0.6667, "angle": -11.88 },
					{ "time": 1, "angle": -15.92 }
				]
			},
			"Root": {
				"rotate": [
					{},
					{ "time": 0.1667, "angle": -2.61 },
					{ "time": 0.5, "angle": 2.39 },
					{ "time": 0.6667, "angle": 4.89 },
					{ "time": 1 }
				],
				"translate": [
					{},
					{ "time": 0.1667, "y": 16 },
					{ "time": 0.5, "y": -9 },
					{ "time": 0.8333, "y": 11 },
					{ "time": 1 }
				]
			},
			"Left Upper Arm": {
				"rotate": [
					{ "angle": -18.17 },
					{ "time": 0.3333, "angle": -6.68 },
					{ "time": 0.8333, "angle": -28.63 },
					{ "time": 1, "angle": -18.17 }
				]
			},
			"Left Foot": {
				"rotate": [
					{ "angle": -2.29 },
					{ "time": 0.3333, "angle": -15.81 },
					{ "time": 0.6667, "angle": 7.73 },
					{ "time": 1, "angle": -2.29 }
				]
			}
		}
	},
	"Hover (Right Arm + Head)": {
		"slots": {
			"Left Forearm (Wall-Sliding)": {
				"attachment": [
					{ "name": null }
				]
			}
		},
		"bones": {
			"Right Forearm": {
				"rotate": [
					{ "angle": -20.99 },
					{ "time": 0.5, "angle": -4.44 },
					{ "time": 1, "angle": -20.99 }
				]
			},
			"Right Upper Arm": {
				"rotate": [
					{ "angle": 25.58 },
					{ "time": 0.5, "angle": 28.89 },
					{ "time": 1, "angle": 25.58 }
				]
			},
			"Head": {
				"rotate": [
					{ "angle": 4.38 },
					{ "time": 0.5, "angle": -9.62 },
					{ "time": 1, "angle": 4.38 }
				]
			}
		}
	},
	"Idle": {
		"slots": {
			"Left Forearm (Wall-Sliding)": {
				"attachment": [
					{ "name": null }
				]
			},
			"Left Jetboot Fire": {
				"attachment": [
					{ "name": null }
				]
			},
			"Right Jetboot Fire": {
				"attachment": [
					{ "name": null }
				]
			}
		},
		"bones": {
			"Right Upper Arm": {
				"rotate": [
					{ "angle": -21.98 },
					{ "time": 0.5, "angle": -16.32 },
					{ "time": 1, "angle": -21.98 }
				]
			},
			"Left Upper Arm": {
				"rotate": [
					{},
					{ "time": 0.5, "angle": -7.21 },
					{ "time": 1 }
				]
			},
			"Right Forearm": {
				"rotate": [
					{},
					{ "time": 0.5, "angle": 6.6 },
					{ "time": 1 }
				]
			},
			"Root": {
				"translate": [
					{},
					{ "time": 0.5, "x": 1.1, "y": 11 },
					{ "time": 1 }
				]
			},
			"Left Foot": {
				"rotate": [
					{},
					{ "time": 0.5, "angle": -15.28 },
					{ "time": 1 }
				]
			},
			"Right Foot": {
				"rotate": [
					{},
					{ "time": 0.5, "angle": -15.06 },
					{ "time": 1 }
				]
			},
			"Head": {
				"rotate": [
					{},
					{ "time": 0.5, "angle": -7.76 },
					{ "time": 1 }
				]
			},
			"Left Forearm + Hand": {
				"rotate": [
					{},
					{ "time": 0.5, "angle": -16.28 },
					{ "time": 1 }
				]
			}
		}
	},
	"Idle (Everything Else)": {
		"slots": {
			"Left Forearm (Wall-Sliding)": {
				"attachment": [
					{ "name": null }
				]
			},
			"Left Jetboot Fire": {
				"attachment": [
					{ "name": null }
				]
			},
			"Right Jetboot Fire": {
				"attachment": [
					{ "name": null }
				]
			}
		},
		"bones": {
			"Left Upper Arm": {
				"rotate": [
					{},
					{ "time": 0.5, "angle": -7.21 },
					{ "time": 1 }
				]
			},
			"Root": {
				"translate": [
					{},
					{ "time": 0.5, "x": 1.1, "y": 11 },
					{ "time": 1 }
				]
			},
			"Left Foot": {
				"rotate": [
					{},
					{ "time": 0.5, "angle": -15.28 },
					{ "time": 1 }
				]
			},
			"Right Foot": {
				"rotate": [
					{},
					{ "time": 0.5, "angle": -15.06 },
					{ "time": 1 }
				]
			},
			"Left Forearm + Hand": {
				"rotate": [
					{},
					{ "time": 0.5, "angle": -16.28 },
					{ "time": 1 }
				]
			}
		}
	},
	"Idle (Right Arm + Head)": {
		"slots": {
			"Left Forearm (Wall-Sliding)": {
				"attachment": [
					{ "name": null }
				]
			},
			"Left Jetboot Fire": {
				"attachment": [
					{ "name": null }
				]
			},
			"Right Jetboot Fire": {
				"attachment": [
					{ "name": null }
				]
			}
		},
		"bones": {
			"Right Upper Arm": {
				"rotate": [
					{ "angle": -21.98 },
					{ "time": 0.5, "angle": -16.32 },
					{ "time": 1, "angle": -21.98 }
				]
			},
			"Right Forearm": {
				"rotate": [
					{},
					{ "time": 0.5, "angle": 6.6 },
					{ "time": 1 }
				]
			},
			"Head": {
				"rotate": [
					{},
					{ "time": 0.5, "angle": -7.76 },
					{ "time": 1 }
				]
			}
		}
	},
	"Fire (w/Jetboots)": {
		"slots": {
			"Left Forearm (Wall-Sliding)": {
				"attachment": [
					{ "name": null }
				]
			}
		},
		"bones": {
			"Hand": {
				"rotate": [
					{},
					{ "time": 0.1, "angle": -12.48 },
					{ "time": 0.3333 }
				],
				"shear": [
					{},
					{ "time": 0.1, "x": 20 },
					{ "time": 0.3333 }
				]
			},
			"Right Upper Arm": {
				"rotate": [
					{ "angle": 9 },
					{ "time": 0.5, "angle": -17.61 },
					{ "time": 1, "angle": 9 }
				]
			}
		}
	},
	"Jump": {
		"slots": {
			"Left Forearm (Wall-Sliding)": {
				"attachment": [
					{ "name": null }
				]
			},
			"Left Jetboot Fire": {
				"attachment": [
					{ "name": null }
				]
			},
			"Right Jetboot Fire": {
				"attachment": [
					{ "name": null }
				]
			}
		},
		"bones": {
			"Right Foot": {
				"rotate": [
					{},
					{ "time": 0.1667, "angle": -1.1, "curve": "stepped" },
					{ "time": 0.2333, "angle": -1.1 },
					{ "time": 0.5, "angle": -5.13 }
				]
			},
			"Left Foot": {
				"rotate": [
					{},
					{ "time": 0.1667, "angle": 3.04, "curve": "stepped" },
					{ "time": 0.2333, "angle": 3.04 },
					{ "time": 0.5, "angle": -5.69 }
				]
			},
			"Root": {
				"translate": [
					{},
					{ "time": 0.1667, "y": -39.66, "curve": "stepped" },
					{ "time": 0.2333, "y": -39.66 },
					{ "time": 0.5, "y": 30.33 }
				]
			},
			"Left Leg": {
				"rotate": [
					{},
					{ "time": 0.1667, "angle": -82.34, "curve": "stepped" },
					{ "time": 0.2333, "angle": -82.34 },
					{ "time": 0.3, "angle": -92.68 },
					{ "time": 0.5, "angle": -7.76 }
				]
			},
			"Right Upper Leg": {
				"rotate": [
					{},
					{ "time": 0.0667, "angle": 15.31 },
					{ "time": 0.1667, "angle": 88.15, "curve": "stepped" },
					{ "time": 0.2333, "angle": 88.15 },
					{ "time": 0.5, "angle": -15.11 }
				]
			},
			"Left Upper Arm": {
				"rotate": [
					{},
					{ "time": 0.1667, "angle": 0.93, "curve": "stepped" },
					{ "time": 0.2333, "angle": 0.93 },
					{ "time": 0.5, "angle": 19 }
				]
			},
			"Left Upper Leg": {
				"rotate": [
					{},
					{ "time": 0.1667, "angle": 78.02, "curve": "stepped" },
					{ "time": 0.2333, "angle": 78.02 },
					{ "time": 0.3, "angle": 61.93 },
					{ "time": 0.5, "angle": 4.6 }
				]
			},
			"Torso": {
				"rotate": [
					{},
					{ "time": 0.1667, "angle": -15.44 }
				]
			},
			"Right Leg": {
				"rotate": [
					{},
					{ "time": 0.0667, "angle": -18.6 },
					{ "time": 0.1667, "angle": -90.06, "curve": "stepped" },
					{ "time": 0.2333, "angle": -90.06 },
					{ "time": 0.5, "angle": -14.12 }
				]
			},
			"Left Forearm + Hand": {
				"rotate": [
					{},
					{ "time": 0.1667, "angle": -3.27, "curve": "stepped" },
					{ "time": 0.2333, "angle": -3.27 },
					{ "time": 0.5, "angle": -40.38 }
				]
			},
			"Right Forearm": {
				"rotate": [
					{},
					{ "time": 0.1667, "angle": 19.49, "curve": "stepped" },
					{ "time": 0.2333, "angle": 19.49 },
					{ "time": 0.5, "angle": -21.75 }
				]
			},
			"Right Upper Arm": {
				"rotate": [
					{},
					{ "time": 0.1667, "angle": 23.75 }
				]
			},
			"Head": {
				"rotate": [
					{ "angle": -0.06 },
					{ "time": 0.1667, "angle": 19.41, "curve": "stepped" },
					{ "time": 0.2333, "angle": 19.41 },
					{ "time": 0.3, "angle": 33.67 }
				]
			}
		}
	},
	"Jump (Everything Else)": {
		"slots": {
			"Left Forearm (Wall-Sliding)": {
				"attachment": [
					{ "name": null }
				]
			},
			"Left Jetboot Fire": {
				"attachment": [
					{ "name": null }
				]
			},
			"Right Jetboot Fire": {
				"attachment": [
					{ "name": null }
				]
			}
		},
		"bones": {
			"Right Foot": {
				"rotate": [
					{},
					{ "time": 0.1667, "angle": -1.1, "curve": "stepped" },
					{ "time": 0.2333, "angle": -1.1 },
					{ "time": 0.5, "angle": -5.13 }
				]
			},
			"Left Upper Leg": {
				"rotate": [
					{},
					{ "time": 0.1667, "angle": 78.02, "curve": "stepped" },
					{ "time": 0.2333, "angle": 78.02 },
					{ "time": 0.3, "angle": 61.93 },
					{ "time": 0.5, "angle": 4.6 }
				]
			},
			"Left Leg": {
				"rotate": [
					{},
					{ "time": 0.1667, "angle": -82.34, "curve": "stepped" },
					{ "time": 0.2333, "angle": -82.34 },
					{ "time": 0.3, "angle": -92.68 },
					{ "time": 0.5, "angle": -7.76 }
				]
			},
			"Right Upper Leg": {
				"rotate": [
					{},
					{ "time": 0.0667, "angle": 15.31 },
					{ "time": 0.1667, "angle": 88.15, "curve": "stepped" },
					{ "time": 0.2333, "angle": 88.15 },
					{ "time": 0.5, "angle": -15.11 }
				]
			},
			"Right Leg": {
				"rotate": [
					{},
					{ "time": 0.0667, "angle": -18.6 },
					{ "time": 0.1667, "angle": -90.06, "curve": "stepped" },
					{ "time": 0.2333, "angle": -90.06 },
					{ "time": 0.5, "angle": -14.12 }
				]
			},
			"Root": {
				"translate": [
					{},
					{ "time": 0.1667, "y": -39.66, "curve": "stepped" },
					{ "time": 0.2333, "y": -39.66 },
					{ "time": 0.5, "y": 30.33 }
				]
			},
			"Left Upper Arm": {
				"rotate": [
					{},
					{ "time": 0.1667, "angle": 0.93, "curve": "stepped" },
					{ "time": 0.2333, "angle": 0.93 },
					{ "time": 0.5, "angle": 19 }
				]
			},
			"Left Foot": {
				"rotate": [
					{},
					{ "time": 0.1667, "angle": 3.04, "curve": "stepped" },
					{ "time": 0.2333, "angle": 3.04 },
					{ "time": 0.5, "angle": -5.69 }
				]
			},
			"Torso": {
				"rotate": [
					{},
					{ "time": 0.1667, "angle": -15.44 }
				]
			},
			"Left Forearm + Hand": {
				"rotate": [
					{},
					{ "time": 0.1667, "angle": -3.27, "curve": "stepped" },
					{ "time": 0.2333, "angle": -3.27 },
					{ "time": 0.5, "angle": -40.38 }
				]
			}
		}
	},
	"Jump (Old)": {
		"slots": {
			"Left Forearm (Wall-Sliding)": {
				"attachment": [
					{ "name": null }
				]
			},
			"Left Jetboot Fire": {
				"attachment": [
					{ "name": null },
					{ "time": 0.2, "name": "Jetboot Fire 1" },
					{ "time": 0.2667, "name": "Jetboot Fire 2" },
					{ "time": 0.3333, "name": "Jetboot Fire 3" },
					{ "time": 0.4, "name": "Jetboot Fire 4" },
					{ "time": 0.4667, "name": "Jetboot Fire 5" }
				]
			},
			"Right Jetboot Fire": {
				"attachment": [
					{ "name": null },
					{ "time": 0.2, "name": "Jetboot Fire 1" },
					{ "time": 0.2667, "name": "Jetboot Fire 2" },
					{ "time": 0.3333, "name": "Jetboot Fire 3" },
					{ "time": 0.4, "name": "Jetboot Fire 4" },
					{ "time": 0.4667, "name": "Jetboot Fire 5" }
				]
			}
		},
		"bones": {
			"Right Foot": {
				"rotate": [
					{},
					{ "time": 0.1667, "angle": -1.1 },
					{ "time": 0.3333, "angle": -23.55 },
					{ "time": 0.5, "angle": 2.12 }
				]
			},
			"Left Upper Leg": {
				"rotate": [
					{},
					{ "time": 0.1667, "angle": 78.02 },
					{ "time": 0.2333, "angle": 61.93 },
					{ "time": 0.3333, "angle": 16.06 },
					{ "time": 0.5, "angle": 44.49 }
				]
			},
			"Left Leg": {
				"rotate": [
					{},
					{ "time": 0.1667, "angle": -82.34 },
					{ "time": 0.2333, "angle": -92.68 },
					{ "time": 0.3333, "angle": -28.52 }
				]
			},
			"Right Upper Leg": {
				"rotate": [
					{},
					{ "time": 0.0667, "angle": 15.31 },
					{ "time": 0.1667, "angle": 88.15 },
					{ "time": 0.3333, "angle": -15.11 },
					{ "time": 0.5, "angle": -2.19 }
				]
			},
			"Right Forearm": {
				"rotate": [
					{},
					{ "time": 0.1667, "angle": 19.49 },
					{ "time": 0.5, "angle": -27.34 }
				]
			},
			"Right Leg": {
				"rotate": [
					{},
					{ "time": 0.0667, "angle": -18.6 },
					{ "time": 0.1667, "angle": -90.06 },
					{ "time": 0.3333, "angle": -14.12 },
					{ "time": 0.5, "angle": -2.38 }
				]
			},
			"Root": {
				"translate": [
					{},
					{ "time": 0.1667, "y": -39.66 },
					{ "time": 0.3333, "y": 30.33 }
				]
			},
			"Left Upper Arm": {
				"rotate": [
					{},
					{ "time": 0.1667, "angle": 0.93 },
					{ "time": 0.5, "angle": -37.89 }
				]
			},
			"Left Foot": {
				"rotate": [
					{},
					{ "time": 0.1667, "angle": 3.04 },
					{ "time": 0.3333, "angle": -23.8 }
				]
			},
			"Right Upper Arm": {
				"rotate": [
					{},
					{ "time": 0.1667, "angle": 23.75 },
					{ "time": 0.5, "angle": -39.59 }
				]
			},
			"Torso": {
				"rotate": [
					{},
					{ "time": 0.1667, "angle": -15.44 },
					{ "time": 0.5, "angle": 10.28 }
				]
			},
			"Left Forearm + Hand": {
				"rotate": [
					{},
					{ "time": 0.1667, "angle": -3.27 },
					{ "time": 0.5, "angle": -34.18 }
				]
			},
			"Head": {
				"rotate": [
					{ "angle": -0.06 },
					{ "time": 0.1667, "angle": 19.41 },
					{ "time": 0.2333, "angle": 33.67 },
					{ "time": 0.5, "angle": 18.82 }
				]
			}
		}
	},
	"Jump (Right Arm + Head)": {
		"slots": {
			"Left Forearm (Wall-Sliding)": {
				"attachment": [
					{ "name": null }
				]
			},
			"Left Jetboot Fire": {
				"attachment": [
					{ "name": null }
				]
			},
			"Right Jetboot Fire": {
				"attachment": [
					{ "name": null }
				]
			}
		},
		"bones": {
			"Right Forearm": {
				"rotate": [
					{},
					{ "time": 0.1667, "angle": 19.49, "curve": "stepped" },
					{ "time": 0.2333, "angle": 19.49 },
					{ "time": 0.5, "angle": -21.75 }
				]
			},
			"Right Upper Arm": {
				"rotate": [
					{},
					{ "time": 0.1667, "angle": 23.75 }
				]
			},
			"Head": {
				"rotate": [
					{ "angle": -0.06 },
					{ "time": 0.1667, "angle": 19.41, "curve": "stepped" },
					{ "time": 0.2333, "angle": 19.41 },
					{ "time": 0.3, "angle": 33.67 }
				]
			}
		}
	},
	"Multi Jump (Left)": {
		"slots": {
			"Left Forearm (Wall-Sliding)": {
				"attachment": [
					{ "name": null }
				]
			},
			"Left Jetboot Fire": {
				"attachment": [
					{ "name": null },
					{ "time": 0.2, "name": "Jetboot Fire 1" },
					{ "time": 0.2667, "name": "Jetboot Fire 2" },
					{ "time": 0.3333, "name": "Jetboot Fire 3" },
					{ "time": 0.4, "name": "Jetboot Fire 4" },
					{ "time": 0.4667, "name": "Jetboot Fire 5" },
					{ "time": 0.5333, "name": "Jetboot Fire 4" },
					{ "time": 0.6, "name": "Jetboot Fire 5" },
					{ "time": 0.6333, "name": null }
				]
			},
			"Right Jetboot Fire": {
				"attachment": [
					{ "name": null },
					{ "time": 0.2, "name": "Jetboot Fire 1" },
					{ "time": 0.2667, "name": "Jetboot Fire 2" },
					{ "time": 0.3333, "name": "Jetboot Fire 3" },
					{ "time": 0.4, "name": "Jetboot Fire 4" },
					{ "time": 0.4667, "name": "Jetboot Fire 5" },
					{ "time": 0.5333, "name": "Jetboot Fire 4" },
					{ "time": 0.6, "name": "Jetboot Fire 5" },
					{ "time": 0.6333, "name": null }
				]
			}
		},
		"bones": {
			"Left Foot": {
				"rotate": [
					{ "angle": -23.8 }
				]
			},
			"Left Forearm + Hand": {
				"rotate": [
					{},
					{ "time": 0.3333, "angle": -92.53 },
					{ "time": 0.7333, "angle": -34.18 }
				]
			},
			"Right Foot": {
				"rotate": [
					{ "angle": -23.55 },
					{ "time": 0.7333, "angle": 2.12 }
				]
			},
			"Left Upper Leg": {
				"rotate": [
					{ "angle": 16.06 },
					{ "time": 0.1667, "angle": 18.17 },
					{ "time": 0.3333, "angle": -15.8 },
					{ "time": 0.7333, "angle": 44.49 }
				]
			},
			"Left Leg": {
				"rotate": [
					{ "angle": -28.52 },
					{ "time": 0.1667, "angle": -104.03 },
					{ "time": 0.3333, "angle": -99.75 },
					{ "time": 0.7333, "angle": -28.52 }
				],
				"translate": [
					{ "time": 0.3333, "x": -5.15, "y": 3.94 },
					{ "time": 0.7333, "x": -1.75, "y": -0.87 }
				]
			},
			"Right Upper Leg": {
				"rotate": [
					{ "angle": -15.11 },
					{ "time": 0.1667, "angle": 4.62 },
					{ "time": 0.7333, "angle": -2.19 }
				]
			},
			"Right Forearm": {
				"rotate": [
					{},
					{ "time": 0.1667, "angle": 46.98 },
					{ "time": 0.7333, "angle": -27.34 }
				]
			},
			"Right Leg": {
				"rotate": [
					{ "angle": -14.12 },
					{ "time": 0.1667, "angle": -84.14 },
					{ "time": 0.3333, "angle": -113.73 },
					{ "time": 0.7333, "angle": -2.38 }
				],
				"translate": [
					{ "time": 0.3333, "x": -7.16, "y": 7.65 },
					{ "time": 0.7333, "x": -1.68, "y": 0.09 }
				]
			},
			"Root": {
				"rotate": [
					{},
					{ "time": 0.1667, "angle": 32.25 },
					{ "time": 0.3333, "angle": 69.9 },
					{ "time": 0.5, "angle": 158.62 },
					{ "time": 0.6667, "angle": -81.14 },
					{ "time": 0.7667 }
				],
				"translate": [
					{},
					{ "time": 0.7667, "y": 30.33 }
				]
			},
			"Left Upper Arm": {
				"rotate": [
					{ "angle": 74.97 },
					{ "time": 0.3333, "angle": 5.87 },
					{ "time": 0.7333, "angle": -37.89 }
				]
			},
			"Right Upper Arm": {
				"rotate": [
					{ "angle": 53.25 },
					{ "time": 0.1667, "angle": 8.29 },
					{ "time": 0.7333, "angle": -39.59 }
				]
			},
			"Torso": {
				"rotate": [
					{ "angle": -15.16 },
					{ "time": 0.1667, "angle": -15.9 },
					{ "time": 0.3333, "angle": -15.66 },
					{ "time": 0.7333, "angle": 10.28 }
				]
			},
			"Head": {
				"rotate": [
					{ "angle": -26.53 },
					{ "time": 0.3333, "angle": -47.25 },
					{ "time": 0.7333, "angle": 18.78 }
				]
			}
		}
	},
	"Multi Jump (Old)": {
		"slots": {
			"Left Forearm (Wall-Sliding)": {
				"attachment": [
					{ "name": null }
				]
			},
			"Left Jetboot Fire": {
				"attachment": [
					{ "name": null },
					{ "time": 0.0333, "name": "Jetboot Fire 1" },
					{ "time": 0.1, "name": "Jetboot Fire 2" },
					{ "time": 0.1667, "name": "Jetboot Fire 3" },
					{ "time": 0.2333, "name": "Jetboot Fire 4" },
					{ "time": 0.3, "name": "Jetboot Fire 5" }
				]
			},
			"Right Jetboot Fire": {
				"attachment": [
					{ "name": null },
					{ "time": 0.0333, "name": "Jetboot Fire 1" },
					{ "time": 0.1, "name": "Jetboot Fire 2" },
					{ "time": 0.1667, "name": "Jetboot Fire 3" },
					{ "time": 0.2333, "name": "Jetboot Fire 4" },
					{ "time": 0.3, "name": "Jetboot Fire 5" }
				]
			}
		},
		"bones": {
			"Right Foot": {
				"rotate": [
					{ "angle": -23.55 },
					{ "time": 0.1667, "angle": -2.01 },
					{ "time": 0.3333, "angle": 2.12 }
				]
			},
			"Left Upper Leg": {
				"rotate": [
					{ "angle": 16.06 },
					{ "time": 0.1667, "angle": 59.93 },
					{ "time": 0.3333, "angle": 44.49 }
				]
			},
			"Left Leg": {
				"rotate": [
					{ "angle": -28.52 },
					{ "time": 0.1667, "angle": -61.5 },
					{ "time": 0.3333, "angle": -28.52 }
				]
			},
			"Right Upper Leg": {
				"rotate": [
					{ "angle": -15.11 },
					{ "time": 0.1667, "angle": 34.03 },
					{ "time": 0.3333, "angle": -2.19 }
				]
			},
			"Right Forearm": {
				"rotate": [
					{},
					{ "time": 0.3333, "angle": -29.02 }
				]
			},
			"Right Leg": {
				"rotate": [
					{ "angle": -14.12 },
					{ "time": 0.1667, "angle": -29.16 },
					{ "time": 0.3333, "angle": -2.38 }
				]
			},
			"Root": {
				"translate": [
					{},
					{ "time": 0.3333, "y": 30.33 }
				]
			},
			"Left Upper Arm": {
				"rotate": [
					{ "angle": 74.97 },
					{ "time": 0.3333, "angle": 16.87 }
				]
			},
			"Left Foot": {
				"rotate": [
					{ "angle": -23.8 },
					{ "time": 0.1667, "angle": 0.41 },
					{ "time": 0.3333, "angle": -23.8 }
				]
			},
			"Right Upper Arm": {
				"rotate": [
					{ "angle": 53.25 },
					{ "time": 0.3333, "angle": 19.02 }
				]
			},
			"Torso": {
				"rotate": [
					{ "angle": -15.16 }
				]
			},
			"Left Forearm + Hand": {
				"rotate": [
					{},
					{ "time": 0.3333, "angle": -11.54 }
				]
			},
			"Head": {
				"rotate": [
					{ "angle": -26.53 },
					{ "time": 0.3333, "angle": 19.54 }
				]
			}
		}
	},
	"Multi Jump (Right)": {
		"slots": {
			"Left Forearm (Wall-Sliding)": {
				"attachment": [
					{ "name": null }
				]
			},
			"Left Jetboot Fire": {
				"attachment": [
					{ "name": null },
					{ "time": 0.2, "name": "Jetboot Fire 1" },
					{ "time": 0.2667, "name": "Jetboot Fire 2" },
					{ "time": 0.3333, "name": "Jetboot Fire 3" },
					{ "time": 0.4, "name": "Jetboot Fire 4" },
					{ "time": 0.4667, "name": "Jetboot Fire 5" },
					{ "time": 0.5333, "name": "Jetboot Fire 4" },
					{ "time": 0.6, "name": "Jetboot Fire 5" },
					{ "time": 0.6333, "name": null }
				]
			},
			"Right Jetboot Fire": {
				"attachment": [
					{ "name": null },
					{ "time": 0.2, "name": "Jetboot Fire 1" },
					{ "time": 0.2667, "name": "Jetboot Fire 2" },
					{ "time": 0.3333, "name": "Jetboot Fire 3" },
					{ "time": 0.4, "name": "Jetboot Fire 4" },
					{ "time": 0.4667, "name": "Jetboot Fire 5" },
					{ "time": 0.5333, "name": "Jetboot Fire 4" },
					{ "time": 0.6, "name": "Jetboot Fire 5" },
					{ "time": 0.6333, "name": null }
				]
			}
		},
		"bones": {
			"Left Foot": {
				"rotate": [
					{ "angle": -23.8 }
				]
			},
			"Left Forearm + Hand": {
				"rotate": [
					{},
					{ "time": 0.3333, "angle": -92.53 },
					{ "time": 0.7333, "angle": -34.18 }
				]
			},
			"Right Foot": {
				"rotate": [
					{ "angle": -23.55 },
					{ "time": 0.7333, "angle": 2.12 }
				]
			},
			"Left Upper Leg": {
				"rotate": [
					{ "angle": 16.06 },
					{ "time": 0.1667, "angle": 18.17 },
					{ "time": 0.3333, "angle": -15.8 },
					{ "time": 0.7333, "angle": 44.49 }
				]
			},
			"Left Leg": {
				"rotate": [
					{ "angle": -28.52 },
					{ "time": 0.1667, "angle": -104.03 },
					{ "time": 0.3333, "angle": -99.75 },
					{ "time": 0.7333, "angle": -28.52 }
				],
				"translate": [
					{ "time": 0.3333, "x": -5.15, "y": 3.94 },
					{ "time": 0.7333, "x": -1.75, "y": -0.87 }
				]
			},
			"Right Upper Leg": {
				"rotate": [
					{ "angle": -15.11 },
					{ "time": 0.1667, "angle": 4.62 },
					{ "time": 0.7333, "angle": -2.19 }
				]
			},
			"Right Forearm": {
				"rotate": [
					{},
					{ "time": 0.1667, "angle": 46.98 },
					{ "time": 0.7333, "angle": -27.34 }
				]
			},
			"Right Leg": {
				"rotate": [
					{ "angle": -14.12 },
					{ "time": 0.1667, "angle": -84.14 },
					{ "time": 0.3333, "angle": -113.73 },
					{ "time": 0.7333, "angle": -2.38 }
				],
				"translate": [
					{ "time": 0.3333, "x": -7.16, "y": 7.65 },
					{ "time": 0.7333, "x": -1.68, "y": 0.09 }
				]
			},
			"Root": {
				"rotate": [
					{},
					{ "time": 0.1667, "angle": -39.78 },
					{ "time": 0.3333, "angle": -84.97 },
					{ "time": 0.5, "angle": 158.62 },
					{ "time": 0.6667, "angle": 35.75 },
					{ "time": 0.7333 }
				],
				"translate": [
					{},
					{ "time": 0.7333, "y": 30.33 }
				]
			},
			"Left Upper Arm": {
				"rotate": [
					{ "angle": 74.97 },
					{ "time": 0.3333, "angle": 5.87 },
					{ "time": 0.7333, "angle": -37.89 }
				]
			},
			"Right Upper Arm": {
				"rotate": [
					{ "angle": 53.25 },
					{ "time": 0.1667, "angle": 8.29 },
					{ "time": 0.7333, "angle": -39.59 }
				]
			},
			"Torso": {
				"rotate": [
					{ "angle": -15.16 },
					{ "time": 0.1667, "angle": -15.9 },
					{ "time": 0.3333, "angle": -15.66 },
					{ "time": 0.7333, "angle": 10.28 }
				]
			},
			"Head": {
				"rotate": [
					{ "angle": -26.53 },
					{ "time": 0.3333, "angle": -47.25 },
					{ "time": 0.7333, "angle": 18.78 }
				]
			}
		}
	},
	"Run": {
		"slots": {
			"Left Forearm (Wall-Sliding)": {
				"attachment": [
					{ "name": null }
				]
			},
			"Left Jetboot Fire": {
				"attachment": [
					{ "name": null }
				]
			},
			"Right Jetboot Fire": {
				"attachment": [
					{ "name": null }
				]
			}
		},
		"bones": {
			"Left Upper Leg": {
				"rotate": [
					{ "angle": 38.61 },
					{ "time": 0.3333, "angle": -31.86 },
					{ "time": 0.5, "angle": -63.48 },
					{ "time": 0.8333, "angle": 12.52 },
					{ "time": 1, "angle": 38.61 }
				],
				"translate": [
					{},
					{ "time": 0.3333, "x": 2.76, "y": 2.04 },
					{ "time": 1 }
				]
			},
			"Left Leg": {
				"rotate": [
					{ "angle": -30.33 },
					{ "time": 0.1667, "angle": -7.4 },
					{ "time": 0.3333, "angle": 7.44 },
					{ "time": 0.6667, "angle": -72.12 },
					{ "time": 0.8333, "angle": -75.2 },
					{ "time": 1, "angle": -30.33 }
				]
			},
			"Right Upper Leg": {
				"rotate": [
					{ "angle": -61 },
					{ "time": 0.3333, "angle": 39 },
					{ "time": 0.5, "angle": 60.67 },
					{ "time": 0.6667, "angle": 31.48 },
					{ "time": 0.7667, "angle": -15.07 },
					{ "time": 0.8333, "angle": -38.75 },
					{ "time": 1, "angle": -61 }
				]
			},
			"Right Leg": {
				"rotate": [
					{ "angle": -38.6 },
					{ "time": 0.1667, "angle": -74.77 },
					{ "time": 0.3333, "angle": -99.24 },
					{ "time": 0.5, "angle": -59.44 },
					{ "time": 0.7667, "angle": 17.56 },
					{ "time": 0.8333, "angle": 20.89 },
					{ "time": 1, "angle": -38.6 }
				]
			},
			"Right Foot": {
				"rotate": [
					{},
					{ "time": 0.3333, "angle": 16.54 },
					{ "time": 0.6, "angle": -12.95 },
					{ "time": 0.6667, "angle": -5.52 },
					{ "time": 0.8333, "angle": 6.93 },
					{ "time": 1 }
				]
			},
			"Left Foot": {
				"rotate": [
					{},
					{ "time": 0.3333, "angle": 12.2 },
					{ "time": 1 }
				]
			},
			"Left Upper Arm": {
				"rotate": [
					{ "angle": -4.83 },
					{ "time": 0.5, "angle": 34.04 },
					{ "time": 1, "angle": -4.83 }
				]
			},
			"Right Upper Arm": {
				"rotate": [
					{ "angle": 18.21 },
					{ "time": 0.5, "angle": 1.78 },
					{ "time": 1, "angle": 18.21 }
				]
			},
			"Right Forearm": {
				"rotate": [
					{ "angle": 49.13 },
					{ "time": 0.5, "angle": -42.2 },
					{ "time": 1, "angle": 49.13 }
				]
			},
			"Head": {
				"rotate": [
					{},
					{ "time": 0.5, "angle": -14.58 },
					{ "time": 1 }
				]
			},
			"Root": {
				"translate": [
					{ "y": 10.39 },
					{ "time": 0.2333, "y": 0.39 },
					{ "time": 0.5, "y": 10.39 },
					{ "time": 0.7333, "y": 0.39 },
					{ "time": 1, "y": 10.39 }
				]
			},
			"Left Forearm + Hand": {
				"rotate": [
					{ "angle": -57.92 },
					{ "time": 0.5, "angle": 20.52 },
					{ "time": 1, "angle": -57.92 }
				]
			}
		}
	},
	"Run (Everything Else)": {
		"slots": {
			"Left Forearm (Wall-Sliding)": {
				"attachment": [
					{ "name": null }
				]
			},
			"Left Jetboot Fire": {
				"attachment": [
					{ "name": null }
				]
			},
			"Right Jetboot Fire": {
				"attachment": [
					{ "name": null }
				]
			}
		},
		"bones": {
			"Left Upper Leg": {
				"rotate": [
					{ "angle": 38.61 },
					{ "time": 0.2667, "angle": -31.86 },
					{ "time": 0.4, "angle": -63.48 },
					{ "time": 0.7, "angle": 12.52 },
					{ "time": 0.8333, "angle": 38.61 }
				],
				"translate": [
					{},
					{ "time": 0.2667, "x": 2.76, "y": 2.04 },
					{ "time": 0.8333 }
				]
			},
			"Left Leg": {
				"rotate": [
					{ "angle": -30.33 },
					{ "time": 0.1333, "angle": -7.4 },
					{ "time": 0.2667, "angle": 7.44 },
					{ "time": 0.5667, "angle": -72.12 },
					{ "time": 0.7, "angle": -75.2 },
					{ "time": 0.8333, "angle": -30.33 }
				]
			},
			"Right Upper Leg": {
				"rotate": [
					{ "angle": -61 },
					{ "time": 0.2667, "angle": 39 },
					{ "time": 0.4, "angle": 60.67 },
					{ "time": 0.5667, "angle": 31.48 },
					{ "time": 0.6333, "angle": -15.07 },
					{ "time": 0.7, "angle": -38.75 },
					{ "time": 0.8333, "angle": -61 }
				]
			},
			"Right Leg": {
				"rotate": [
					{ "angle": -38.6 },
					{ "time": 0.1333, "angle": -74.77 },
					{ "time": 0.2667, "angle": -99.24 },
					{ "time": 0.4, "angle": -59.44 },
					{ "time": 0.6333, "angle": 17.56 },
					{ "time": 0.7, "angle": 20.89 },
					{ "time": 0.8333, "angle": -38.6 }
				]
			},
			"Right Foot": {
				"rotate": [
					{},
					{ "time": 0.2667, "angle": 16.54 },
					{ "time": 0.5, "angle": -12.95 },
					{ "time": 0.5667, "angle": -5.52 },
					{ "time": 0.7, "angle": 6.93 },
					{ "time": 0.8333 }
				]
			},
			"Left Foot": {
				"rotate": [
					{},
					{ "time": 0.2667, "angle": 12.2 },
					{ "time": 0.8333 }
				]
			},
			"Left Upper Arm": {
				"rotate": [
					{ "angle": -4.83 },
					{ "time": 0.4, "angle": 34.04 },
					{ "time": 0.8333, "angle": -4.83 }
				]
			},
			"Root": {
				"translate": [
					{ "y": 10.39 },
					{ "time": 0.2, "y": 0.39 },
					{ "time": 0.4, "y": 10.39 },
					{ "time": 0.6, "y": 0.39 },
					{ "time": 0.8333, "y": 10.39 }
				]
			},
			"Left Forearm + Hand": {
				"rotate": [
					{ "angle": -57.92 },
					{ "time": 0.4, "angle": 20.52 },
					{ "time": 0.8333, "angle": -57.92 }
				]
			}
		}
	},
	"Run (Right Arm + Head)": {
		"slots": {
			"Left Forearm (Wall-Sliding)": {
				"attachment": [
					{ "name": null }
				]
			},
			"Left Jetboot Fire": {
				"attachment": [
					{ "name": null }
				]
			},
			"Right Jetboot Fire": {
				"attachment": [
					{ "name": null }
				]
			}
		},
		"bones": {
			"Right Upper Arm": {
				"rotate": [
					{ "angle": 18.21 },
					{ "time": 0.4, "angle": 1.78 },
					{ "time": 0.8333, "angle": 18.21 }
				]
			},
			"Right Forearm": {
				"rotate": [
					{ "angle": 49.13 },
					{ "time": 0.4, "angle": -42.2 },
					{ "time": 0.8333, "angle": 49.13 }
				]
			},
			"Head": {
				"rotate": [
					{},
					{ "time": 0.4, "angle": -14.58 },
					{ "time": 0.8333 }
				]
			}
		}
	},
	"Walk": {
		"slots": {
			"Left Forearm (Wall-Sliding)": {
				"attachment": [
					{ "name": null }
				]
			},
			"Left Jetboot Fire": {
				"attachment": [
					{ "name": null }
				]
			},
			"Right Jetboot Fire": {
				"attachment": [
					{ "name": null }
				]
			}
		},
		"bones": {
			"Left Upper Leg": {
				"rotate": [
					{ "angle": 29.6 },
					{ "time": 0.1667, "angle": -8.6 },
					{ "time": 0.3333, "angle": -35.6 },
					{ "time": 0.5, "angle": -54.55 },
					{ "time": 0.6, "angle": -28.55 },
					{ "time": 0.7667, "angle": -0.15 },
					{ "time": 1, "angle": 29.6 }
				],
				"translate": [
					{ "x": -2.53, "y": -3 },
					{ "time": 0.5, "x": -4.4, "y": 5.36 },
					{ "time": 0.6, "x": -2.62, "y": 2.31 },
					{ "time": 1, "x": -2.53, "y": -3 }
				]
			},
			"Left Leg": {
				"rotate": [
					{ "angle": -26.79 },
					{ "time": 0.1667, "angle": 5.46 },
					{ "time": 0.2667, "angle": 6.69 },
					{ "time": 0.5, "angle": 23.22 },
					{ "time": 0.6, "angle": -37.21 },
					{ "time": 0.6667, "angle": -71.52 },
					{ "time": 0.7667, "angle": -84.45 },
					{ "time": 0.8333, "angle": -87.3 },
					{ "time": 1, "angle": -26.79 }
				]
			},
			"Right Upper Leg": {
				"rotate": [
					{ "angle": -42.49 },
					{ "time": 0.1667, "angle": -4.89 },
					{ "time": 0.3333, "angle": 31.35 },
					{ "time": 0.5, "angle": 44.64 },
					{ "time": 0.6667, "angle": 14.49 },
					{ "time": 0.8333, "angle": -22.88 },
					{ "time": 1, "angle": -42.49 }
				]
			},
			"Right Leg": {
				"rotate": [
					{ "angle": 4.27 },
					{ "time": 0.1667, "angle": -91.13 },
					{ "time": 0.3333, "angle": -116.81 },
					{ "time": 0.5, "angle": -57.83 },
					{ "time": 0.6667, "angle": -20.13 },
					{ "time": 0.8333, "angle": 11.3 },
					{ "time": 1, "angle": 4.27 }
				]
			},
			"Right Foot": {
				"rotate": [
					{ "angle": 17.12 },
					{ "time": 0.5, "angle": -3.33 },
					{ "time": 1, "angle": 17.12 }
				]
			},
			"Right Upper Arm": {
				"rotate": [
					{ "angle": 12.72 },
					{ "time": 0.5, "angle": -16.98 },
					{ "time": 1, "angle": 12.72 }
				]
			},
			"Right Forearm": {
				"rotate": [
					{ "angle": 10.98 },
					{ "time": 0.5, "angle": -8.12 },
					{ "time": 1, "angle": 10.98 }
				]
			},
			"Left Upper Arm": {
				"rotate": [
					{ "angle": -15.5 },
					{ "time": 0.5, "angle": 10.84 },
					{ "time": 1, "angle": -15.5 }
				]
			},
			"Left Foot": {
				"rotate": [
					{ "angle": -6.08 },
					{ "time": 0.1, "angle": 2.87 },
					{ "time": 0.1667, "angle": 2.35 },
					{ "time": 0.2667, "angle": 12.95 },
					{ "time": 0.3333, "angle": 10.45 },
					{ "time": 0.6667, "angle": 4.99 },
					{ "time": 0.9333, "angle": 17.08 },
					{ "time": 1, "angle": -6.08 }
				]
			},
			"Head": {
				"rotate": [
					{},
					{ "time": 0.5, "angle": -9.58 },
					{ "time": 1 }
				]
			},
			"Root": {
				"translate": [
					{},
					{ "time": 0.5, "y": 3.39 },
					{ "time": 1 }
				]
			},
			"Left Forearm + Hand": {
				"rotate": [
					{ "angle": -27.14 },
					{ "time": 0.5, "angle": 12.08 },
					{ "time": 1, "angle": -27.14 }
				]
			}
		}
	},
	"Walk (Everything Else)": {
		"slots": {
			"Left Forearm (Wall-Sliding)": {
				"attachment": [
					{ "name": null }
				]
			},
			"Left Jetboot Fire": {
				"attachment": [
					{ "name": null }
				]
			},
			"Right Jetboot Fire": {
				"attachment": [
					{ "name": null }
				]
			}
		},
		"bones": {
			"Left Upper Leg": {
				"rotate": [
					{ "angle": 29.6 },
					{ "time": 0.1667, "angle": -8.6 },
					{ "time": 0.3333, "angle": -35.6 },
					{ "time": 0.5, "angle": -54.55 },
					{ "time": 0.6, "angle": -28.55 },
					{ "time": 0.7667, "angle": -0.15 },
					{ "time": 1, "angle": 29.6 }
				],
				"translate": [
					{ "x": -2.53, "y": -3 },
					{ "time": 0.5, "x": -4.4, "y": 5.36 },
					{ "time": 0.6, "x": -2.62, "y": 2.31 },
					{ "time": 1, "x": -2.53, "y": -3 }
				]
			},
			"Left Leg": {
				"rotate": [
					{ "angle": -26.79 },
					{ "time": 0.1667, "angle": 5.46 },
					{ "time": 0.2667, "angle": 6.69 },
					{ "time": 0.5, "angle": 23.22 },
					{ "time": 0.6, "angle": -37.21 },
					{ "time": 0.6667, "angle": -71.52 },
					{ "time": 0.7667, "angle": -84.45 },
					{ "time": 0.8333, "angle": -87.3 },
					{ "time": 1, "angle": -26.79 }
				]
			},
			"Right Upper Leg": {
				"rotate": [
					{ "angle": -42.49 },
					{ "time": 0.1667, "angle": -4.89 },
					{ "time": 0.3333, "angle": 31.35 },
					{ "time": 0.5, "angle": 44.64 },
					{ "time": 0.6667, "angle": 14.49 },
					{ "time": 0.8333, "angle": -22.88 },
					{ "time": 1, "angle": -42.49 }
				]
			},
			"Right Leg": {
				"rotate": [
					{ "angle": 4.27 },
					{ "time": 0.1667, "angle": -91.13 },
					{ "time": 0.3333, "angle": -116.81 },
					{ "time": 0.5, "angle": -57.83 },
					{ "time": 0.6667, "angle": -20.13 },
					{ "time": 0.8333, "angle": 11.3 },
					{ "time": 1, "angle": 4.27 }
				]
			},
			"Right Foot": {
				"rotate": [
					{ "angle": 17.12 },
					{ "time": 0.5, "angle": -3.33 },
					{ "time": 1, "angle": 17.12 }
				]
			},
			"Left Upper Arm": {
				"rotate": [
					{ "angle": -15.5 },
					{ "time": 0.5, "angle": 10.84 },
					{ "time": 1, "angle": -15.5 }
				]
			},
			"Left Foot": {
				"rotate": [
					{ "angle": -6.08 },
					{ "time": 0.1, "angle": 2.87 },
					{ "time": 0.1667, "angle": 2.35 },
					{ "time": 0.2667, "angle": 12.95 },
					{ "time": 0.3333, "angle": 10.45 },
					{ "time": 0.6667, "angle": 4.99 },
					{ "time": 0.9333, "angle": 17.08 },
					{ "time": 1, "angle": -6.08 }
				]
			},
			"Root": {
				"translate": [
					{},
					{ "time": 0.5, "y": 3.39 },
					{ "time": 1 }
				]
			},
			"Left Forearm + Hand": {
				"rotate": [
					{ "angle": -27.14 },
					{ "time": 0.5, "angle": 12.08 },
					{ "time": 1, "angle": -27.14 }
				]
			}
		}
	},
	"Walk (Right Arm + Head)": {
		"slots": {
			"Left Forearm (Wall-Sliding)": {
				"attachment": [
					{ "name": null }
				]
			},
			"Left Jetboot Fire": {
				"attachment": [
					{ "name": null }
				]
			},
			"Right Jetboot Fire": {
				"attachment": [
					{ "name": null }
				]
			}
		},
		"bones": {
			"Right Upper Arm": {
				"rotate": [
					{ "angle": 12.72 },
					{ "time": 0.5, "angle": -16.98 },
					{ "time": 1, "angle": 12.72 }
				]
			},
			"Right Forearm": {
				"rotate": [
					{ "angle": 10.98 },
					{ "time": 0.5, "angle": -8.12 },
					{ "time": 1, "angle": 10.98 }
				]
			},
			"Head": {
				"rotate": [
					{},
					{ "time": 0.5, "angle": -9.58 },
					{ "time": 1 }
				]
			}
		}
	},
	"Wall Slide": {
		"slots": {
			"Left Forearm": {
				"attachment": [
					{ "name": null }
				]
			},
			"Left Hand": {
				"attachment": [
					{ "name": "Left Hand (Wall-Sliding)" }
				]
			},
			"Left Jetboot Fire": {
				"attachment": [
					{ "name": null }
				]
			},
			"Right Foot": {
				"attachment": [
					{ "name": "Foot (Front)" }
				]
			},
			"Right Jetboot Fire": {
				"attachment": [
					{ "name": null }
				]
			},
			"Right Leg": {
				"attachment": [
					{ "name": "Leg (Front)" }
				]
			}
		},
		"bones": {
			"Root": {
				"translate": [
					{},
					{ "time": 0.6667, "y": -19.67 },
					{ "time": 1 }
				],
				"scale": [
					{ "x": -1 }
				]
			},
			"Left Forearm + Hand": {
				"rotate": [
					{ "angle": -59.6 }
				],
				"scale": [
					{ "y": -1 }
				],
				"shear": [
					{ "y": -9.98 },
					{ "time": 0.5 },
					{ "time": 1, "y": -9.98 }
				]
			},
			"Left Upper Arm": {
				"rotate": [
					{ "angle": 163.8 }
				],
				"shear": [
					{ "y": -9.98 }
				]
			},
			"Torso": {
				"rotate": [
					{ "angle": -11.11 }
				]
			},
			"Head": {
				"rotate": [
					{ "angle": -19.31 },
					{ "time": 0.7667, "angle": -5.84 },
					{ "time": 1, "angle": -19.31 }
				]
			},
			"Left Foot": {
				"rotate": [
					{},
					{ "time": 0.5, "angle": -12.35 },
					{ "time": 1 }
				]
			},
			"Right Upper Leg": {
				"rotate": [
					{ "angle": -29.8 }
				]
			},
			"Right Leg": {
				"rotate": [
					{ "angle": -61.19 },
					{ "time": 0.6667, "angle": -81.69 },
					{ "time": 1, "angle": -61.19 }
				]
			},
			"Left Upper Leg": {
				"rotate": [
					{ "angle": -27.63 }
				]
			},
			"Left Leg": {
				"rotate": [
					{ "angle": -66.47 },
					{ "time": 0.5, "angle": -53.13 },
					{ "time": 1, "angle": -66.47 }
				]
			},
			"Right Forearm": {
				"rotate": [
					{ "angle": -33.79 }
				]
			},
			"Right Upper Arm": {
				"rotate": [
					{},
					{ "time": 0.5, "angle": 10.65 },
					{ "time": 1 }
				]
			}
		}
	},
	"Wall Slide (Everything Else)": {
		"slots": {
			"Left Forearm": {
				"attachment": [
					{ "name": null }
				]
			},
			"Left Hand": {
				"attachment": [
					{ "name": "Left Hand (Wall-Sliding)" }
				]
			},
			"Left Jetboot Fire": {
				"attachment": [
					{ "name": null }
				]
			},
			"Right Foot": {
				"attachment": [
					{ "name": "Foot (Front)" }
				]
			},
			"Right Jetboot Fire": {
				"attachment": [
					{ "name": null }
				]
			},
			"Right Leg": {
				"attachment": [
					{ "name": "Leg (Front)" }
				]
			}
		},
		"bones": {
			"Root": {
				"translate": [
					{},
					{ "time": 0.6667, "y": -19.67 },
					{ "time": 1 }
				],
				"scale": [
					{ "x": -1 }
				]
			},
			"Left Forearm + Hand": {
				"rotate": [
					{ "angle": -59.6 }
				],
				"scale": [
					{ "y": -1 }
				],
				"shear": [
					{ "y": -9.98 },
					{ "time": 0.5 },
					{ "time": 1, "y": -9.98 }
				]
			},
			"Left Upper Arm": {
				"rotate": [
					{ "angle": 163.8 }
				],
				"shear": [
					{ "y": -9.98 }
				]
			},
			"Torso": {
				"rotate": [
					{ "angle": -11.11 }
				]
			},
			"Left Foot": {
				"rotate": [
					{},
					{ "time": 0.5, "angle": -12.35 },
					{ "time": 1 }
				]
			},
			"Right Upper Leg": {
				"rotate": [
					{ "angle": -29.8 }
				]
			},
			"Right Leg": {
				"rotate": [
					{ "angle": -61.19 },
					{ "time": 0.6667, "angle": -81.69 },
					{ "time": 1, "angle": -61.19 }
				]
			},
			"Left Upper Leg": {
				"rotate": [
					{ "angle": -27.63 }
				]
			},
			"Left Leg": {
				"rotate": [
					{ "angle": -66.47 },
					{ "time": 0.5, "angle": -53.13 },
					{ "time": 1, "angle": -66.47 }
				]
			}
		}
	},
	"Wall Slide (Right Arm + Head)": {
		"slots": {
			"Left Jetboot Fire": {
				"attachment": [
					{ "name": null }
				]
			},
			"Right Jetboot Fire": {
				"attachment": [
					{ "name": null }
				]
			},
			"Right Leg": {
				"attachment": [
					{ "name": "Leg (Front)" }
				]
			}
		},
		"bones": {
			"Head": {
				"rotate": [
					{ "angle": -19.31 },
					{ "time": 0.7667, "angle": -5.84 },
					{ "time": 1, "angle": -19.31 }
				]
			},
			"Right Forearm": {
				"rotate": [
					{ "angle": -33.79 }
				]
			},
			"Right Upper Arm": {
				"rotate": [
					{},
					{ "time": 0.5, "angle": 10.65 },
					{ "time": 1 }
				]
			}
		}
	}
}
}