%YAML 1.1
%TAG !u! tag:unity3d.com,2011:
--- !u!1 &7982740764326478189
GameObject:
  m_ObjectHideFlags: 0
  m_CorrespondingSourceObject: {fileID: 0}
  m_PrefabInstance: {fileID: 0}
  m_PrefabAsset: {fileID: 0}
  serializedVersion: 6
  m_Component:
  - component: {fileID: 7988337531696529505}
  - component: {fileID: 7800149691090971805}
  m_Layer: 0
  m_Name: Horizontal Vine Hitch (with Vine Tie)
  m_TagString: Untagged
  m_Icon: {fileID: 0}
  m_NavMeshLayer: 0
  m_StaticEditorFlags: 0
  m_IsActive: 1
--- !u!4 &7988337531696529505
Transform:
  m_ObjectHideFlags: 0
  m_CorrespondingSourceObject: {fileID: 0}
  m_PrefabInstance: {fileID: 0}
  m_PrefabAsset: {fileID: 0}
  m_GameObject: {fileID: 7982740764326478189}
  m_LocalRotation: {x: -0, y: -0, z: -0, w: 1}
  m_LocalPosition: {x: 260.83038, y: 146.4246, z: 540.1719}
  m_LocalScale: {x: 2, y: 1.5, z: 1}
  m_Children:
  - {fileID: 2621197641498652680}
  m_Father: {fileID: 0}
  m_RootOrder: 0
  m_LocalEulerAnglesHint: {x: 0, y: 0, z: 0}
--- !u!212 &7800149691090971805
SpriteRenderer:
  m_ObjectHideFlags: 0
  m_CorrespondingSourceObject: {fileID: 0}
  m_PrefabInstance: {fileID: 0}
  m_PrefabAsset: {fileID: 0}
  m_GameObject: {fileID: 7982740764326478189}
  m_Enabled: 1
  m_CastShadows: 0
  m_ReceiveShadows: 0
  m_DynamicOccludee: 1
  m_MotionVectors: 1
  m_LightProbeUsage: 0
  m_ReflectionProbeUsage: 0
  m_RayTracingMode: 0
  m_RenderingLayerMask: 1
  m_RendererPriority: 0
  m_Materials:
  - {fileID: 2100000, guid: 2f2a983c53b27fa458b1c01c6d7e620d, type: 2}
  m_StaticBatchInfo:
    firstSubMesh: 0
    subMeshCount: 0
  m_StaticBatchRoot: {fileID: 0}
  m_ProbeAnchor: {fileID: 0}
  m_LightProbeVolumeOverride: {fileID: 0}
  m_ScaleInLightmap: 1
  m_ReceiveGI: 1
  m_PreserveUVs: 0
  m_IgnoreNormalsForChartDetection: 0
  m_ImportantGI: 0
  m_StitchLightmapSeams: 1
  m_SelectedEditorRenderState: 0
  m_MinimumChartSize: 4
  m_AutoUVMaxDistance: 0.5
  m_AutoUVMaxAngle: 89
  m_LightmapParameters: {fileID: 0}
  m_SortingLayerID: 569401205
  m_SortingLayer: 3
  m_SortingOrder: 0
  m_Sprite: {fileID: 21300040, guid: 374e0445c78ff8a498aa23d396168720, type: 3}
  m_Color: {r: 1, g: 1, b: 1, a: 1}
  m_FlipX: 0
  m_FlipY: 0
  m_DrawMode: 0
  m_Size: {x: 1, y: 1}
  m_AdaptiveModeThreshold: 0.5
  m_SpriteTileMode: 0
  m_WasSpriteAssigned: 1
  m_MaskInteraction: 0
  m_SpriteSortPoint: 0
--- !u!1001 &5296094859158234606
PrefabInstance:
  m_ObjectHideFlags: 0
  serializedVersion: 2
  m_Modification:
    m_TransformParent: {fileID: 7988337531696529505}
    m_Modifications:
    - target: {fileID: 1708052454, guid: 6453f94fff6948045b16846ba64f99d8, type: 3}
      propertyPath: TravelDirection
      value: 1
      objectReference: {fileID: 0}
    - target: {fileID: 532699660552161990, guid: 6453f94fff6948045b16846ba64f99d8,
        type: 3}
      propertyPath: m_Size.x
      value: 1.75
      objectReference: {fileID: 0}
    - target: {fileID: 532699660552161990, guid: 6453f94fff6948045b16846ba64f99d8,
        type: 3}
      propertyPath: m_Size.y
      value: 39
      objectReference: {fileID: 0}
    - target: {fileID: 532699660552161990, guid: 6453f94fff6948045b16846ba64f99d8,
        type: 3}
      propertyPath: m_Offset.y
      value: 10.25
      objectReference: {fileID: 0}
    - target: {fileID: 5169595825787781839, guid: 6453f94fff6948045b16846ba64f99d8,
        type: 3}
      propertyPath: m_SortingLayerID
      value: 569401205
      objectReference: {fileID: 0}
    - target: {fileID: 5169595825787781839, guid: 6453f94fff6948045b16846ba64f99d8,
        type: 3}
      propertyPath: m_SortingLayer
      value: 3
      objectReference: {fileID: 0}
    - target: {fileID: 5169595825787781839, guid: 6453f94fff6948045b16846ba64f99d8,
        type: 3}
      propertyPath: m_SortingOrder
      value: 1
      objectReference: {fileID: 0}
    - target: {fileID: 5890632106413050736, guid: 6453f94fff6948045b16846ba64f99d8,
        type: 3}
      propertyPath: m_Name
      value: Tied Vine (Left Side)
      objectReference: {fileID: 0}
    - target: {fileID: 7863249116132300262, guid: 6453f94fff6948045b16846ba64f99d8,
        type: 3}
      propertyPath: m_LocalPosition.x
      value: 0.01449585
      objectReference: {fileID: 0}
    - target: {fileID: 7863249116132300262, guid: 6453f94fff6948045b16846ba64f99d8,
        type: 3}
      propertyPath: m_LocalPosition.y
      value: 1.3546419
      objectReference: {fileID: 0}
    - target: {fileID: 7863249116132300262, guid: 6453f94fff6948045b16846ba64f99d8,
        type: 3}
      propertyPath: m_LocalPosition.z
      value: 0
      objectReference: {fileID: 0}
    - target: {fileID: 7863249116132300262, guid: 6453f94fff6948045b16846ba64f99d8,
        type: 3}
      propertyPath: m_LocalRotation.x
      value: -0
      objectReference: {fileID: 0}
    - target: {fileID: 7863249116132300262, guid: 6453f94fff6948045b16846ba64f99d8,
        type: 3}
      propertyPath: m_LocalRotation.y
      value: -0
      objectReference: {fileID: 0}
    - target: {fileID: 7863249116132300262, guid: 6453f94fff6948045b16846ba64f99d8,
        type: 3}
      propertyPath: m_LocalRotation.z
      value: -0.7071068
      objectReference: {fileID: 0}
    - target: {fileID: 7863249116132300262, guid: 6453f94fff6948045b16846ba64f99d8,
        type: 3}
      propertyPath: m_LocalRotation.w
      value: 0.7071068
      objectReference: {fileID: 0}
    - target: {fileID: 7863249116132300262, guid: 6453f94fff6948045b16846ba64f99d8,
        type: 3}
      propertyPath: m_RootOrder
      value: 0
      objectReference: {fileID: 0}
    - target: {fileID: 7863249116132300262, guid: 6453f94fff6948045b16846ba64f99d8,
        type: 3}
      propertyPath: m_LocalEulerAnglesHint.x
      value: 0
      objectReference: {fileID: 0}
    - target: {fileID: 7863249116132300262, guid: 6453f94fff6948045b16846ba64f99d8,
        type: 3}
      propertyPath: m_LocalEulerAnglesHint.y
      value: 0
      objectReference: {fileID: 0}
    - target: {fileID: 7863249116132300262, guid: 6453f94fff6948045b16846ba64f99d8,
        type: 3}
      propertyPath: m_LocalEulerAnglesHint.z
      value: -90
      objectReference: {fileID: 0}
    - target: {fileID: 7863249116132300262, guid: 6453f94fff6948045b16846ba64f99d8,
        type: 3}
      propertyPath: m_LocalScale.x
      value: 0.26666683
      objectReference: {fileID: 0}
    - target: {fileID: 7863249116132300262, guid: 6453f94fff6948045b16846ba64f99d8,
        type: 3}
      propertyPath: m_LocalScale.y
      value: 0.027500015
      objectReference: {fileID: 0}
    m_RemovedComponents:
    - {fileID: 532699660552161990, guid: 6453f94fff6948045b16846ba64f99d8, type: 3}
    - {fileID: 1708052454, guid: 6453f94fff6948045b16846ba64f99d8, type: 3}
  m_SourcePrefab: {fileID: 100100000, guid: 6453f94fff6948045b16846ba64f99d8, type: 3}
--- !u!4 &2621197641498652680 stripped
Transform:
  m_CorrespondingSourceObject: {fileID: 7863249116132300262, guid: 6453f94fff6948045b16846ba64f99d8,
    type: 3}
  m_PrefabInstance: {fileID: 5296094859158234606}
  m_PrefabAsset: {fileID: 0}
