%YAML 1.1
%TAG !u! tag:unity3d.com,2011:
--- !u!74 &7400000
AnimationClip:
  m_ObjectHideFlags: 0
  m_CorrespondingSourceObject: {fileID: 0}
  m_PrefabInstance: {fileID: 0}
  m_PrefabAsset: {fileID: 0}
  m_Name: Alternate Rocket Impact Effect
  serializedVersion: 6
  m_Legacy: 0
  m_Compressed: 0
  m_UseHighQualityCurve: 1
  m_RotationCurves: []
  m_CompressedRotationCurves: []
  m_EulerCurves: []
  m_PositionCurves: []
  m_ScaleCurves: []
  m_FloatCurves: []
  m_PPtrCurves:
  - curve:
    - time: 0
      value: {fileID: 21300000, guid: c65ad100c3590b046a7e9b261d9d4379, type: 3}
    - time: 0.05
      value: {fileID: 21300000, guid: fcea9064aeb964d48af182345d2a93eb, type: 3}
    - time: 0.1
      value: {fileID: 21300000, guid: cda40fda29006904489256aaa9765db2, type: 3}
    - time: 0.15
      value: {fileID: 21300000, guid: 938e7d4cd61f7d34c82310b1ac588ec8, type: 3}
    - time: 0.2
      value: {fileID: 21300000, guid: 4e57701e0cef6f343afacd9ce6d3bcd6, type: 3}
    - time: 0.25
      value: {fileID: 21300000, guid: 08e7920ba2361cd488a654d13ffbe648, type: 3}
    - time: 0.3
      value: {fileID: 21300000, guid: ba2e321420653cf45bfc201c4569ab69, type: 3}
    - time: 0.35000002
      value: {fileID: 21300000, guid: 5bfce4c06680fc54b95464c59df1639e, type: 3}
    - time: 0.40000004
      value: {fileID: 21300000, guid: df743ccfa2d836547b759a5c9cbec107, type: 3}
    - time: 0.45000005
      value: {fileID: 21300000, guid: 8865f739e6ee74a459490282a8f4c5d6, type: 3}
    - time: 0.50000006
      value: {fileID: 21300000, guid: a8cf642d607dec441bca07c46772d44f, type: 3}
    attribute: m_Sprite
    path: 
    classID: 212
    script: {fileID: 0}
  m_SampleRate: 20
  m_WrapMode: 0
  m_Bounds:
    m_Center: {x: 0, y: 0, z: 0}
    m_Extent: {x: 0, y: 0, z: 0}
  m_ClipBindingConstant:
    genericBindings:
    - serializedVersion: 2
      path: 0
      attribute: 0
      script: {fileID: 0}
      typeID: 212
      customType: 23
      isPPtrCurve: 1
    pptrCurveMapping:
    - {fileID: 21300000, guid: c65ad100c3590b046a7e9b261d9d4379, type: 3}
    - {fileID: 21300000, guid: fcea9064aeb964d48af182345d2a93eb, type: 3}
    - {fileID: 21300000, guid: cda40fda29006904489256aaa9765db2, type: 3}
    - {fileID: 21300000, guid: 938e7d4cd61f7d34c82310b1ac588ec8, type: 3}
    - {fileID: 21300000, guid: 4e57701e0cef6f343afacd9ce6d3bcd6, type: 3}
    - {fileID: 21300000, guid: 08e7920ba2361cd488a654d13ffbe648, type: 3}
    - {fileID: 21300000, guid: ba2e321420653cf45bfc201c4569ab69, type: 3}
    - {fileID: 21300000, guid: 5bfce4c06680fc54b95464c59df1639e, type: 3}
    - {fileID: 21300000, guid: df743ccfa2d836547b759a5c9cbec107, type: 3}
    - {fileID: 21300000, guid: 8865f739e6ee74a459490282a8f4c5d6, type: 3}
    - {fileID: 21300000, guid: a8cf642d607dec441bca07c46772d44f, type: 3}
  m_AnimationClipSettings:
    serializedVersion: 2
    m_AdditiveReferencePoseClip: {fileID: 0}
    m_AdditiveReferencePoseTime: 0
    m_StartTime: 0
    m_StopTime: 0.5500001
    m_OrientationOffsetY: 0
    m_Level: 0
    m_CycleOffset: 0
    m_HasAdditiveReferencePose: 0
    m_LoopTime: 1
    m_LoopBlend: 0
    m_LoopBlendOrientation: 0
    m_LoopBlendPositionY: 0
    m_LoopBlendPositionXZ: 0
    m_KeepOriginalOrientation: 0
    m_KeepOriginalPositionY: 1
    m_KeepOriginalPositionXZ: 0
    m_HeightFromFeet: 0
    m_Mirror: 0
  m_EditorCurves: []
  m_EulerEditorCurves: []
  m_HasGenericRootTransform: 0
  m_HasMotionFloatCurves: 0
  m_Events: []
