{
"skeleton": {
	"hash": "TiKjedQFodGPex8s7zNeBDC+9AQ",
	"spine": "3.8.79",
	"x": -233.58,
	"y": -80.39,
	"width": 461.81,
	"height": 579.02,
	"images": "./Images/",
	"audio": ""
},
"bones": [
	{ "name": "Root", "x": -3.79, "y": 236.58 },
	{ "name": "Right Gun", "parent": "Root", "length": 104.58, "x": -148.06, "y": 30.91 },
	{ "name": "Left Gun", "parent": "Root", "length": 79.04, "x": 111.56, "y": 32.13 },
	{ "name": "Right Jet", "parent": "Root", "length": 120.78, "rotation": -118.24, "x": -50.78, "y": -105.89 },
	{ "name": "Left Jet", "parent": "Root", "length": 120.73, "rotation": -63.69, "x": 94.53, "y": -127.17 }
],
"slots": [
	{ "name": "Left Gun", "bone": "Left Gun", "attachment": "Gun (Charging)" },
	{ "name": "Left Jet Fire", "bone": "Left Jet", "attachment": "Jet Fire (1)" },
	{ "name": "Left Jet", "bone": "Left Jet", "attachment": "Left Jet" },
	{ "name": "Body", "bone": "Root", "attachment": "Body (Charging)" },
	{ "name": "Right Gun", "bone": "Right Gun", "attachment": "Gun (Charging)" },
	{ "name": "Right Jet", "bone": "Right Jet", "attachment": "Right Jet" },
	{ "name": "Right Jet Fire", "bone": "Right Jet", "attachment": "Jet Fire (1)" }
],
"skins": [
	{
		"name": "default",
		"attachments": {
			"Body": {
				"Body": { "x": 0.74, "y": 36.42, "scaleX": -0.25, "scaleY": 0.25, "width": 1446, "height": 1806 },
				"Body (Charging)": { "x": 0.46, "y": 36.29, "scaleX": -0.25, "scaleY": 0.25, "width": 1446, "height": 1806 }
			},
			"Left Gun": {
				"Gun": { "x": 7.29, "y": -4.21, "scaleX": -0.25, "scaleY": 0.25, "width": 902, "height": 527 },
				"Gun (Charging)": { "x": 7.59, "y": -4.09, "scaleX": -0.25, "scaleY": 0.25, "width": 903, "height": 527 }
			},
			"Left Jet": {
				"Left Jet": {
					"x": 27.68,
					"y": 0.08,
					"scaleX": -0.25,
					"scaleY": 0.25,
					"rotation": 63.69,
					"width": 736,
					"height": 821
				}
			},
			"Left Jet Fire": {
				"Jet Fire (1)": { "x": 134.45, "y": 2.36, "rotation": -86.58, "width": 91, "height": 110 },
				"Jet Fire (2)": { "x": 162.51, "y": 6.34, "rotation": -86.31, "width": 91, "height": 179 },
				"Jet Fire (3)": { "x": 199.56, "y": 7.28, "rotation": -86.31, "width": 96, "height": 250 },
				"Jet Fire (4)": { "x": 210.35, "y": 9.65, "rotation": -86.31, "width": 107, "height": 271 },
				"Jet Fire (5)": { "x": 211.91, "y": 6.95, "rotation": -86.31, "width": 96, "height": 282 }
			},
			"Right Gun": {
				"Gun": { "x": 31.8, "y": -3.49, "scaleX": -0.25, "scaleY": 0.25, "width": 902, "height": 527 },
				"Gun (Charging)": { "x": 31.15, "y": -3.7, "scaleX": -0.25, "scaleY": 0.25, "width": 903, "height": 527 }
			},
			"Right Jet": {
				"Right Jet": {
					"x": 85.08,
					"y": 0.61,
					"scaleX": -0.25,
					"scaleY": 0.25,
					"rotation": 118.24,
					"width": 730,
					"height": 802
				}
			},
			"Right Jet Fire": {
				"Jet Fire (1)": { "x": 158.85, "y": 0.24, "rotation": -91.76, "width": 91, "height": 110 },
				"Jet Fire (2)": { "x": 193.41, "y": -2.16, "rotation": -91.76, "width": 91, "height": 179 },
				"Jet Fire (3)": { "x": 226.85, "y": -2.45, "rotation": -91.76, "width": 96, "height": 250 },
				"Jet Fire (4)": { "x": 238.31, "y": 2.69, "rotation": -91.76, "width": 107, "height": 271 },
				"Jet Fire (5)": { "x": 243.95, "y": 1.66, "rotation": -91.76, "width": 96, "height": 282 }
			}
		}
	}
],
"animations": {
	"Hover": {
		"slots": {
			"Left Jet Fire": {
				"attachment": [
					{ "name": "Jet Fire (3)" },
					{ "time": 0.1333, "name": "Jet Fire (4)" },
					{ "time": 0.2333, "name": "Jet Fire (5)" },
					{ "time": 0.3667, "name": "Jet Fire (4)" },
					{ "time": 0.5, "name": "Jet Fire (3)" }
				]
			},
			"Right Jet Fire": {
				"attachment": [
					{ "name": "Jet Fire (3)" },
					{ "time": 0.1333, "name": "Jet Fire (4)" },
					{ "time": 0.2333, "name": "Jet Fire (5)" },
					{ "time": 0.3667, "name": "Jet Fire (4)" },
					{ "time": 0.5, "name": "Jet Fire (3)" }
				]
			}
		},
		"bones": {
			"Root": {
				"translate": [
					{},
					{ "time": 0.2333, "y": 20.15 },
					{ "time": 0.5 }
				]
			}
		}
	}
}
}