%YAML 1.1
%TAG !u! tag:unity3d.com,2011:
--- !u!21 &2100000
Material:
  serializedVersion: 6
  m_ObjectHideFlags: 0
  m_CorrespondingSourceObject: {fileID: 0}
  m_PrefabInstance: {fileID: 0}
  m_PrefabAsset: {fileID: 0}
  m_Name: Lava3
  m_Shader: {fileID: -6465566751694194690, guid: dffa75677aa9d1748bc3b2ea13a0d075,
    type: 3}
  m_ShaderKeywords: ETC1_EXTERNAL_ALPHA
  m_LightmapFlags: 2
  m_EnableInstancingVariants: 1
  m_DoubleSidedGI: 0
  m_CustomRenderQueue: -1
  stringTagMap: {}
  disabledShaderPasses: []
  m_SavedProperties:
    serializedVersion: 3
    m_TexEnvs:
    - Texture2D_43630B45:
        m_Texture: {fileID: 2800000, guid: 54ec27bd0b8a33d4da87e797a5e04170, type: 3}
        m_Scale: {x: 1, y: 1}
        m_Offset: {x: 0, y: 0}
    - Texture2D_C7B450E7:
        m_Texture: {fileID: 2800000, guid: a4d4a40658602af4bb7adfe1a0506eef, type: 3}
        m_Scale: {x: 1, y: 1}
        m_Offset: {x: 0, y: 0}
    - _MainTex:
        m_Texture: {fileID: 0}
        m_Scale: {x: 1, y: 1}
        m_Offset: {x: 0, y: 0}
    - _MaskTex:
        m_Texture: {fileID: 0}
        m_Scale: {x: 1, y: 1}
        m_Offset: {x: 0, y: 0}
    - _NormalMap:
        m_Texture: {fileID: 0}
        m_Scale: {x: 1, y: 1}
        m_Offset: {x: 0, y: 0}
    - _ObsticalPass:
        m_Texture: {fileID: 8400000, guid: 4cc31766843f4d0409d85892b53c73ad, type: 2}
        m_Scale: {x: 1, y: 1}
        m_Offset: {x: 0, y: 0}
    m_Floats:
    - Boolean_9C3CC465: 0
    - Boolean_FD39DD4C: 1
    - Vector1_BB288C22: 38.9
    - Vector1_BE0FB206: 0.5
    - _obsPass: 1
    - _renderBottom: 0
    - _renderTop: 1
    - _topCellDesncity: 38.9
    m_Colors:
    - Vector2_873C0A8F: {r: 0.01, g: 0.01, b: 0, a: 0}
    - Vector2_8DE11A0D: {r: 0.22, g: 0, b: 0, a: 0}
    - Vector2_979FCBEA: {r: 0.5, g: 0.5, b: 0, a: 0}
    - _LavaTopTiling: {r: 2, g: 7.18, b: 0, a: 0}
    - _MainColor: {r: 1, g: 0.3596303, b: 0, a: 0}
    - _hightlightColor: {r: 0.9518872, g: 0.9529412, b: 0.1215686, a: 0}
    - _lavaBottomTiling: {r: 5, g: 5, b: 0, a: 0}
    - _lavaOffsetTOP: {r: 0.22, g: 0, b: 0, a: 0}
